A   ZN  501     A  CYS  189 protein  3.279
A   ZN  501     A  CYS  192 protein  3.359
A   ZN  501     A  CYS  224 protein  3.267
A   ZN  501     A  CYS  226 protein  3.160
A  GOL  502     A  SER   85 protein  2.818
A  GOL  502     A  HIS   89 protein  2.731
A  GOL  502     A  HOH  604 unknown  3.385
A  GOL  502     A  HOH  688 unknown  3.318
A  GOL  502     A  HOH  805 unknown  3.113
A  PO4  503     A  HIS   47 protein  3.500
A  PO4  503     A  SER   49 protein  3.413
A  PO4  504     A  HIS   73 protein  3.086
A  PO4  504     A  ASN  128 protein  3.428
A  PO4  504     A  PRO  129 protein  3.498
A  PO4  504     A  GLN  174 protein  3.344
A  PO4  504     A  HIS  175 protein  2.863
A   CL  505     A  PHE  127 protein  3.180
A   CL  505     A  HOH  649 unknown  2.986
A   CL  505     A  HOH  650 unknown  3.105
A   CL  506     A  THR   10 protein  3.463
A   CL  506     A  VAL   11 protein  2.794
A   CL  506     A  ASP   12 protein  3.307
A   CL  506     A  ASN   15 protein  2.826
A   CL  506     A  GLU   67 protein  2.710
A  GOL  507     A  ASP  164 protein  3.053
A  GOL  507     A  TYR  273 protein  3.373
A  GOL  507     A  HOH  614 unknown  2.559
