A   ZN  501     A  CYS  189 protein  3.286
A   ZN  501     A  CYS  192 protein  3.306
A   ZN  501     A  CYS  224 protein  3.153
A   ZN  501     A  CYS  226 protein  3.216
A  PO4  502     A  TRP  106 protein  2.704
A  PO4  502     A  ASN  109 protein  3.167
A  PO4  502     A  SER  111 protein  3.500
A  PO4  502     A  GLY  271 protein  2.608
A  PO4  502     A  HIS  272 protein  3.309
A   CL  503     A  THR   10 protein  3.419
A   CL  503     A  VAL   11 protein  2.806
A   CL  503     A  ASP   12 protein  3.266
A   CL  503     A  ASN   15 protein  2.979
A   CL  503     A  GLU   67 protein  2.904
