A  Y95  501     A  GLY  163 protein  3.406
A  Y95  501     A  ASP  164 protein  2.878
A  Y95  501     A  GLU  167 protein  3.493
A  Y95  501     A  PRO  248 protein  3.371
A  Y95  501     A  TYR  264 protein  3.491
A  Y95  501     A  TYR  268 protein  3.245
A  Y95  501     A  GLN  269 protein  3.262
A  Y95  501     A  THR  301 protein  3.445
A  Y95  501     A  ACT  511 unknown  3.416
A  Y95  501     A  HOH  691 unknown  3.418
A  Y95  501     A  HOH  731 unknown  3.394
A  Y95  501     A  HOH  817 unknown  3.347
A   ZN  502     A  CYS  189 protein  3.379
A   ZN  502     A  CYS  192 protein  3.065
A   ZN  502     A  CYS  224 protein  2.251
A   ZN  502     A  CYS  226 protein  3.142
A   ZN  503     A  HIS   17 protein  3.004
A   ZN  503     A  GLU   67 protein  2.840
A   ZN  503     A  HOH  788 unknown  2.129
A   ZN  503     A  HOH  789 unknown  2.119
A   ZN  504     A  HIS   89 protein  3.479
A   ZN  504     A  ASP  108 protein  3.076
A   ZN  504     A  HOH  744 unknown  2.002
A   ZN  505     A  HIS   73 protein  3.270
A   ZN  505     A   CL  507 unknown  2.194
A   ZN  505     A   CL  508 unknown  2.584
A   CL  506     A  THR   10 protein  3.041
A   CL  506     A  VAL   11 protein  2.917
A   CL  506     A  ASP   12 protein  3.397
A   CL  506     A  ASN   15 protein  2.899
A   CL  506     A  GLU   67 protein  2.863
A   CL  507     A   ZN  505 unknown  2.194
A   CL  508     A   ZN  505 unknown  2.584
A  MES  509     A  ALA   39 protein  3.164
A  MES  509     A  ASP   40 protein  3.076
A  MES  509     A  ASN   88 protein  2.962
A  MES  509     A  HOH  627 unknown  3.284
A  MES  509     A  HOH  745 unknown  2.874
A  ACT  510     A  TRP  106 protein  3.473
A  ACT  510     A  ASN  109 protein  3.317
A  ACT  510     A  SER  111 protein  3.464
A  ACT  510     A  GLY  271 protein  3.393
A  ACT  510     A  HIS  272 protein  2.742
A  ACT  510     A  HOH  701 unknown  3.402
A  ACT  511     A  ASP  164 protein  3.439
A  ACT  511     A  ARG  166 protein  3.374
A  ACT  511     A  GLU  167 protein  3.420
A  ACT  511     A  Y95  501 unknown  3.402
A  ACT  511     A  HOH  704 unknown  2.852
