Overall RMSD: 1.161
attribute: mavRMSDca
recipient: residues
	:3.A	0.8209019429871052
	:4.A	1.1575029157630705
	:5.A	1.2947142541889236
	:6.A	2.2509200341193876
	:7.A	1.3364370542603166
	:8.A	1.0445836491157645
	:9.A	0.3846894851695306
	:10.A	0.25788757240317367
	:11.A	0.2880833212804967
	:12.A	0.34965840473238397
	:13.A	0.8785061183622991
	:14.A	1.2092762298168271
	:15.A	1.1037413646321341
	:16.A	1.517404692229466
	:17.A	1.3615832695799375
	:18.A	2.0019792706219444
	:19.A	2.1605760805859076
	:20.A	2.6847698225360035
	:21.A	1.757225654262994
	:22.A	1.6150003095974919
	:23.A	1.809208390429361
	:25.A	3.3886925207224072
	:26.A	2.999474787358613
	:27.A	3.104528788721402
	:28.A	3.085336610485154
	:29.A	2.8001842796501712
	:30.A	3.5662736855154535
	:31.A	1.5665477969088586
	:32.A	1.910378758257113
	:33.A	2.2771458012169563
	:34.A	1.7380509198524665
	:35.A	1.5845658711457873
	:36.A	1.2613064655348356
	:37.A	2.4144251903921123
	:38.A	2.8745911013568493
	:39.A	2.768407665066697
	:40.A	2.7240994842332698
	:41.A	2.4235498756988645
	:42.A	2.651306281816568
	:43.A	3.4259662870495395
	:44.A	3.3255005638249413
	:45.A	3.0400978602669966
	:46.A	2.058603410081705
	:47.A	2.305091104490234
	:48.A	1.5298594706704256
	:49.A	2.45123173119148
	:50.A	1.7194211235180252
	:51.A	1.679377265536247
	:52.A	1.6808182531136426
	:53.A	1.380824753544054
	:54.A	0.8656939412979644
	:55.A	0.5043976605814057
	:56.A	0.38602849635746467
	:57.A	0.860618382327497
	:58.A	1.3881851461530623
	:59.A	1.1843010596972376
	:60.A	1.5516861796123629
	:61.A	1.7278072809199543
	:62.A	2.1554885757062046
	:63.A	1.7058091921431326
	:64.A	0.9907946305869921
	:65.A	1.468068799477738
	:66.A	0.8677620641627524
	:67.A	0.5737952596527799
	:68.A	0.6412097940611948
	:69.A	0.5559397449364452
	:70.A	0.4160252396189429
	:71.A	0.3654668247597759
	:72.A	0.6679962574745467
	:73.A	0.6093225746679666
	:74.A	0.6832642241475837
	:75.A	1.236890051702253
	:76.A	0.7096428679272394
	:77.A	0.9049425396123214
	:78.A	0.8575832321121963
	:79.A	0.691825122411726
	:80.A	0.9232247830295721
	:81.A	0.9468421198911671
	:82.A	1.0155240026705399
	:83.A	0.5829648359892765
	:84.A	0.5779904843507412
	:85.A	0.6478850206633926
	:86.A	0.33705489167196473
	:87.A	0.28504210215335324
	:88.A	0.5165665494396643
	:89.A	0.5201874662080984
	:90.A	0.4791075035939243
	:91.A	0.8013457431096755
	:92.A	0.7033654810978422
	:93.A	0.7269724891631042
	:94.A	0.6887742736194492
	:95.A	0.3022201184567273
	:96.A	0.22947766775876088
	:97.A	0.6163034966637808
	:98.A	0.9315385123546984
	:99.A	1.9738079947147804
	:100.A	1.292307239010907
	:101.A	0.16763352886579624
	:102.A	0.25418497201840784
	:103.A	0.4163111816898553
	:104.A	0.3873435167909799
	:105.A	0.5511605936566949
	:106.A	0.9045822240128294
	:107.A	0.8157407676461924
	:108.A	0.9808817461855446
	:109.A	1.1094363433744208
	:110.A	0.7443554258551466
	:111.A	0.948255767185206
	:112.A	0.4512261074007212
	:113.A	0.5154658087594167
	:114.A	0.5562463483026211
	:115.A	0.5070907216662494
	:116.A	0.29663108400840205
	:117.A	0.42059957203972864
	:118.A	0.5122089417415555
	:119.A	0.529000945178739
	:120.A	0.21403270778085057
	:121.A	0.557614562220177
	:122.A	0.5508184818976228
	:123.A	0.4894752291995984
	:124.A	0.582143453111004
	:125.A	0.2980553639846228
	:126.A	0.6106815864261861
	:127.A	0.6868165693982669
	:128.A	0.6237010501834926
	:129.A	0.4804518706384571
	:130.A	0.4304149160984078
	:131.A	0.4668629349177367
	:132.A	0.47810145366856766
	:133.A	0.5915445883447874
	:134.A	0.629546662289616
	:135.A	0.2539940944195347
	:136.A	0.5637818727131975
	:137.A	0.6167292761009431
	:138.A	0.5164629705990547
	:139.A	0.5003528754788962
	:140.A	0.5170193419979489
	:141.A	0.5944981076504776
	:142.A	0.25955731544304206
	:143.A	0.8121409976106371
	:144.A	0.42621825394977964
	:145.A	0.5579202451963969
	:146.A	0.39148052314259385
	:147.A	0.28706445269311853
	:148.A	0.2846664715065656
	:149.A	0.3493107499061616
	:150.A	0.23965391713886186
	:151.A	0.2347381519906754
	:152.A	0.4705209878421976
	:153.A	0.5331303780502464
	:154.A	0.4053356633705014
	:155.A	0.350048568058766
	:156.A	0.5132854956064933
	:157.A	0.5870698425230174
	:158.A	0.6046825613493432
	:159.A	0.7801083258112287
	:160.A	1.0123887593212453
	:161.A	0.5383697614093913
	:162.A	0.674979258940593
	:163.A	0.8152993315341388
	:164.A	0.6931673679566841
	:165.A	0.6705594679072063
	:166.A	0.44279227635540436
	:167.A	0.5972110179827557
	:168.A	0.2973163298576115
	:169.A	0.30632335856085613
	:170.A	0.23539966015268923
	:171.A	0.08598837130682158
	:172.A	0.21155850254717481
	:173.A	0.3243979038156709
	:174.A	0.25807169546464986
	:175.A	0.053935146240645604
	:176.A	0.4781610607316323
	:177.A	0.5584048710389279
	:178.A	0.45265549814401007
	:179.A	0.8325004504503238
	:180.A	0.8017312517296513
	:181.A	0.674590246001226
	:182.A	0.6882775602909026
	:183.A	0.7432805661390612
	:184.A	0.5468765857119855
	:196.A	2.484808845766612
	:197.A	1.5445915317649523
	:198.A	1.207316445676112
	:199.A	1.4091277443865773
	:200.A	1.2364792760091041
	:201.A	1.2232129822725042
	:202.A	0.8158713133822026
	:203.A	0.8046800606452251
	:204.A	0.716006983206169
	:205.A	0.3950329100214287
	:206.A	0.867002306802009
	:207.A	0.7455829933682739
	:208.A	0.4455333881989138
	:209.A	1.207488716303378
	:210.A	0.9431065687397171
	:211.A	0.5128596299183663
	:212.A	0.7756861478716671
	:213.A	0.7565355246120357
	:214.A	1.113624712369476
	:215.A	1.0347661571582247
	:216.A	1.6963784955015198
	:218.A	2.1651999907629755
	:234.A	0.29357452205530904
	:235.A	1.0777207430498847
	:236.A	1.2648509793647644
	:237.A	0.6294974185808901
	:238.A	0.3652026834512602
	:239.A	0.41271176382555597
	:240.A	0.6287789754754843
	:241.A	0.6030414579446409
	:242.A	0.601715879797094
	:243.A	0.7660633133103254
	:244.A	0.10856334556377563
	:245.A	0.5238196254437136
	:246.A	0.750659043774198
	:247.A	0.7202471797931627
	:248.A	0.740878532554427
	:249.A	0.5844116699724539
	:250.A	0.704449430406477
	:251.A	0.7543586680087938
	:252.A	0.5728891690370777
	:253.A	0.33656648674518824
	:254.A	0.313606441260383
	:255.A	0.32026395363824106
	:256.A	0.5322527595043441
	:257.A	0.5711619735241448
	:258.A	0.5142022948217889
	:259.A	0.3588885620913549
	:260.A	0.22232858565645774
	:261.A	0.3624444785067181
	:262.A	0.3945491097442844
	:263.A	0.18545889032343565
	:264.A	0.26871732359488537
	:265.A	0.8108403048689629
	:266.A	0.8116452427015163
	:267.A	1.3749494536163878
	:268.A	1.848890748530051
	:269.A	2.346600519901074
	:271.A	0.6858979515933811
	:272.A	0.6829011641518867
	:273.A	0.5019342586435019
	:274.A	0.42145818297904275
	:275.A	0.38916705924319644
	:276.A	0.4649569872579654
	:277.A	0.3366556103795067
	:278.A	0.45223224122125416
	:279.A	1.220480233350787
	:280.A	1.1390970107940703
	:281.A	1.133548852057116
	:282.A	0.7459745303963184
	:283.A	0.3153331571528778
	:284.A	0.6515842232589742
	:285.A	0.6512111792652224
	:286.A	0.63759626724127
	:287.A	1.109528728785334
	:288.A	0.4316167281280942
	:289.A	0.4038972641650378
	:290.A	0.4815682713800845
	:291.A	0.6894156946284291
	:292.A	1.0216232182169744
	:293.A	1.0994071129477063
	:294.A	1.049669471786235
	:295.A	0.7134745966045308
	:296.A	0.45795851340487037
	:297.A	0.32088627268862807
	:298.A	0.5279119244722573
	:299.A	0.7335863957299066
	:300.A	0.4676815155637359
	:301.A	0.4990691334875357
	:302.A	0.208820497078231
	:303.A	0.19639246421388656
	:304.A	0.28339724769306307
	:305.A	0.5351579206178287
	:306.A	0.6540290513425153
	:307.A	0.9124960273886101
	:308.A	1.9256554728195883
	:309.A	2.010037561838085
