PDB,chain,identity,e_value
6XRA,C,100,0.0
6XR8,C,100,0.0
6XR8,B,100,0.0
6XR8,A,100,0.0
6XRA,B,100,0.0
6XRA,A,100,0.0
6ZWV,C,99.9,0.0
6ZWV,B,99.9,0.0
6ZWV,A,99.9,0.0
6ZP7,B,99.8,0.0
6ZP7,C,99.8,0.0
6ZP5,C,99.8,0.0
6ZOW,a,99.8,0.0
6ZOW,B,99.8,0.0
6ZP5,B,99.8,0.0
6ZP5,A,99.8,0.0
6ZOW,C,99.8,0.0
6ZP7,A,99.8,0.0
6ZOW,A,99.8,0.0
7C2L,C,99.8,0.0
7C2L,A,99.8,0.0
7C2L,B,99.8,0.0
7JJJ,D,99.6,0.0
7JJJ,C,99.6,0.0
7JJI,A,99.6,0.0
7JJJ,E,99.6,0.0
7JJI,B,99.6,0.0
7JJJ,B,99.6,0.0
7JJI,C,99.6,0.0
7JJJ,F,99.6,0.0
7JJJ,A,99.6,0.0
6ZB4,A,95.2,0.0
6ZB5,C,95.2,0.0
6ZB4,C,95.2,0.0
6ZB4,B,95.2,0.0
6ZB5,B,95.2,0.0
6ZB5,A,95.2,0.0
7K8Y,E,95.1,0.0
7K8X,C,95.1,0.0
7K8T,B,95.1,0.0
7K8X,A,95.1,0.0
7K8S,A,95.1,0.0
7K8X,B,95.1,0.0
7K8Y,B,95.1,0.0
7K8T,C,95.1,0.0
7K8S,C,95.1,0.0
7K8S,B,95.1,0.0
7K8Y,D,95.1,0.0
7K8T,A,95.1,0.0
7K8Z,C,95.1,0.0
7K8W,G,95.1,0.0
7K8V,C,95.1,0.0
7K8V,B,95.1,0.0
6XCN,A,95.1,0.0
7K8Z,A,95.1,0.0
7K8U,B,95.1,0.0
6XCN,C,95.1,0.0
7K8W,A,95.1,0.0
6XCN,E,95.1,0.0
7K8Z,B,95.1,0.0
7K8V,A,95.1,0.0
6XCM,A,95.1,0.0
6XCM,C,95.1,0.0
7K8W,B,95.1,0.0
6XCM,B,95.1,0.0
7K8U,C,95.1,0.0
7K8U,A,95.1,0.0
7A5R,A,95.1,0.0
7A5R,B,95.1,0.0
7A93,B,95.1,0.0
7A94,C,95.1,0.0
7A98,B,95.1,0.0
7A95,B,95.1,0.0
6ZGH,B,95.1,0.0
6ZGG,C,95.1,0.0
6ZGG,B,95.1,0.0
7A97,C,95.1,0.0
6ZGI,C,95.1,0.0
7A98,C,95.1,0.0
6ZGI,A,95.1,0.0
7A95,A,95.1,0.0
7A95,C,95.1,0.0
7A93,C,95.1,0.0
7A97,B,95.1,0.0
6ZGH,A,95.1,0.0
6ZGI,B,95.1,0.0
6ZGH,C,95.1,0.0
7A94,B,95.1,0.0
7A97,A,95.1,0.0
7A98,A,95.1,0.0
7A5S,A,95.1,0.0
7A96,A,95.1,0.0
7A93,A,95.1,0.0
6ZGG,A,95.1,0.0
7A96,C,95.1,0.0
7A94,A,95.1,0.0
7A5S,B,95.1,0.0
7A96,B,95.1,0.0
