"No.","PDBid","chain","Resolution","Deposition date","Space Group","PQ1","PDBid_chain",1,2,3,4,5,6,7,8,9,10,11,12,13,14,15,16,17,18,19,20,21,22,23,24,25,26,27,28,29,30,31,32,33,34,35,36,37,38,39,40,41,42,43,44,45,46,47,48,49,50,51,52,53,54,55,56,57,58,59,60,61,62,63,64,65,66,67,68,69,70,71,72,73,74,75,76,77,78,79,80,81,82,83,84,85,86,87,88,89,90,91,92,93,94,95,96,97,98,99,100,101,102,103,104,105,106,107,108,109,110,111,112,113,114,115,116,117,118,119,120,121,122,123,124,125,126,127,128,129,130,131,132,133,134,135,136,137,138,139,140,141,142,143,144,145,146,147,148,149,150,151,152,153,154,155,156,157,158,159,160,161,162,163,164,165,166,167,168,169,170,171,172,173,174,175,176,177,178,179,180,181,182,183,184,185,186,187,188,189,190,191,192,193,194,195,196,197,198,199,200,201,202,203,204,205,206,207,208,209,210,211,212,213,214,215,216,217,218,219,220,221,222,223,224,225,226,227,228,229,230,231,232,233,234,235,236,237,238,239,240,241,242,243,244,245,246,247,248,249,250,251,252,253,254,255,256,257,258,259,260,261,262,263,264,265,266,267,268,269,270,271,272,273,274,275,276,277,278,279,280,281,282,283,284,285,286,287,288,289,290,291,292,293,294,295,296,297,298,299,300,301,302,303,304,305,306,307,308,309,310,311,312,313,314,315,316,317,318,319,320,
1,"6W9C","A",2.70,01.04.20,"C2","P0DTD1",29.4,6w9c_A,NaN,NaN,NaN,58.84,53.66,51.56,46.44,43.96,42.19,38.10,33.93,30.76,32.03,35.07,40.18,42.17,47.12,50.61,52.42,56.30,54.81,58.84,56.67,60.14,58.16,52.40,48.52,49.00,54.94,54.21,49.09,47.23,41.48,39.66,34.20,32.24,26.45,25.96,30.11,35.07,39.66,43.84,47.54,46.78,50.12,48.51,46.49,47.21,41.30,41.49,45.52,44.26,38.95,37.10,37.02,34.64,38.73,38.13,40.03,46.00,47.95,46.07,45.50,41.15,38.57,37.90,36.20,31.84,29.66,30.65,27.21,22.84,22.41,23.49,29.03,28.05,32.82,30.48,25.49,27.78,29.88,24.91,21.31,24.67,24.96,19.12,18.21,21.63,18.05,12.50,13.79,13.24,8.74,3.58,1.78,6.77,12.28,15.99,21.71,20.39,15.28,9.39,7.66,5.60,9.37,14.46,16.06,19.69,19.97,13.67,15.03,13.19,7.53,7.95,11.77,7.34,5.54,11.32,13.13,10.74,14.83,19.21,18.55,20.36,16.20,17.94,15.22,18.34,19.48,23.17,20.65,15.04,18.13,20.98,15.70,13.41,18.51,16.92,11.23,14.58,17.27,12.05,11.99,7.61,9.67,13.68,9.74,7.01,13.05,13.09,8.11,12.75,16.53,13.18,12.14,18.17,18.24,21.19,19.76,22.49,22.91,22.35,17.60,16.28,12.49,12.69,11.25,7.06,4.96,4.24,4.39,3.22,4.97,5.46,9.99,11.38,16.25,14.61,16.68,21.51,18.64,19.05,19.85,22.00,23.25,26.65,27.78,33.14,35.24,40.36,36.81,30.48,31.50,28.43,22.48,21.31,16.34,15.76,12.41,12.29,10.36,6.99,8.75,13.87,14.97,13.95,18.45,21.06,27.24,29.78,29.31,33.22,31.19,37.30,37.45,31.98,34.89,39.89,36.86,35.39,37.03,32.70,33.46,30.63,NaN,NaN,NaN,39.81,38.85,35.23,35.10,30.08,31.38,28.96,30.18,28.62,26.00,25.49,22.68,24.11,21.70,20.31,18.07,22.27,21.93,26.88,29.61,31.11,36.33,39.37,38.18,40.09,36.48,39.90,38.61,37.79,37.02,31.06,26.75,23.41,23.10,21.09,25.53,26.61,31.45,34.08,35.74,32.25,29.84,32.49,28.77,24.93,21.05,21.12,19.75,24.75,25.16,30.69,32.28,37.67,37.01,33.31,28.10,25.68,19.83,19.31,13.61,13.01,19.16,22.67,28.74,32.88,38.16,42.14,42.07,38.38,39.65,36.38,33.63,29.35,25.40,21.55,23.91,21.83,26.23,27.80,28.94,30.99,32.56,33.74,35.67,37.87,43.40,41.60,41.30,NaN,NaN,NaN,NaN,NaN,
2,"6W9C","B",2.70,01.04.20,"C2","P0DTD1",29.4,6w9c_B,NaN,NaN,NaN,50.97,50.32,50.37,44.99,43.16,38.53,36.19,31.34,31.38,34.21,39.18,43.27,44.21,47.17,50.57,48.40,50.48,44.71,44.78,42.47,39.05,35.71,30.24,31.10,27.54,32.20,37.38,34.90,29.36,23.70,25.63,23.13,26.78,25.05,18.37,18.84,16.88,22.33,22.03,20.18,24.88,31.63,37.15,39.44,45.55,44.53,41.28,47.59,48.22,41.82,37.78,32.50,28.49,29.57,28.36,34.27,38.22,44.26,46.65,46.56,39.94,38.58,41.31,38.48,32.23,33.13,35.34,30.23,24.70,27.65,27.14,31.48,26.54,26.55,19.76,17.85,18.57,14.58,9.17,11.10,13.67,7.69,6.45,13.32,15.02,14.66,15.51,21.44,24.09,23.36,28.38,26.85,32.31,32.54,32.72,33.44,30.78,25.19,24.01,23.30,23.10,28.26,26.82,23.41,18.98,20.67,17.03,20.99,16.16,11.23,16.51,16.24,9.32,11.26,15.71,10.91,7.24,13.71,12.15,5.62,8.04,9.92,16.28,17.08,23.14,23.52,26.47,22.83,17.06,20.32,24.79,20.08,16.85,23.08,25.46,20.64,22.10,28.86,28.39,26.54,19.63,18.48,17.28,13.39,9.36,8.71,9.85,3.94,1.60,7.93,11.14,10.15,11.86,8.48,5.57,8.39,14.95,15.15,19.76,16.94,18.44,14.59,16.38,16.64,9.68,8.13,14.04,13.48,8.98,11.83,17.93,17.23,15.61,19.85,17.96,24.75,23.10,18.80,22.93,24.19,29.73,33.29,38.85,44.51,48.86,55.69,60.38,65.32,61.80,56.92,50.40,48.04,41.76,39.12,34.34,30.18,27.01,22.61,19.05,23.81,21.24,15.26,18.48,24.38,28.69,33.80,32.07,27.71,27.94,22.61,25.64,31.75,29.16,27.07,33.02,37.84,40.34,46.97,48.15,53.93,NaN,NaN,NaN,NaN,NaN,56.83,51.84,45.67,39.86,33.99,27.69,27.94,22.77,17.60,15.35,10.86,4.94,4.38,11.05,14.08,20.86,24.29,31.09,34.85,35.25,40.10,42.45,38.36,38.45,32.71,32.53,30.48,24.47,22.60,18.97,15.75,18.30,21.10,22.46,28.99,31.00,37.06,39.52,39.91,37.46,32.72,34.69,32.55,30.15,25.97,27.57,24.13,26.73,24.05,25.48,28.11,33.73,35.84,33.90,33.51,33.02,29.95,31.10,28.08,33.48,37.60,38.13,41.47,41.64,43.44,42.61,41.50,39.79,41.91,40.21,37.38,31.18,27.70,21.42,19.64,13.05,11.54,6.08,4.48,5.67,10.65,13.68,19.32,23.67,25.70,32.48,NaN,NaN,NaN,NaN,NaN,NaN,
3,"6W9C","C",2.70,01.04.20,"C2","P0DTD1",29.4,6w9c_C,NaN,NaN,NaN,77.83,74.18,70.38,62.93,57.35,51.73,45.90,38.75,37.21,41.60,44.74,49.77,53.46,57.85,64.04,65.02,70.81,68.21,72.52,73.89,74.44,67.47,61.22,56.52,51.48,56.35,58.27,51.89,46.01,41.37,45.01,42.87,46.37,41.49,37.10,43.00,43.10,50.00,48.78,53.71,58.98,64.67,66.09,69.54,73.82,68.87,63.89,68.59,64.96,57.96,51.85,48.49,41.88,42.41,37.30,38.87,43.66,47.84,47.72,50.16,44.24,39.20,41.84,41.36,34.33,32.16,36.19,32.16,25.21,25.63,22.19,24.71,18.69,23.43,20.15,19.33,26.25,27.17,21.51,22.43,29.71,29.22,24.76,28.53,35.04,33.15,28.18,33.61,37.63,32.46,32.11,25.48,26.00,20.40,18.76,13.98,10.43,10.13,14.92,17.65,23.13,30.32,32.12,33.89,32.56,30.00,23.97,23.99,18.45,14.01,15.99,14.51,7.94,6.66,7.35,6.79,3.30,3.32,6.85,12.79,17.95,18.06,22.17,20.24,25.69,24.63,28.71,25.36,18.67,21.99,26.28,21.67,16.03,20.92,23.75,17.54,14.59,21.26,22.44,25.87,20.38,24.80,23.86,16.76,15.52,19.17,15.47,8.52,11.80,12.68,7.77,2.69,7.09,12.96,19.96,25.01,29.04,24.54,25.37,19.54,19.23,15.54,17.86,14.79,8.07,9.68,13.94,8.61,8.15,15.15,17.34,17.33,19.89,27.22,28.51,35.38,39.23,35.93,41.45,43.12,50.16,51.84,58.84,60.92,68.25,72.16,79.86,80.06,74.60,75.63,70.15,63.66,59.37,52.91,49.42,41.89,38.32,31.25,25.53,30.90,34.21,28.63,27.46,33.31,34.47,41.42,41.66,37.00,40.66,39.33,45.46,49.61,47.08,50.64,56.86,57.42,55.53,59.77,57.00,60.05,62.95,NaN,NaN,70.33,71.62,67.36,65.61,62.73,56.02,54.62,50.29,54.75,50.25,42.74,40.36,32.87,27.52,24.62,27.31,24.67,30.58,30.45,36.47,38.57,38.90,44.76,46.84,43.38,42.31,35.31,35.15,28.75,26.27,31.35,26.17,18.70,17.72,22.29,23.21,29.88,33.08,39.79,43.38,43.86,39.34,35.09,39.41,36.95,33.59,27.46,26.42,20.63,22.16,16.84,18.88,14.10,16.01,22.06,24.24,22.05,25.59,22.61,27.86,26.07,29.29,31.53,27.94,30.97,28.89,33.09,33.19,37.23,37.48,42.60,41.65,40.19,34.20,31.35,25.91,26.00,21.84,25.67,25.37,31.79,35.84,42.87,46.23,53.56,57.13,63.47,66.91,NaN,NaN,NaN,NaN,NaN,NaN,
4,"6WRH","A",1.60,06.05.20,"P3221","P0DTD1",78.8,6wrh_A,NaN,NaN,NaN,44.14,41.64,42.91,38.50,38.26,35.81,33.60,30.14,28.64,29.50,34.58,39.10,40.13,43.78,46.13,44.96,46.48,41.98,42.61,37.58,38.34,38.25,33.14,32.67,33.99,39.63,41.17,38.43,36.11,29.88,27.29,21.52,20.28,17.15,13.23,13.02,17.73,21.41,26.76,26.52,24.33,28.94,30.43,27.98,32.53,29.85,30.09,36.56,38.35,32.64,31.28,28.35,26.99,30.83,31.73,36.24,41.59,46.09,47.02,45.61,39.76,38.77,39.71,36.65,31.41,31.61,32.48,27.88,23.17,25.34,26.30,31.82,29.33,31.79,26.49,22.10,21.85,20.61,16.48,13.57,13.91,11.30,6.44,7.12,5.64,0.62,4.47,9.34,9.42,11.85,17.86,19.37,25.36,28.45,30.06,33.52,31.83,25.59,21.73,19.86,16.88,20.24,19.62,15.62,13.93,17.29,13.07,17.50,14.25,9.09,13.81,15.62,9.52,11.04,16.68,14.15,11.55,17.74,19.03,14.82,15.57,12.60,16.37,15.40,19.82,21.19,24.44,20.68,15.55,19.86,22.85,17.55,16.26,22.65,22.14,17.83,21.92,26.56,23.44,19.96,14.26,10.72,12.10,9.99,4.38,5.51,9.20,4.62,7.04,12.24,12.77,12.11,16.62,14.01,13.03,9.65,14.92,17.65,19.91,16.19,16.61,12.66,12.61,12.93,7.85,4.33,7.74,9.21,5.37,5.61,11.55,13.13,12.10,15.23,10.70,14.84,13.83,7.52,5.63,3.71,6.54,11.85,15.64,22.03,25.38,31.68,35.54,38.51,34.67,28.74,22.95,21.40,15.78,15.90,12.05,11.21,10.76,9.51,7.16,9.65,4.78,2.92,8.41,14.13,19.61,24.68,24.51,23.50,24.32,19.37,23.37,25.17,19.61,18.13,23.43,23.68,26.80,31.51,31.26,35.87,35.71,39.53,42.83,45.14,42.06,38.02,31.76,27.13,21.79,17.53,11.82,7.82,3.37,4.36,7.09,8.07,12.72,10.74,8.85,10.69,15.86,18.86,24.78,29.03,30.70,35.28,38.42,35.60,37.39,33.72,36.01,36.38,33.46,29.56,24.94,22.78,22.11,21.89,21.44,26.58,27.46,32.82,34.72,35.41,32.10,30.01,29.95,29.23,26.34,23.26,25.11,23.57,27.63,27.50,31.09,34.70,40.96,40.71,36.78,34.64,32.25,28.17,27.04,22.93,26.93,31.83,34.84,39.35,41.29,44.02,45.17,43.41,39.73,39.95,37.14,33.70,28.51,24.09,18.98,19.45,15.81,17.27,17.53,14.50,14.98,12.37,11.11,9.04,11.86,15.11,15.63,13.87,NaN,NaN,NaN,NaN,NaN,
5,"6YVA","A",3.18,13.05.20,"P6222","P0DTD1",9.1,6yva_A,NaN,NaN,NaN,46.44,42.92,45.27,40.39,40.42,38.82,36.93,33.60,31.67,32.15,38.46,43.92,43.77,48.09,49.75,48.80,49.27,44.42,45.76,38.95,40.70,38.94,39.31,38.16,41.81,48.53,48.88,43.90,41.43,34.33,29.92,22.60,19.91,15.92,12.86,12.94,20.03,23.22,30.43,30.84,26.30,29.78,30.26,25.87,29.85,27.46,29.31,36.40,39.31,32.54,31.88,29.66,28.92,34.32,36.49,42.09,48.63,53.01,54.49,52.49,45.42,44.75,46.37,42.06,36.12,37.13,37.85,31.78,26.75,30.00,31.50,38.17,36.18,38.49,33.70,27.61,26.44,26.59,22.57,17.04,17.00,17.40,11.91,7.34,8.26,7.96,3.74,3.35,7.66,12.24,18.20,19.82,27.44,30.98,34.92,39.49,35.89,28.73,23.47,22.04,19.42,24.12,25.13,22.10,22.22,25.07,18.85,23.32,19.56,12.80,16.70,19.01,11.78,11.81,19.02,16.52,12.57,19.70,22.56,17.93,19.40,15.42,19.68,17.96,23.65,24.49,27.19,22.33,16.38,21.09,23.70,16.73,16.24,23.64,22.02,17.43,23.24,27.66,24.00,18.22,11.94,6.34,9.12,7.37,0.62,6.26,10.05,6.66,12.03,16.75,16.57,17.31,23.35,21.41,21.35,18.32,24.37,26.98,28.65,23.80,23.16,17.49,16.69,17.65,12.04,6.90,10.55,12.85,7.14,7.03,14.54,16.04,14.41,18.57,13.54,18.45,18.58,11.10,8.35,1.62,2.95,NaN,NaN,NaN,NaN,NaN,NaN,NaN,NaN,NaN,NaN,NaN,10.65,13.38,11.14,10.69,11.93,11.54,8.24,10.00,3.34,3.08,9.62,16.34,23.14,28.24,29.10,28.82,29.84,24.05,29.02,29.90,23.10,24.26,26.55,NaN,NaN,NaN,NaN,NaN,NaN,NaN,NaN,NaN,NaN,NaN,NaN,NaN,NaN,NaN,11.85,8.37,8.15,9.23,12.75,12.63,17.57,14.60,11.63,13.49,19.13,23.41,30.60,36.14,38.87,43.61,47.82,44.29,46.61,42.21,45.10,45.47,42.19,37.36,31.31,28.41,27.16,27.08,27.09,33.91,35.61,42.27,45.86,46.67,42.37,40.83,40.73,39.45,34.86,30.16,31.67,29.06,33.74,33.57,38.42,41.50,49.08,49.28,44.95,42.09,39.23,34.00,33.71,28.36,31.88,38.65,41.91,47.46,50.60,53.94,55.70,53.44,49.32,49.90,46.73,42.64,35.96,30.55,24.02,24.30,19.91,22.11,23.30,20.58,23.58,20.42,NaN,NaN,NaN,NaN,NaN,NaN,NaN,NaN,NaN,NaN,NaN,
6,"6WUU","A",2.79,20.05.20,"P21","P0DTD1",66.8,6wuu_A,NaN,NaN,NaN,26.51,27.95,27.34,24.18,22.57,17.89,16.59,12.99,15.13,18.41,22.07,23.00,23.42,23.51,25.73,22.72,24.02,20.56,20.12,22.21,19.36,14.45,13.50,12.34,7.30,6.88,10.50,9.37,4.33,4.47,9.32,12.14,17.31,18.01,14.43,16.20,13.13,14.79,10.35,13.26,17.31,19.03,21.97,27.14,31.00,30.79,26.70,29.44,28.96,25.53,21.47,16.67,12.18,9.53,6.55,10.97,12.11,15.92,19.81,21.09,16.66,15.97,19.60,18.44,13.87,15.82,18.75,15.69,11.33,14.03,12.02,12.32,9.75,7.32,5.19,3.65,2.58,2.02,3.81,3.35,7.03,8.88,8.86,10.67,13.77,15.20,13.90,16.85,19.96,19.26,21.12,19.04,21.75,21.35,20.34,20.14,19.86,16.10,15.86,15.43,16.52,20.61,20.67,20.43,18.93,18.54,14.95,15.47,11.71,9.02,11.34,9.51,5.16,7.17,8.91,4.63,5.20,9.45,7.94,6.98,10.90,10.89,14.22,12.77,15.77,13.97,16.20,12.51,10.08,13.95,16.20,13.01,12.16,16.50,17.47,14.57,15.75,20.17,19.91,18.61,13.92,13.61,11.29,8.69,7.73,6.80,3.94,1.73,4.53,2.05,3.83,6.07,8.20,9.33,10.57,12.81,17.44,16.97,17.94,13.98,12.82,8.95,9.63,10.99,6.63,4.98,9.12,8.66,6.01,9.44,12.31,11.25,12.73,16.84,16.46,21.44,21.98,18.48,20.85,20.15,23.56,24.02,27.00,29.35,31.44,35.08,37.74,41.42,40.94,37.84,34.67,33.80,30.79,29.23,26.84,23.22,21.85,18.53,14.66,17.31,16.86,12.23,12.30,14.84,16.75,18.83,16.25,12.35,11.34,9.88,10.65,14.73,15.60,15.57,17.35,20.98,22.11,26.64,28.32,32.94,35.69,39.13,42.59,41.50,39.31,34.32,31.85,27.72,24.89,21.42,19.27,21.63,20.50,17.21,17.82,14.53,12.15,8.13,8.09,7.13,10.07,12.47,16.78,19.91,19.66,21.01,20.83,16.69,14.71,10.83,8.73,8.71,5.95,2.19,2.12,3.72,5.32,7.47,10.45,14.96,17.89,22.48,25.88,26.82,24.82,24.61,24.20,22.50,20.44,16.38,15.66,12.25,11.82,10.00,9.76,13.31,16.01,15.74,14.56,16.33,17.17,17.15,19.23,18.72,22.24,23.86,22.39,22.75,21.24,20.24,17.51,16.45,16.83,18.72,19.64,19.19,14.90,14.14,9.52,6.50,2.50,3.05,6.17,10.05,14.49,16.96,16.01,19.31,18.62,19.53,21.83,25.41,NaN,NaN,NaN,NaN,NaN,
7,"6WUU","B",2.79,20.05.20,"P21","P0DTD1",66.8,6wuu_B,NaN,NaN,NaN,80.48,75.94,73.21,65.72,60.86,56.20,50.16,43.79,40.27,44.33,46.67,51.92,56.82,62.28,68.43,70.05,75.56,72.79,76.61,74.53,75.88,71.54,63.96,60.37,58.65,66.08,67.04,60.71,56.52,49.26,49.12,43.91,45.66,40.64,34.95,38.10,41.16,48.54,51.55,53.68,56.23,63.23,65.05,66.09,71.43,66.39,63.32,69.53,67.22,59.71,54.43,51.10,45.85,48.74,46.84,49.63,56.69,59.60,57.74,56.12,51.53,48.05,46.69,44.75,39.90,36.75,35.67,32.92,28.08,27.73,30.95,38.24,36.87,41.42,36.69,30.95,33.20,33.55,26.56,24.29,28.38,24.70,17.91,21.68,23.65,16.52,15.81,23.21,21.24,17.60,23.04,24.46,30.24,34.01,34.64,39.46,38.01,30.33,26.03,22.22,17.85,19.47,14.55,8.02,1.16,7.65,5.80,13.07,11.65,5.89,12.92,16.10,10.55,12.41,19.33,17.64,13.51,20.71,23.49,18.57,16.68,10.64,12.56,12.71,17.10,21.87,26.64,26.05,18.73,21.09,27.36,23.29,19.57,26.75,28.92,23.43,26.97,33.49,31.01,28.93,21.36,20.42,22.27,16.72,11.23,15.35,16.18,8.93,11.28,18.43,16.76,15.01,20.69,16.05,15.75,9.82,8.14,13.65,15.56,14.66,17.71,14.77,18.13,17.38,9.81,8.55,12.94,12.42,5.82,5.55,12.08,11.70,6.55,6.75,2.37,6.62,2.45,8.73,14.96,22.36,28.21,35.12,42.04,48.23,54.90,61.63,68.22,70.23,64.38,60.26,52.83,47.10,39.69,34.70,27.09,23.31,16.26,11.76,13.26,20.35,18.41,17.18,21.50,29.08,33.34,40.36,40.98,38.05,41.73,37.61,44.34,47.23,41.37,42.58,50.18,49.67,50.44,55.77,53.74,58.74,60.15,62.68,68.96,71.78,70.16,64.35,59.19,54.31,46.71,43.43,36.58,35.12,28.13,23.62,17.11,14.54,17.13,19.38,21.62,22.36,29.35,30.39,36.57,38.53,38.73,45.53,49.17,47.97,50.58,46.25,50.59,49.45,46.85,44.36,37.11,31.98,29.80,29.27,26.37,31.13,30.29,33.99,35.11,36.50,34.18,29.80,25.97,26.52,23.77,22.49,26.06,26.68,33.38,34.42,40.41,44.00,51.63,51.06,45.85,41.16,36.59,30.63,26.81,22.06,27.72,32.75,38.02,43.55,48.50,53.25,56.98,55.00,49.80,50.65,45.49,41.25,36.56,32.18,27.61,29.82,25.69,28.94,27.68,25.74,23.25,24.30,29.99,32.77,39.66,45.60,48.40,49.40,NaN,NaN,NaN,NaN,NaN,
8,"6WUU","C",2.79,20.05.20,"P21","P0DTD1",66.8,6wuu_C,NaN,NaN,NaN,69.91,66.29,60.47,54.60,47.98,42.58,35.84,29.50,27.10,33.51,33.13,33.89,40.05,42.74,49.75,52.56,59.48,60.96,67.01,70.12,72.96,67.17,61.99,55.56,53.58,58.09,55.17,48.21,47.00,44.17,44.50,42.34,45.17,41.28,37.49,43.63,45.47,51.19,51.57,57.99,60.71,64.53,63.72,67.29,70.60,66.39,60.54,62.99,58.07,53.29,46.39,43.94,37.64,37.89,34.19,31.12,36.09,32.89,26.54,26.76,27.78,22.76,17.91,21.13,19.90,13.08,13.13,16.33,12.60,6.73,11.78,17.41,21.78,27.41,29.10,23.10,26.67,32.07,27.91,24.68,31.26,32.97,27.16,29.01,35.26,31.91,26.66,32.25,34.43,28.14,27.86,24.47,25.64,26.34,22.16,25.19,28.16,21.96,20.63,15.87,17.02,20.10,18.34,23.80,25.79,20.73,15.71,10.18,8.24,8.07,7.80,1.59,1.88,8.15,10.77,10.91,11.92,17.93,20.73,21.10,23.98,18.67,18.15,11.91,10.37,9.43,16.61,17.17,12.99,17.59,23.18,20.96,18.34,25.38,27.64,22.53,24.78,31.29,29.51,29.39,22.43,24.75,23.68,17.18,15.65,19.81,15.26,10.12,15.87,17.72,11.92,14.03,20.59,21.70,26.38,26.18,27.29,26.01,22.63,17.60,15.64,9.87,14.76,15.71,9.09,8.20,13.29,9.69,3.76,10.32,10.19,4.79,10.99,17.15,21.02,23.98,30.23,30.54,36.16,39.23,45.93,48.24,54.93,57.57,64.46,68.88,75.66,78.86,73.59,72.34,66.32,60.22,54.91,48.40,43.23,36.49,31.13,24.16,21.26,27.50,30.46,26.49,25.63,30.94,31.62,36.77,35.53,30.51,35.78,37.31,43.69,45.21,43.76,48.56,53.53,52.80,50.22,54.57,53.82,58.77,62.55,64.79,71.51,70.79,70.20,64.55,62.61,58.64,52.84,51.43,47.73,52.00,47.88,41.32,38.70,32.40,30.68,27.66,27.41,23.15,26.95,25.13,29.03,29.30,25.13,28.41,26.71,27.22,27.67,26.17,31.22,30.94,34.95,35.07,29.15,25.11,18.48,15.46,11.05,11.35,14.42,16.81,23.06,29.15,29.85,29.49,26.67,20.53,13.84,7.98,2.30,6.24,12.60,18.14,25.03,29.19,33.92,28.47,22.02,17.25,10.29,9.20,6.52,11.90,17.48,13.86,14.16,12.67,17.92,19.95,26.37,24.90,20.41,21.37,18.28,19.86,19.53,20.59,18.63,21.57,22.07,28.65,32.04,36.40,40.17,45.01,47.83,53.42,56.41,63.08,64.46,68.71,NaN,NaN,NaN,NaN,NaN,
9,"6WUU","D",2.79,20.05.20,"P21","P0DTD1",66.8,6wuu_D,NaN,NaN,NaN,80.19,75.04,70.64,63.27,57.70,53.44,47.18,40.83,37.52,40.85,43.15,48.87,53.08,58.53,64.46,66.64,72.82,71.84,77.07,77.60,79.99,73.87,67.47,61.80,58.76,64.57,64.52,57.54,53.33,48.44,49.76,46.35,48.27,42.57,39.45,45.69,48.11,54.70,55.30,60.74,64.34,69.46,69.26,71.68,73.94,67.69,64.10,67.74,63.40,56.95,51.88,50.31,44.54,46.37,42.56,43.48,48.54,51.60,50.35,51.54,46.61,41.98,43.04,42.12,36.27,33.65,35.82,31.86,26.04,26.13,25.01,29.20,25.23,30.82,27.98,24.82,30.12,32.40,26.35,25.32,31.92,32.27,26.71,28.46,34.74,32.17,26.29,30.13,33.81,28.88,26.81,20.01,19.92,14.31,16.87,15.34,8.16,7.67,9.66,14.97,20.05,26.91,29.87,31.97,31.63,28.93,23.15,23.38,18.29,13.93,15.31,15.43,9.16,6.27,9.14,10.58,5.78,5.27,12.28,15.57,18.59,16.99,19.93,18.30,23.69,23.54,26.73,24.13,17.36,19.33,22.17,17.87,12.22,14.93,16.76,11.48,6.80,11.84,14.63,19.19,15.55,21.26,21.42,14.61,14.64,19.58,16.53,10.13,14.33,16.67,11.49,7.27,12.79,16.11,22.87,25.97,29.42,25.34,24.79,18.65,17.33,14.62,15.24,10.80,6.10,7.74,9.72,4.61,6.35,12.45,13.98,15.43,17.99,24.64,25.53,31.40,35.42,32.85,37.83,39.16,45.40,46.31,52.28,53.25,59.76,62.34,69.00,68.96,63.77,65.07,61.14,55.45,52.16,45.80,42.90,35.91,33.08,26.83,21.30,25.81,30.31,26.27,24.50,29.38,29.49,36.11,38.77,36.40,41.17,39.95,46.73,48.63,44.85,49.35,55.06,53.40,50.38,52.97,48.75,50.04,52.21,50.36,57.26,57.69,61.20,58.28,57.17,55.81,50.00,50.36,47.06,51.34,47.78,41.16,39.01,32.04,28.06,26.00,27.40,24.32,29.41,28.11,32.72,34.14,36.46,42.66,46.22,44.23,45.30,39.77,41.99,37.43,35.72,37.94,31.64,24.80,22.80,25.11,24.50,30.52,32.08,38.19,41.05,40.12,34.63,33.20,35.01,34.66,32.36,27.12,26.99,22.85,26.25,23.04,26.85,24.15,27.88,31.58,31.62,27.45,28.69,24.26,27.88,24.83,26.56,30.09,28.49,33.14,33.85,39.27,41.68,43.91,42.28,45.60,42.80,39.70,34.33,30.06,25.72,27.67,24.39,28.87,29.09,33.91,37.18,43.34,46.61,52.75,55.79,62.59,64.27,68.36,NaN,NaN,NaN,NaN,NaN,
10,"6WX4","D",1.66,20.05.20,"I222","P0DTD1",87.6,6wx4_D,NaN,NaN,NaN,38.46,32.49,26.10,23.49,18.59,21.55,17.92,18.73,11.99,7.96,6.76,12.77,12.74,18.98,20.07,27.01,31.35,36.61,43.39,45.29,52.35,50.78,47.92,41.07,44.74,49.60,43.80,38.79,41.85,38.18,33.16,29.13,27.18,23.31,25.53,32.74,36.50,39.05,42.24,48.97,47.17,46.82,40.82,41.73,38.80,35.78,31.69,27.84,20.63,21.15,17.88,22.78,22.08,27.99,31.05,31.39,38.08,38.54,38.67,32.37,28.44,31.89,30.78,23.60,22.61,25.91,23.43,16.17,16.65,22.69,25.79,31.74,31.95,34.46,32.52,25.22,23.73,28.91,26.16,19.63,23.40,28.53,23.67,21.38,28.54,29.48,23.72,25.33,32.19,30.30,32.27,28.48,34.19,34.58,36.47,39.14,36.54,29.40,25.75,25.84,26.52,33.22,33.52,33.98,32.83,29.25,23.81,23.07,15.98,14.29,18.73,16.33,9.73,13.06,19.08,16.09,13.93,20.36,24.16,22.40,25.08,20.20,20.67,15.68,19.91,15.81,13.14,7.19,5.75,11.00,8.34,5.47,9.82,15.41,14.67,15.76,20.81,24.20,24.88,20.10,16.16,17.18,10.91,6.99,11.85,14.37,9.37,7.80,15.14,17.50,14.83,15.46,22.51,22.14,26.46,27.40,31.22,28.38,25.10,17.76,11.56,6.31,1.66,8.47,6.01,3.88,10.42,12.35,8.68,14.20,18.88,16.91,18.70,25.85,27.71,34.54,38.10,33.88,37.49,35.68,40.37,37.34,40.46,37.70,40.26,39.95,42.04,46.41,48.22,48.98,47.96,46.82,45.96,42.63,41.90,35.72,34.77,29.05,22.28,24.74,27.96,22.35,16.60,15.87,10.51,9.52,11.66,14.13,21.02,25.36,30.34,25.61,25.64,33.02,33.18,29.12,22.42,21.41,22.84,26.77,33.90,38.85,41.95,35.67,32.84,27.64,31.19,30.61,30.39,32.88,34.88,42.18,42.47,37.59,38.83,32.89,31.62,26.32,22.47,15.40,13.81,6.58,2.51,5.45,11.35,14.00,20.62,21.89,28.62,30.17,36.58,40.44,40.92,36.15,30.15,28.54,23.96,19.20,15.77,20.14,19.37,25.68,28.42,26.65,22.49,26.14,29.81,26.30,26.38,21.43,24.74,23.42,27.39,30.11,35.56,41.14,48.32,45.99,39.73,37.94,34.13,31.98,32.19,31.18,37.22,40.63,41.34,43.96,45.12,46.40,47.54,42.29,35.78,31.21,27.03,20.73,16.30,9.19,9.83,16.51,19.51,26.35,31.54,34.92,40.18,44.10,43.65,47.78,46.51,51.71,48.71,53.55,NaN,NaN,NaN,NaN,NaN,
11,"6WZU","A",1.79,27.05.20,"P3221","P0DTD1",68.0,6wzu_A,NaN,NaN,NaN,44.20,41.65,42.93,38.49,38.21,35.84,33.62,30.16,28.61,29.47,34.52,39.07,40.09,43.77,46.09,44.99,46.50,42.05,42.71,37.73,38.58,38.36,33.25,32.76,34.05,39.74,41.25,38.50,36.18,29.96,27.33,21.57,20.32,17.20,13.22,13.07,17.80,21.51,26.87,26.61,24.39,29.03,30.51,28.07,32.56,29.78,30.10,36.58,38.28,32.62,31.25,28.34,27.03,30.90,31.84,36.46,41.95,46.24,47.04,45.63,39.75,38.73,39.66,36.63,31.40,31.56,32.42,27.83,23.11,25.26,26.23,31.77,29.28,31.78,26.52,22.08,21.88,20.74,16.51,13.57,13.97,11.35,6.46,7.10,5.61,0.56,4.33,9.17,9.33,11.63,17.58,19.18,25.17,28.29,29.97,33.48,31.88,25.65,21.68,19.79,16.75,19.96,19.42,15.48,13.95,17.20,12.92,17.42,14.16,9.07,13.81,15.64,9.60,11.16,16.78,14.26,11.73,17.90,19.19,14.98,15.68,12.67,16.32,15.33,19.74,21.11,24.34,20.60,15.46,19.78,22.78,17.51,16.21,22.59,22.08,17.75,21.88,26.50,23.41,19.81,14.15,10.64,12.06,9.96,4.33,5.52,9.23,4.70,7.00,12.26,12.78,12.07,16.64,14.02,13.10,9.68,14.95,17.86,20.04,16.11,16.59,12.71,12.65,12.93,7.83,4.38,7.66,9.04,5.17,5.46,11.39,12.99,11.97,15.12,10.63,14.79,13.98,7.51,5.59,3.56,6.45,11.75,15.52,21.86,25.22,31.55,35.46,38.38,34.61,28.64,22.84,21.29,15.66,15.73,11.88,11.07,10.64,9.46,7.02,9.50,4.64,2.95,8.39,14.10,19.55,24.60,24.53,23.56,24.37,19.41,23.36,25.20,19.58,18.06,23.33,23.52,26.73,31.32,30.91,35.55,35.57,39.51,42.83,44.99,42.05,37.63,31.48,26.97,21.62,17.45,11.78,7.76,3.41,4.45,7.16,8.16,12.83,10.86,8.91,10.79,15.92,18.87,24.81,29.03,30.74,35.33,38.49,35.62,37.40,33.78,36.12,36.49,33.59,29.68,25.03,22.89,22.19,21.95,21.51,26.61,27.49,32.72,34.61,35.22,31.86,29.76,29.47,29.29,26.47,23.23,25.10,23.57,27.67,27.58,31.18,34.79,41.04,40.78,36.81,34.65,32.22,28.21,27.11,22.84,26.79,31.78,34.78,39.31,41.25,44.10,45.22,43.42,39.73,40.02,37.14,33.70,28.55,24.09,19.08,19.51,15.90,17.39,17.67,14.57,15.14,12.45,11.19,9.08,11.84,15.08,15.60,13.73,NaN,NaN,NaN,NaN,NaN,
12,"6XA9","A",2.90,17.06.20,"P41212","P0DTD1",42.1,6xa9_A,NaN,NaN,NaN,29.00,30.17,28.69,25.36,23.03,18.05,16.11,12.20,14.55,18.42,21.38,21.80,22.60,22.09,24.93,22.53,24.69,22.68,23.66,26.73,25.36,20.49,19.53,17.08,13.18,12.76,13.30,11.03,8.08,9.48,13.03,15.52,20.11,20.14,16.95,19.89,17.62,19.66,16.03,19.89,23.32,24.69,26.30,31.08,34.28,34.34,29.68,31.55,30.35,27.09,22.72,18.47,13.66,10.38,5.88,7.46,7.00,11.30,14.66,16.77,13.05,11.46,15.66,15.58,11.04,12.47,16.33,14.11,9.55,11.64,8.77,8.82,5.93,2.45,3.90,1.10,5.06,7.69,7.66,7.48,11.77,13.80,12.92,14.70,18.80,19.66,17.39,20.75,24.26,22.27,23.64,20.67,22.62,21.68,19.97,19.29,19.83,16.19,16.66,15.78,17.54,22.03,22.32,23.04,21.85,20.53,16.15,15.74,11.78,9.54,11.46,8.56,4.37,7.26,8.28,3.70,5.86,10.08,8.66,9.13,13.44,12.82,15.28,12.84,15.01,12.97,15.68,12.35,10.35,14.49,16.70,13.90,12.78,17.57,18.72,15.81,16.90,21.58,20.99,20.08,15.63,16.06,13.59,10.29,9.66,9.54,5.62,3.37,6.63,4.04,2.28,6.27,8.85,11.06,13.68,16.39,20.21,18.71,19.10,14.71,13.21,8.68,10.09,11.26,6.54,5.37,10.12,8.12,5.49,9.77,11.86,10.25,12.81,17.51,18.09,22.66,24.72,21.84,25.01,24.82,29.05,29.46,33.36,35.15,38.31,41.72,44.93,49.20,47.46,45.35,41.86,39.95,36.62,33.77,31.04,26.53,24.54,20.01,16.31,19.64,20.22,15.49,14.73,17.49,18.69,21.19,18.24,13.67,13.84,14.35,16.06,19.28,20.60,21.85,23.97,26.63,26.74,31.00,32.67,36.88,40.06,43.26,47.72,45.91,43.78,38.75,37.04,33.26,30.11,27.57,25.41,28.94,27.24,22.94,23.20,18.94,16.34,12.18,11.94,9.70,12.14,13.46,17.48,20.21,18.99,20.12,19.02,14.61,11.57,7.00,3.51,3.18,4.60,4.38,3.51,4.08,1.75,4.62,8.49,12.88,16.74,21.52,25.27,26.68,24.78,24.74,24.59,22.91,19.79,15.32,13.99,9.89,8.36,6.82,6.22,10.95,13.02,11.38,9.95,12.92,13.97,15.12,18.00,18.61,22.37,22.79,20.52,20.14,17.08,15.21,11.54,10.72,11.90,14.75,16.73,17.60,13.48,13.77,9.27,6.45,5.06,7.85,11.16,15.71,20.39,23.75,23.57,27.63,27.81,30.11,32.43,NaN,NaN,NaN,NaN,NaN,NaN,
13,"6XA9","C",2.90,17.06.20,"P41212","P0DTD1",42.1,6xa9_C,NaN,NaN,NaN,30.09,30.18,26.52,24.07,20.19,14.73,11.84,7.19,10.18,15.67,18.12,16.54,17.55,15.69,19.25,18.21,21.97,23.27,26.74,32.02,33.21,28.94,27.96,23.24,22.00,22.35,18.35,14.60,16.21,17.33,17.99,19.46,23.08,22.58,20.38,25.00,24.35,26.22,24.31,29.72,31.52,32.22,31.47,36.28,38.57,38.30,32.22,32.36,29.88,27.68,22.05,18.70,13.66,11.04,8.36,3.85,5.92,3.22,7.90,8.15,3.93,5.86,10.51,9.26,4.62,9.20,12.61,9.58,5.56,10.49,9.78,11.48,12.77,12.63,14.06,8.97,8.08,14.07,14.16,10.69,15.16,19.20,17.12,17.71,23.08,24.30,20.78,24.08,28.63,26.15,27.94,24.70,27.81,27.20,25.27,25.37,26.32,21.11,20.66,19.19,20.73,25.67,25.48,26.91,26.18,23.65,18.92,17.15,12.49,11.07,13.29,8.99,4.85,9.02,11.35,7.25,8.91,14.52,14.82,14.70,19.02,16.71,18.52,14.21,16.22,11.70,13.97,9.54,8.84,14.83,16.97,14.17,14.30,20.22,21.24,18.36,20.80,26.07,25.24,23.56,18.03,18.32,14.21,10.64,11.16,11.52,5.73,4.73,10.02,8.65,6.40,10.24,14.45,16.23,19.24,21.02,24.57,22.79,21.75,16.39,14.03,8.22,9.92,12.74,7.76,6.00,11.57,10.08,6.37,11.56,14.49,11.97,14.83,20.78,22.37,27.96,30.86,27.79,31.53,31.18,35.94,35.58,39.55,40.62,44.07,47.10,51.03,54.80,53.91,52.63,48.85,46.92,43.77,40.38,37.69,32.46,30.10,24.84,20.34,24.04,25.04,19.40,17.39,19.68,19.85,21.48,17.52,11.60,13.62,17.29,19.77,20.90,23.54,26.98,28.20,29.61,28.43,32.82,34.77,39.92,44.25,48.17,51.98,49.72,47.59,41.98,40.99,36.81,34.25,32.26,31.04,36.10,34.79,30.12,30.67,25.44,23.00,18.02,16.36,11.80,12.83,12.87,16.25,18.92,16.02,15.61,12.71,7.10,1.92,3.12,8.13,13.36,16.83,13.97,11.65,12.36,7.48,1.96,5.09,10.14,15.01,20.02,25.20,28.07,26.67,27.75,28.01,24.05,20.79,14.96,13.92,10.24,9.61,12.20,14.42,20.26,24.25,20.08,15.50,17.63,16.32,17.98,20.10,21.40,26.27,26.44,24.62,23.67,21.68,18.83,16.94,11.23,8.75,8.02,11.26,12.96,8.28,10.05,6.24,5.11,8.50,13.93,19.22,23.92,29.42,33.08,32.52,37.01,36.43,39.84,40.86,NaN,NaN,NaN,NaN,NaN,NaN,
14,"6XA9","E",2.90,17.06.20,"P41212","P0DTD1",42.1,6xa9_E,NaN,NaN,NaN,NaN,65.65,63.53,56.89,52.60,48.87,43.50,38.17,34.83,38.19,40.22,44.42,48.79,53.48,58.96,60.81,65.66,63.65,67.53,65.57,67.73,64.03,57.49,53.63,52.78,59.28,59.32,53.70,50.54,44.59,43.95,39.28,39.90,34.96,30.89,34.07,37.39,43.59,46.56,49.16,50.12,55.76,56.50,56.62,60.73,55.96,53.54,NaN,NaN,50.70,46.63,44.33,40.06,43.06,41.65,42.96,49.19,51.35,49.09,48.00,44.32,41.30,39.44,38.09,34.30,31.21,30.11,28.07,24.06,23.36,26.60,33.07,32.67,37.27,34.05,28.36,30.84,31.93,25.82,23.32,27.45,25.11,18.78,21.51,24.24,17.99,16.08,22.33,20.63,16.11,19.73,20.73,25.15,28.48,28.47,32.84,32.26,25.58,22.08,18.06,14.11,14.69,9.24,5.26,4.13,3.94,1.33,7.75,7.53,2.90,9.23,11.93,7.75,10.29,16.03,14.99,12.03,18.18,20.89,17.37,16.05,10.30,10.96,10.41,13.56,18.21,22.49,22.27,16.28,18.54,23.96,20.75,17.56,23.66,25.81,20.95,23.47,29.08,26.85,25.55,19.09,19.00,20.53,15.33,11.06,15.40,15.41,9.07,11.91,17.69,15.25,13.80,19.53,15.99,16.49,12.57,10.36,13.41,13.23,11.82,14.59,11.79,15.50,15.02,8.39,7.49,11.66,10.69,4.52,4.61,9.80,9.05,4.26,3.79,2.85,3.69,5.90,10.58,15.85,22.01,27.28,32.93,39.21,43.75,50.03,55.09,60.93,62.29,56.88,54.56,48.42,42.96,36.78,31.74,25.29,21.50,14.94,10.20,12.15,18.55,17.63,16.53,19.42,25.84,28.89,34.98,35.78,33.23,37.12,34.39,40.64,42.68,37.75,39.36,45.82,45.04,45.14,49.29,47.14,50.77,51.96,53.59,59.39,60.21,60.21,55.87,52.22,48.67,42.05,39.93,34.43,34.07,28.31,23.95,18.64,15.98,17.81,18.92,20.41,20.28,26.08,26.34,31.28,32.49,31.98,37.77,40.54,40.35,42.82,39.34,43.59,42.95,41.58,39.49,32.92,28.44,25.59,24.58,21.34,24.84,23.59,25.77,26.71,28.78,28.06,24.55,20.33,19.79,16.70,16.55,19.75,21.15,27.33,28.97,34.67,37.91,44.47,43.43,38.40,34.00,29.36,24.13,19.98,16.23,21.31,24.94,29.99,34.67,39.41,43.77,47.74,46.33,41.31,41.50,36.65,33.34,30.26,26.68,23.49,25.77,22.83,26.42,25.89,25.05,24.00,25.52,30.16,33.07,38.80,44.56,NaN,NaN,NaN,NaN,NaN,NaN,NaN,
15,"6XAA","A",2.70,17.06.20,"P21212","P0DTD1",20.1,6xaa_A,NaN,NaN,NaN,NaN,78.21,74.14,66.52,60.80,56.28,49.49,43.23,38.72,42.72,44.09,48.90,54.71,60.50,67.19,70.05,76.36,74.85,80.07,78.63,81.40,76.73,69.17,64.34,63.03,70.44,70.10,63.09,59.73,52.87,52.02,46.69,47.80,41.73,37.26,42.01,45.65,53.10,56.20,59.96,61.64,68.37,68.98,69.80,74.51,68.82,65.27,70.57,67.39,60.08,54.53,52.10,46.78,50.16,48.23,49.17,56.52,58.03,54.38,52.61,49.14,45.68,42.66,40.98,37.35,33.53,31.32,29.60,25.78,24.76,29.18,36.74,36.55,42.09,38.41,32.12,35.21,37.04,29.94,27.41,32.79,30.44,23.31,26.93,30.80,24.31,21.74,29.06,28.37,22.96,26.76,26.62,31.46,34.39,34.10,38.65,37.76,30.09,26.51,22.30,18.73,20.19,13.71,11.37,8.64,1.47,4.09,7.99,6.68,4.03,11.51,13.52,8.92,12.30,18.75,17.50,13.88,20.90,24.28,20.32,18.15,10.77,9.21,8.40,11.62,17.93,22.64,23.68,16.65,18.40,25.47,23.10,19.00,25.74,29.36,24.42,26.77,33.70,32.08,30.85,23.33,24.10,24.56,17.99,14.15,18.85,17.84,10.57,13.88,20.36,17.38,15.57,21.94,17.72,19.44,15.77,11.72,13.72,11.99,10.99,14.38,12.11,17.24,16.55,9.07,8.99,14.16,12.52,5.39,7.33,12.28,9.50,2.87,1.71,8.32,10.86,12.80,17.77,24.56,31.31,38.06,44.02,51.45,56.44,63.73,69.64,76.82,78.79,72.64,69.70,62.44,56.22,49.08,43.14,35.72,30.45,23.02,16.90,17.83,25.40,25.07,22.60,25.07,32.21,34.64,41.32,42.17,38.87,44.00,41.75,49.15,51.54,46.72,49.24,56.56,55.95,55.38,60.37,58.35,62.98,65.60,67.79,74.60,75.29,74.96,69.39,65.37,61.13,53.65,51.10,44.88,45.37,38.55,32.63,26.27,21.91,22.33,23.87,26.01,25.03,31.41,30.78,35.69,35.75,34.32,41.01,44.24,45.13,48.40,44.94,50.16,49.54,48.40,46.35,38.73,33.26,29.62,28.04,23.64,26.63,24.20,25.93,25.64,28.13,28.37,23.66,18.34,17.84,15.41,16.72,21.48,24.00,31.23,33.59,40.24,43.98,51.54,50.04,44.01,39.07,33.55,28.04,23.17,20.06,26.66,30.01,35.23,40.09,45.22,49.76,54.47,52.28,46.26,45.97,39.84,35.76,33.38,29.59,26.87,30.18,27.32,31.93,31.57,31.28,29.97,33.27,39.22,43.67,50.15,57.04,NaN,NaN,NaN,NaN,NaN,NaN,NaN,
16,"6XG3","A",2.48,24.06.20,"P3221","P0DTD1",71.3,6xg3_A,NaN,NaN,NaN,44.99,42.43,43.71,39.14,38.76,36.30,33.90,30.27,28.96,29.91,34.96,39.51,40.61,44.31,46.73,45.61,47.15,42.53,43.21,38.23,38.91,38.65,33.40,33.01,34.19,39.96,41.53,38.87,36.25,29.97,27.46,21.72,20.52,17.48,13.31,13.11,17.75,21.51,26.84,26.66,24.51,29.20,30.90,28.61,33.44,30.68,30.77,37.32,39.01,33.25,31.72,28.70,27.22,31.06,31.99,36.53,41.95,46.46,47.34,45.86,40.03,38.98,39.88,36.86,31.63,31.80,32.65,28.03,23.24,25.49,26.46,31.99,29.46,31.95,26.55,22.23,22.00,20.80,16.51,13.63,14.03,11.30,6.46,7.23,5.68,0.46,4.30,9.16,9.10,11.76,17.75,19.26,25.31,28.39,30.10,33.81,31.84,25.40,21.59,19.74,16.82,20.22,19.66,15.69,14.18,17.46,13.11,17.58,14.39,9.19,13.80,15.60,9.50,10.92,16.56,14.05,11.41,17.66,19.02,14.75,15.56,12.57,16.40,15.49,19.99,21.36,24.42,20.67,15.52,19.74,22.83,17.55,16.17,22.48,22.07,17.72,21.74,26.27,23.23,19.91,14.10,10.62,12.12,9.96,4.29,5.57,9.26,4.75,7.05,12.30,12.85,12.15,16.57,14.03,13.13,9.88,15.15,17.89,20.02,16.20,16.76,12.72,12.73,13.14,7.97,4.42,7.94,9.47,5.58,5.79,11.76,13.24,12.10,15.15,10.62,14.74,13.62,7.39,5.55,3.80,6.66,12.02,15.77,22.18,25.47,31.69,35.43,38.26,34.53,28.73,22.79,21.45,15.69,15.89,11.97,11.22,10.66,9.65,7.44,9.93,4.96,3.18,8.74,14.49,20.06,25.11,25.03,23.97,24.66,19.80,23.73,25.57,19.98,18.50,23.77,24.00,27.34,32.07,31.78,36.59,35.91,39.52,42.97,45.28,42.34,38.39,32.06,27.40,21.99,17.79,12.03,8.11,3.63,4.40,6.82,7.75,12.61,10.66,8.93,10.91,16.16,19.25,25.25,29.58,31.22,35.83,39.03,36.14,37.92,34.13,36.50,36.69,33.65,29.86,25.22,22.92,22.25,22.11,21.67,27.04,27.84,33.08,35.20,35.64,32.06,29.82,29.96,29.44,26.46,23.40,25.33,23.73,27.81,27.57,31.34,34.96,41.15,40.81,36.95,34.76,32.40,28.22,27.18,23.05,27.12,32.03,35.06,39.59,41.45,44.24,45.46,43.56,40.08,40.56,37.60,34.21,28.86,24.41,19.29,19.68,15.92,17.39,17.59,14.62,15.08,12.28,11.23,9.24,12.16,15.55,16.54,NaN,NaN,NaN,NaN,NaN,NaN,
17,"7JIR","A",2.09,05.08.20,"I4122","P0DTD1",58.8,7jir_A,NaN,NaN,NaN,0.26,0.31,0.32,0.14,0.18,0.09,0.17,0.14,0.15,0.14,0.16,0.15,0.09,0.17,0.12,0.16,0.15,0.17,0.33,0.33,0.18,0.08,0.15,0.12,0.10,0.08,0.21,0.12,0.18,0.16,0.11,0.10,0.10,0.21,0.31,0.26,0.26,0.16,0.17,0.24,0.08,0.24,0.15,0.11,0.14,0.25,0.16,0.23,0.10,0.21,0.14,0.20,0.20,0.18,0.20,0.20,0.21,0.15,0.22,0.19,0.24,0.22,0.20,0.20,0.11,0.17,0.19,0.21,0.18,0.18,0.18,0.21,0.16,0.19,0.14,0.15,0.14,0.20,0.15,0.11,0.18,0.13,0.04,0.06,0.06,0.03,0.07,0.08,0.14,0.20,0.13,0.18,0.19,0.22,0.22,0.19,0.22,0.11,0.19,0.17,0.13,0.24,0.24,0.14,0.14,0.13,0.16,0.14,0.09,0.07,0.10,0.12,0.06,0.08,0.16,0.11,0.16,0.12,0.09,0.08,0.10,0.17,0.14,0.16,0.22,0.14,0.15,0.13,0.05,0.09,0.16,0.11,0.04,0.09,0.12,0.11,0.21,0.18,0.16,0.17,0.14,0.14,0.13,0.11,0.06,0.08,0.10,0.05,0.04,0.12,0.12,0.11,0.09,0.12,0.12,0.07,0.12,0.12,0.13,0.13,0.10,0.08,0.12,0.05,0.08,0.08,0.09,0.14,0.13,0.14,0.13,0.14,0.14,0.18,0.23,0.22,0.18,0.14,0.15,0.15,0.15,0.15,0.17,0.21,0.27,0.19,0.20,0.20,0.41,0.16,0.18,0.19,0.16,0.30,0.15,0.20,0.22,0.15,0.10,0.11,0.13,0.07,0.05,0.10,0.26,0.23,0.25,0.21,0.18,0.14,0.18,0.17,0.17,0.18,0.10,0.03,0.20,0.35,0.30,0.39,0.35,0.44,0.21,0.41,0.30,0.18,0.23,0.24,0.11,0.14,0.16,0.13,0.15,0.15,0.13,0.13,0.12,0.08,0.03,0.03,0.08,0.13,0.28,0.32,0.31,0.30,0.31,0.23,0.26,0.21,0.20,0.17,0.15,0.15,0.07,0.10,0.08,0.08,0.10,0.24,0.24,0.31,0.40,0.48,0.43,0.40,0.38,0.32,0.20,0.19,0.18,0.15,0.12,0.12,0.18,0.14,0.21,0.21,0.20,0.17,0.22,0.23,0.22,0.24,0.27,0.29,0.32,0.27,0.25,0.31,0.26,0.29,0.33,0.37,0.38,0.34,0.25,0.17,0.10,0.11,0.07,0.04,0.09,0.06,0.04,0.08,0.07,0.10,0.09,0.14,1.05,NaN,NaN,NaN,NaN,NaN,NaN,
18,"7JIT","A",1.95,05.08.20,"I4122","P0DTD1",67.4,7jit_A,NaN,NaN,NaN,1.03,0.70,0.98,0.68,0.41,0.45,0.30,0.19,0.24,0.37,0.37,0.47,0.54,0.46,0.64,0.84,0.77,0.81,0.81,0.65,0.69,0.73,0.52,0.50,0.47,0.69,0.74,0.64,0.57,0.30,0.31,0.23,0.23,0.17,0.05,0.04,0.06,0.33,0.36,0.46,0.45,0.46,0.40,0.45,0.71,0.64,0.51,0.78,0.96,0.51,0.38,0.28,0.27,0.27,0.21,0.54,0.51,0.23,0.17,0.17,0.25,0.24,0.22,0.24,0.17,0.30,0.25,0.01,0.16,0.26,0.27,0.26,0.26,0.26,0.24,0.13,0.12,0.14,0.14,0.09,0.14,0.20,0.12,0.15,0.19,0.17,0.10,0.24,0.26,0.23,0.14,0.19,0.24,0.21,0.22,0.18,0.29,0.21,0.26,0.20,0.15,0.20,0.14,0.17,0.08,0.05,0.05,0.06,0.10,0.14,0.07,0.06,0.07,0.18,0.19,0.19,0.21,0.21,0.19,0.20,0.18,0.24,0.18,0.22,0.22,0.18,0.14,0.12,0.14,0.25,0.25,0.18,0.18,0.19,0.19,0.18,0.15,0.13,0.18,0.21,0.18,0.16,0.16,0.15,0.15,0.09,0.12,0.17,0.09,0.07,0.13,0.14,0.11,0.06,0.03,0.15,0.14,0.05,0.08,0.03,0.07,0.08,0.16,0.14,0.14,0.21,0.26,0.30,0.30,0.32,0.30,0.26,0.24,0.25,0.26,0.31,0.34,0.19,0.16,0.13,0.14,0.14,0.20,0.19,0.10,0.17,0.12,0.33,0.20,0.24,0.20,0.20,0.21,0.16,0.17,0.20,0.14,0.26,0.16,0.21,0.25,0.18,0.12,0.09,0.10,0.13,0.10,0.07,0.14,0.14,0.19,0.17,0.15,0.13,0.32,0.31,0.30,0.26,0.21,0.22,0.17,0.35,0.46,0.47,0.13,0.18,0.22,0.24,0.24,0.16,0.16,0.17,0.21,0.25,0.19,0.20,0.22,0.21,0.21,0.18,0.17,0.13,0.11,0.08,0.09,0.10,0.08,0.05,0.04,0.12,0.11,0.21,0.24,0.21,0.17,0.12,0.15,0.15,0.07,0.03,0.05,0.08,0.23,0.30,0.28,0.12,0.16,0.08,0.04,0.06,0.08,0.11,0.14,0.14,0.17,0.17,0.18,0.24,0.11,0.13,0.08,0.17,0.16,0.09,0.21,0.23,0.27,0.20,0.16,0.07,0.05,0.07,0.13,0.06,0.04,0.02,0.03,0.07,0.16,0.13,0.14,0.15,0.21,0.12,0.15,0.20,0.16,0.12,0.27,0.23,0.39,0.68,NaN,NaN,NaN,NaN,NaN,
19,"7JIW","A",2.30,05.08.20,"I4122","P0DTD1",39.5,7jiw_A,NaN,NaN,NaN,NaN,NaN,NaN,1.28,0.90,0.53,0.34,0.32,0.25,0.45,0.40,0.41,0.57,0.88,0.96,0.84,0.64,NaN,NaN,NaN,NaN,1.47,1.35,0.85,0.39,0.80,0.96,0.43,0.30,0.23,0.51,0.44,0.53,0.74,0.75,0.51,0.59,0.68,0.39,0.84,0.37,0.45,1.11,1.26,1.08,0.94,0.99,1.14,0.86,1.23,0.81,0.73,0.36,0.14,0.11,0.23,0.29,0.24,0.22,0.19,0.22,0.20,0.16,0.09,0.08,0.13,0.09,0.09,0.10,0.20,0.22,0.25,0.27,0.26,0.23,0.27,0.27,0.34,0.36,0.26,0.31,0.33,0.18,0.20,0.33,0.32,0.19,0.33,0.33,0.32,0.43,0.22,0.13,0.13,0.10,0.11,0.08,0.23,0.28,0.24,0.22,0.30,0.34,0.24,0.22,0.16,0.04,0.18,0.20,0.21,0.24,0.18,0.16,0.21,0.22,0.14,0.12,0.18,0.17,0.12,0.12,0.17,0.16,0.17,0.14,0.15,0.10,0.07,0.13,0.19,0.13,0.12,0.13,0.16,0.14,0.09,0.17,0.25,0.28,0.14,0.16,0.22,0.22,0.21,0.15,0.17,0.12,0.15,0.22,0.26,0.12,0.15,0.24,0.23,0.13,0.24,0.23,0.21,0.26,0.41,0.14,0.12,0.11,0.10,0.13,0.20,0.17,0.22,0.22,0.18,0.12,0.16,0.25,0.22,0.10,0.23,0.31,0.16,0.11,0.12,0.08,0.06,0.25,0.15,0.12,0.11,0.18,0.23,0.09,0.16,0.18,0.22,0.19,0.33,0.20,0.10,0.11,0.13,0.16,0.06,0.14,0.12,0.06,0.10,0.13,0.14,0.14,0.11,0.09,0.09,0.17,0.05,0.04,0.04,0.16,0.16,0.04,0.04,0.15,0.01,0.08,0.22,0.25,0.20,0.08,0.18,0.09,0.12,0.08,0.13,0.15,0.17,0.14,0.20,0.21,0.14,0.16,0.10,0.09,0.10,0.04,0.08,0.16,0.15,0.19,0.11,0.12,0.07,0.14,0.08,0.18,0.23,0.21,0.23,0.11,0.10,0.08,0.13,0.11,0.18,0.12,0.14,0.23,0.17,0.18,0.28,0.36,0.32,0.26,0.21,0.25,0.23,0.19,0.15,0.11,0.08,0.11,0.22,0.19,0.20,0.16,0.17,0.28,0.32,0.35,0.48,0.40,0.26,0.27,0.32,0.34,0.41,0.18,0.19,0.13,0.13,0.13,0.13,0.18,0.13,0.08,0.06,0.21,0.13,0.09,0.14,0.07,0.06,0.04,0.06,0.17,0.63,NaN,NaN,NaN,NaN,NaN,
20,"7JN2","A",1.93,12.08.20,"I4122","P0DTD1",50.4,7jn2_A,NaN,NaN,NaN,0.87,0.61,0.84,0.43,0.36,0.35,0.45,0.53,0.54,0.39,0.32,0.47,0.38,0.30,0.09,0.19,0.47,0.62,0.53,0.65,0.85,0.78,0.70,0.66,0.85,0.82,0.57,0.78,0.86,0.81,0.74,0.72,0.57,0.53,0.64,0.72,0.71,0.77,0.88,0.96,0.89,0.99,0.59,0.52,0.53,0.53,0.39,0.41,0.33,0.35,0.26,0.56,0.63,0.58,0.73,0.77,0.95,1.05,1.07,0.93,0.94,0.95,0.93,0.82,0.76,0.91,0.82,0.76,0.76,0.85,0.90,0.99,1.00,1.03,0.91,0.92,0.91,0.92,0.93,0.80,0.74,0.77,0.60,0.57,0.76,0.69,0.52,0.73,0.78,0.60,0.71,0.40,0.50,0.24,0.29,0.29,0.17,0.21,0.31,0.36,0.43,0.60,0.67,0.66,0.56,0.56,0.39,0.38,0.32,0.28,0.30,0.27,0.13,0.14,0.25,0.25,0.12,0.12,0.24,0.23,0.31,0.29,0.45,0.47,0.63,0.62,0.69,0.65,0.53,0.55,0.55,0.39,0.36,0.39,0.32,0.28,0.28,0.32,0.25,0.16,0.23,0.37,0.37,0.34,0.30,0.45,0.46,0.42,0.54,0.70,0.64,0.62,0.70,0.61,0.63,0.67,0.65,0.53,0.40,0.42,0.19,0.18,0.22,0.24,0.25,0.27,0.36,0.39,0.35,0.45,0.51,0.51,0.51,0.70,0.63,0.90,0.97,0.54,0.44,0.38,0.54,0.54,0.64,0.45,0.61,0.62,0.93,0.75,0.78,0.75,0.61,0.42,0.50,0.23,0.41,0.38,0.41,0.30,0.27,0.30,0.40,0.36,0.28,0.33,0.34,0.35,0.57,0.41,0.51,0.47,0.62,0.65,0.58,0.67,0.76,0.49,0.50,0.51,0.41,0.66,0.67,0.36,0.47,0.63,0.57,0.81,0.57,0.52,0.59,0.58,0.60,0.62,0.60,0.64,0.59,0.45,0.41,0.40,0.35,0.29,0.40,0.37,0.50,0.51,0.60,0.72,0.80,0.73,0.63,0.60,0.66,0.64,0.64,0.62,0.48,0.33,0.33,0.39,0.40,0.53,0.54,0.78,1.02,1.50,0.97,0.94,2.19,0.90,0.65,0.55,0.61,0.34,0.41,0.36,0.49,0.46,0.57,0.68,0.60,0.51,0.50,0.42,0.46,0.47,0.58,0.69,0.67,0.77,0.76,0.81,0.81,0.79,0.64,0.60,0.63,0.64,0.56,0.43,0.35,0.42,0.34,0.38,0.37,0.41,0.37,0.51,0.59,0.71,0.92,0.96,0.47,0.89,NaN,NaN,NaN,NaN,NaN,
21,"7JRN","A",2.48,26.08.20,"P21","P0DTD1",34.0,7jrn_A,NaN,NaN,NaN,33.39,34.89,31.61,27.94,24.13,16.72,14.19,8.67,13.67,19.74,24.14,23.07,23.22,20.77,24.45,20.96,24.42,24.18,27.09,33.69,34.32,28.77,28.20,22.74,20.85,20.65,15.49,11.14,13.79,15.97,17.03,19.96,25.43,25.70,22.45,27.81,25.98,28.10,24.82,31.74,34.14,34.20,34.06,41.05,44.61,44.90,37.30,38.25,36.18,32.64,25.70,20.26,13.46,8.74,5.00,3.51,5.96,9.83,16.68,16.86,10.80,12.67,18.74,16.50,10.39,15.67,20.02,15.42,10.06,15.98,14.36,16.24,15.98,13.97,15.45,9.33,6.52,14.01,15.06,10.70,16.06,21.36,19.60,20.21,26.79,28.92,25.03,29.19,35.16,32.67,35.54,31.53,35.81,35.04,32.81,32.41,33.85,27.55,26.67,24.94,26.70,33.25,32.89,34.29,32.81,29.70,23.87,22.76,16.47,14.12,17.62,12.87,6.89,12.12,15.14,9.28,11.39,18.42,17.92,17.21,22.73,19.92,23.20,18.34,21.49,16.66,19.59,13.49,12.12,19.45,21.85,17.84,18.16,25.70,26.72,23.09,26.37,32.89,31.57,29.05,22.29,22.24,17.27,13.07,13.45,13.19,5.91,4.94,11.60,9.21,7.46,12.38,17.54,19.64,23.52,25.68,30.91,28.85,27.44,20.89,18.13,10.82,12.54,16.21,9.80,7.04,14.42,13.14,8.67,14.94,18.93,15.95,19.26,26.54,27.53,34.55,38.31,33.44,37.81,36.72,42.45,41.63,46.52,47.92,51.64,55.82,59.70,66.14,65.36,62.73,58.23,56.17,52.27,48.70,45.56,39.15,37.02,30.51,24.42,28.92,29.72,22.45,20.22,22.98,23.94,26.00,20.35,12.86,13.58,17.51,19.54,22.03,25.82,29.03,29.92,33.18,32.59,38.53,42.27,49.21,54.48,60.48,64.50,61.91,57.61,50.07,48.58,42.87,39.82,36.62,35.16,41.57,40.14,34.42,36.02,29.81,26.92,20.47,17.97,12.49,13.82,15.13,20.31,24.57,22.42,22.34,19.96,12.50,7.93,5.65,8.48,15.53,18.06,13.11,10.96,13.24,8.64,4.59,9.33,15.69,21.33,28.38,34.52,37.18,34.85,32.57,35.52,31.89,28.12,20.90,19.92,15.19,14.15,15.60,17.59,25.13,29.81,25.65,20.69,23.70,22.72,24.43,27.39,28.29,34.57,35.63,33.29,32.50,29.75,26.66,22.96,17.50,15.82,16.25,19.13,20.04,13.52,14.44,7.98,3.74,7.68,14.03,20.75,26.61,33.78,37.81,36.47,41.78,40.51,43.70,44.68,51.93,NaN,NaN,NaN,NaN,NaN,
22,"7JRN","J",2.48,26.08.20,"P21","P0DTD1",34.0,7jrn_J,NaN,NaN,NaN,82.02,76.16,71.24,63.86,57.67,54.68,48.00,42.35,37.13,39.66,39.72,46.46,51.38,58.10,64.11,68.05,74.58,73.87,79.58,79.24,82.38,76.78,69.45,64.16,61.90,68.94,69.22,62.26,58.48,51.99,52.02,47.49,48.87,43.09,39.37,45.37,47.89,55.27,56.78,61.51,64.44,70.64,70.62,72.85,75.87,69.97,65.53,68.87,63.72,57.74,52.19,51.15,45.91,49.42,47.33,49.55,56.65,59.65,58.07,55.96,50.73,48.47,47.42,43.79,39.49,37.91,36.57,31.41,28.02,30.12,32.16,38.54,34.89,39.45,34.45,30.13,34.25,35.60,28.26,27.40,33.88,32.40,26.32,30.10,36.25,32.86,28.66,34.59,38.41,33.75,36.09,30.98,34.97,32.80,34.56,35.01,30.10,24.93,24.05,25.64,27.40,33.87,31.82,31.00,26.52,22.02,20.15,21.68,14.81,13.08,19.00,18.34,10.99,12.29,17.71,15.36,8.62,12.38,16.84,14.57,12.01,9.46,10.81,12.95,20.55,22.32,22.80,22.70,15.20,13.68,18.58,17.90,10.90,12.90,19.88,17.78,15.48,21.58,25.89,27.00,21.65,25.77,23.81,16.32,16.47,20.73,17.82,10.67,13.74,18.90,15.86,10.44,14.89,11.99,18.13,21.51,21.07,13.82,11.87,6.86,9.29,10.90,14.09,9.96,3.96,8.44,13.99,12.42,9.24,14.67,19.78,18.02,16.27,21.10,24.25,31.23,32.55,31.54,38.52,41.66,49.13,51.57,58.74,60.28,67.21,70.56,77.91,78.01,74.59,75.07,70.46,65.13,60.11,53.95,48.92,41.73,37.29,30.01,25.47,31.33,33.31,27.66,27.07,32.27,31.50,37.53,39.90,37.45,43.22,41.98,49.36,51.39,47.70,51.90,58.34,56.78,53.70,56.48,52.98,54.98,58.81,60.72,67.92,65.49,67.14,62.68,63.09,61.09,55.11,54.40,50.08,53.92,48.40,40.85,36.43,29.12,23.95,24.84,27.98,25.45,31.00,28.57,31.94,30.36,32.34,39.97,45.25,45.55,49.35,45.17,49.09,46.75,43.39,43.63,36.38,29.73,28.13,28.55,25.46,30.60,27.86,32.20,30.54,25.65,19.41,13.50,19.06,24.11,26.39,24.58,29.18,27.78,33.17,32.07,36.73,37.54,44.18,46.86,43.63,40.08,38.25,33.69,34.10,31.38,37.38,41.49,42.53,47.08,48.41,52.77,55.05,54.38,49.47,49.28,43.67,37.97,33.99,28.44,26.01,29.66,26.34,30.79,28.71,31.83,32.21,39.34,44.94,51.97,57.20,64.01,66.84,71.83,NaN,NaN,NaN,NaN,NaN,
23,"7CJD","A",2.50,02.09.20,"C2","P0DTD1",2.5,7cjd_D,NaN,NaN,NaN,64.54,60.86,54.06,48.54,41.16,36.11,28.94,23.22,20.04,27.07,25.69,25.03,31.89,33.97,41.25,45.02,52.35,55.35,61.78,66.19,69.82,63.86,59.97,52.63,51.63,55.22,51.00,44.05,44.29,42.43,41.84,40.48,43.15,39.18,36.60,43.82,45.52,50.66,50.61,58.20,60.42,63.98,61.55,65.60,67.87,64.49,57.76,58.29,52.79,48.83,41.34,39.73,33.41,33.82,31.17,26.52,31.37,26.67,19.89,16.97,19.75,17.43,10.16,11.95,12.97,7.88,3.08,8.13,6.83,5.18,12.41,18.07,23.18,27.55,29.47,22.42,24.97,31.45,27.88,23.55,30.39,33.58,27.91,29.13,36.48,34.32,28.82,34.37,38.22,32.66,33.84,30.10,32.90,32.83,29.83,32.08,34.24,27.29,25.59,21.66,22.69,27.02,24.80,28.92,29.28,23.50,18.70,13.36,8.58,10.07,12.21,6.34,4.09,11.04,14.75,12.98,13.89,20.82,23.41,23.05,26.02,20.19,19.13,12.04,10.83,4.82,11.18,11.51,9.05,14.67,19.58,18.77,17.73,25.08,27.51,23.79,26.81,33.51,32.55,31.04,23.94,25.88,22.68,16.16,16.27,19.59,13.54,9.37,16.16,17.61,12.02,15.04,22.16,22.76,27.31,27.89,29.51,27.61,23.40,17.16,14.18,7.62,13.66,16.02,9.32,8.91,15.36,12.54,6.60,13.55,15.49,9.53,14.07,20.64,25.52,30.68,35.96,35.26,41.21,43.45,50.63,51.96,58.63,60.20,66.49,70.10,76.39,80.03,76.61,76.06,71.09,65.92,61.00,54.68,49.58,42.01,36.88,29.34,25.28,31.71,34.27,28.74,26.59,31.03,30.30,34.06,32.20,26.93,32.92,36.37,42.43,43.21,43.08,48.51,52.45,51.97,48.38,52.27,52.29,57.40,63.01,66.66,73.11,70.37,68.88,62.36,62.06,58.39,53.54,52.35,49.79,55.66,52.03,44.94,42.77,35.82,33.66,29.52,28.69,23.34,25.74,22.58,25.23,24.46,18.56,20.13,17.10,19.87,21.72,22.80,29.49,32.31,36.92,35.24,29.61,26.56,19.24,13.70,6.61,4.22,7.91,11.19,18.79,24.85,27.35,27.91,25.75,18.73,13.27,6.36,5.79,8.98,14.40,21.16,27.78,33.72,39.27,33.35,25.73,23.07,16.31,17.25,15.65,19.62,26.65,25.00,24.90,23.36,25.68,24.48,28.85,24.10,17.28,13.92,8.81,10.86,12.63,15.03,15.21,19.44,21.89,29.36,33.77,38.78,43.59,48.47,50.90,56.93,59.18,65.83,NaN,NaN,NaN,NaN,NaN,NaN,NaN,
24,"7CJD","B",2.50,02.09.20,"C2","P0DTD1",2.5,7cjd_A,NaN,NaN,NaN,NaN,NaN,63.01,56.62,51.83,49.43,43.92,39.20,35.15,36.74,38.24,44.19,47.83,53.80,58.58,61.44,66.27,66.78,NaN,NaN,NaN,NaN,NaN,NaN,NaN,NaN,62.68,56.36,53.19,47.93,47.70,43.69,43.90,37.68,36.24,42.32,45.30,51.10,52.83,58.01,60.54,NaN,NaN,64.06,65.46,59.75,56.95,59.15,55.09,49.67,46.07,45.99,41.87,44.77,43.00,44.72,50.36,52.95,51.59,51.11,46.34,43.20,43.48,41.19,36.54,34.97,35.58,31.23,26.80,27.81,28.20,33.79,30.81,36.20,32.94,28.62,32.52,34.93,28.85,26.90,32.43,32.98,27.17,28.14,34.12,31.72,25.95,29.08,32.74,28.34,26.87,20.61,21.76,17.64,20.64,20.68,14.27,11.79,11.92,16.50,20.56,27.16,29.01,30.72,30.12,26.90,21.92,21.60,15.89,13.20,15.16,14.27,7.76,6.93,10.43,10.24,5.17,5.91,12.80,14.40,16.41,15.02,17.80,17.03,23.00,23.65,24.78,22.77,16.46,16.44,18.44,15.61,9.26,10.10,12.73,9.57,4.10,8.01,12.86,16.89,14.97,20.73,20.42,14.02,14.92,20.02,17.47,11.70,15.81,19.15,15.02,10.86,16.17,17.26,23.39,25.69,27.81,23.18,20.86,14.78,12.04,10.17,9.58,4.11,2.42,4.09,6.67,6.72,7.66,11.81,14.96,16.82,17.70,23.52,24.04,30.35,33.09,30.37,34.70,35.00,40.35,40.33,45.23,44.49,49.62,49.86,55.49,54.58,51.15,54.11,51.83,47.15,45.97,40.60,38.73,32.40,30.73,25.41,19.24,22.19,26.70,22.51,19.33,22.86,21.51,27.07,30.95,30.45,35.85,35.41,41.92,42.28,38.48,43.34,48.05,45.29,41.42,41.93,37.05,36.32,38.51,36.52,42.50,41.21,45.46,44.12,44.93,45.56,41.39,43.11,41.27,45.90,43.26,37.32,35.86,29.53,26.08,23.71,24.00,20.37,24.01,21.73,24.68,25.30,28.97,35.38,40.25,39.32,41.82,37.87,41.06,38.41,36.66,37.15,30.57,24.56,22.06,22.76,21.51,26.93,27.03,32.73,33.69,30.16,24.81,25.15,28.88,29.28,28.16,23.87,25.41,22.37,26.07,24.24,28.62,27.93,33.15,35.60,33.70,29.91,29.60,25.37,27.74,24.91,27.90,31.65,30.95,35.99,36.79,41.17,44.10,44.09,40.88,42.22,38.71,34.25,29.44,24.07,20.98,24.15,21.87,26.81,27.71,31.57,34.51,40.15,42.86,48.09,50.83,NaN,NaN,NaN,NaN,NaN,NaN,NaN,NaN,
25,"7CJD","C",2.50,02.09.20,"C2","P0DTD1",2.5,7cjd_B,NaN,NaN,NaN,49.32,49.16,50.30,45.05,43.55,38.43,36.23,31.36,32.03,35.33,41.01,44.80,45.42,47.87,51.00,48.16,49.72,43.54,42.70,39.66,35.96,32.85,27.60,28.93,25.10,29.80,35.28,33.36,27.58,21.63,24.04,22.36,26.93,26.27,18.91,18.39,15.32,20.60,19.70,17.42,22.74,29.23,35.26,38.67,45.97,45.47,41.55,47.98,49.20,42.82,38.66,32.54,28.28,28.35,27.08,33.27,37.55,44.22,47.36,47.68,40.64,38.74,42.33,39.49,32.53,33.93,36.38,31.16,25.00,28.13,27.15,31.95,27.33,27.11,20.21,17.60,17.83,13.23,8.29,9.34,11.22,4.54,5.21,12.33,13.79,15.42,16.33,21.99,25.28,25.40,31.09,29.69,35.72,36.41,36.53,37.18,35.21,28.83,27.43,26.25,25.71,31.38,30.18,26.80,22.81,24.39,19.93,23.68,18.23,13.23,18.81,18.21,10.70,13.20,18.17,12.74,9.94,17.14,15.64,9.55,12.62,12.93,19.12,18.95,25.25,25.02,28.39,23.97,18.18,22.64,26.81,21.47,19.28,26.49,28.06,23.20,26.22,32.96,31.80,28.77,21.40,19.18,17.59,13.83,9.90,7.73,8.82,2.73,2.14,7.46,10.96,10.75,13.36,11.11,9.11,11.41,18.67,19.24,23.29,18.75,20.14,15.68,16.94,17.39,10.14,7.54,13.79,13.49,8.84,11.53,18.46,18.05,17.19,21.96,19.30,26.30,24.12,19.19,22.47,22.37,27.57,30.88,36.36,42.17,46.62,53.58,58.69,63.68,60.32,55.31,48.42,46.73,40.40,38.59,33.71,29.59,27.48,22.98,19.04,23.59,20.05,13.40,16.90,23.08,28.15,33.12,30.54,26.54,25.62,19.24,22.07,28.44,25.55,22.71,28.94,33.37,37.49,44.60,45.91,52.26,54.97,59.66,64.63,64.71,61.44,54.90,49.94,43.03,37.11,30.62,24.10,24.29,19.42,14.71,14.73,10.91,7.56,0.96,7.64,11.60,18.84,23.62,31.06,35.98,36.91,41.87,44.30,39.32,38.86,33.29,33.67,32.84,26.78,22.89,19.24,17.07,19.51,21.75,23.51,30.84,33.06,39.65,42.69,43.01,39.06,35.39,34.56,35.16,32.92,28.55,30.07,26.32,28.70,26.45,28.31,31.99,38.10,39.72,36.97,36.70,36.07,33.17,34.31,31.28,37.22,41.71,42.22,45.46,45.41,46.97,46.08,44.13,41.80,43.71,42.12,39.40,32.21,28.10,21.25,18.86,11.98,9.92,6.33,1.06,7.78,9.55,9.47,14.99,18.30,NaN,NaN,NaN,NaN,NaN,NaN,NaN,NaN,
26,"7CJD","D",2.50,02.09.20,"C2","P0DTD1",2.5,7cjd_C,NaN,NaN,NaN,48.80,43.72,41.50,37.59,35.09,34.33,30.83,27.97,24.43,24.26,26.74,31.84,33.37,37.65,40.47,43.00,46.43,46.21,50.16,48.60,52.54,50.93,46.49,42.41,43.51,48.50,46.92,42.35,41.28,37.14,34.73,30.02,28.12,22.99,23.37,28.01,32.31,36.11,39.51,43.48,42.17,44.73,42.29,41.09,39.63,34.30,34.02,36.23,33.90,30.45,29.47,30.41,29.06,32.86,32.56,34.23,39.73,42.09,41.10,39.33,35.41,33.47,33.55,30.80,27.16,26.40,26.61,22.62,19.47,20.62,21.28,25.97,24.93,28.64,26.27,22.17,23.88,25.98,22.26,19.17,22.60,23.98,19.43,18.36,22.95,21.42,16.11,16.56,19.93,17.51,15.83,11.78,14.27,13.99,18.44,21.00,17.13,13.72,9.88,12.62,14.21,19.38,22.01,22.63,23.34,21.96,17.10,17.82,13.87,10.53,12.38,13.36,8.05,6.82,11.52,12.05,8.64,11.09,15.93,15.84,17.01,14.00,15.19,13.35,17.55,17.10,18.36,15.51,10.99,12.24,12.52,8.45,5.91,7.98,5.10,0.55,5.10,3.55,3.46,4.58,4.90,10.00,10.57,6.47,8.14,12.67,11.05,7.39,12.01,14.70,11.45,9.56,14.83,15.49,19.66,20.11,22.55,20.73,18.91,13.88,11.33,9.52,7.85,4.36,3.59,3.51,3.42,4.29,5.11,8.58,10.51,11.97,13.13,18.32,18.56,23.10,26.44,23.36,25.49,24.56,27.74,26.68,29.58,27.61,31.09,30.63,30.29,29.45,29.37,32.38,32.81,28.82,29.42,25.26,25.23,21.10,21.31,18.12,13.33,14.00,18.49,16.62,13.53,15.21,14.12,18.58,22.70,23.62,27.69,27.14,32.62,31.44,27.64,31.86,35.35,31.43,28.17,27.77,22.04,20.10,19.57,16.18,18.03,19.33,25.11,26.01,27.22,28.90,26.25,29.65,29.11,32.70,31.98,28.65,28.32,24.29,23.31,20.96,19.59,16.27,18.48,16.49,18.75,20.07,23.74,28.14,32.34,31.49,34.07,31.67,35.03,34.28,33.55,32.46,27.32,23.62,21.10,20.46,18.74,22.52,22.33,27.15,29.09,27.86,24.51,22.63,24.39,24.03,23.56,20.38,21.90,19.89,23.61,23.31,27.52,28.57,33.05,34.08,31.48,28.07,26.58,22.62,23.42,19.94,21.86,26.17,26.97,31.46,33.19,36.73,38.76,38.18,34.63,34.67,31.55,27.78,24.08,19.21,17.43,20.23,19.17,23.42,24.99,27.40,30.03,32.84,34.09,36.99,38.48,NaN,NaN,NaN,NaN,NaN,NaN,NaN,NaN,
27,"7CJM","B",3.20,02.09.20,"I,41,2,2",,14.8,7cjm_B,NaN,NaN,NaN,81.46,75.24,69.66,62.52,56.18,53.41,46.65,41.69,35.60,37.50,36.61,43.29,48.67,55.90,61.76,66.65,73.16,74.12,80.44,80.27,83.92,78.67,71.57,65.61,63.98,71.04,70.27,63.03,60.10,53.87,53.05,48.33,49.30,42.99,40.46,47.22,49.60,56.74,58.70,64.13,66.55,72.39,71.22,73.16,75.83,69.73,65.20,67.64,61.96,56.24,50.96,50.62,45.83,49.87,48.42,50.04,57.55,59.63,57.35,54.60,50.08,48.07,46.24,41.97,38.72,37.00,34.58,29.54,27.35,29.77,32.50,39.53,37.19,42.08,37.32,32.01,35.61,37.66,30.46,28.34,34.73,34.13,27.71,30.81,37.15,33.84,29.14,34.69,38.96,34.34,36.13,31.22,35.70,33.96,35.97,37.21,32.24,26.64,24.89,26.49,27.78,34.27,32.54,32.34,28.58,23.35,21.09,21.62,14.48,13.45,19.34,18.61,11.38,13.06,18.81,16.63,10.34,14.48,19.40,17.40,15.53,11.40,11.08,11.65,19.08,20.50,19.95,20.57,13.40,10.26,14.69,15.31,8.28,10.08,17.54,16.92,15.92,21.22,25.87,25.94,21.32,25.59,23.16,15.64,16.53,21.04,17.73,11.00,14.90,20.00,16.65,11.98,17.42,14.59,20.53,23.23,22.86,16.13,11.63,6.14,6.94,9.64,12.78,8.64,3.28,8.31,13.61,12.19,8.94,14.69,19.64,17.53,16.14,21.36,24.91,31.87,33.31,33.33,40.15,42.80,50.26,51.84,58.81,59.96,66.58,68.69,75.40,76.57,72.94,74.72,70.42,65.28,60.36,54.12,49.77,42.28,37.84,30.49,25.72,31.35,33.98,28.45,27.01,31.60,30.12,35.67,38.67,36.99,43.50,42.87,50.46,51.42,47.80,52.98,58.82,56.25,52.28,53.84,50.66,52.83,57.57,59.61,64.74,60.78,63.59,59.38,60.92,59.80,54.47,54.76,51.12,55.43,50.61,43.14,38.95,31.53,27.01,27.15,29.20,25.88,30.56,27.40,29.66,27.14,29.41,36.98,43.04,44.31,48.81,46.01,50.54,49.94,46.74,46.19,38.64,32.23,29.49,28.84,25.02,29.40,26.15,30.07,27.81,22.05,15.58,11.43,17.97,22.42,25.35,23.82,28.89,28.26,33.87,33.61,39.00,41.19,48.25,49.66,45.42,41.72,39.17,34.65,34.32,31.85,38.15,42.13,43.52,48.13,50.01,54.10,56.59,55.14,49.62,48.99,42.90,36.22,32.91,27.07,25.36,29.93,27.52,32.74,32.32,35.47,36.23,42.90,48.34,55.23,59.72,66.93,69.08,74.25,NaN,NaN,NaN,NaN,NaN,
28,"7CMD","A",2.59,02.09.20,"P21","P0DTD1",9.5,7cmd_A,NaN,NaN,NaN,53.99,50.41,46.29,41.30,36.31,33.10,27.66,23.49,20.24,24.24,23.35,25.40,30.35,33.35,38.60,41.25,46.23,47.44,52.12,53.33,56.30,52.25,47.97,43.06,42.29,46.52,43.97,38.85,37.93,35.11,34.46,32.19,33.13,28.66,26.63,31.63,34.06,38.58,39.77,44.29,45.50,48.75,47.99,49.89,52.03,48.04,44.50,46.54,43.38,38.98,34.24,33.17,28.80,30.12,28.46,26.73,31.18,29.92,25.69,24.22,24.14,21.73,17.88,18.14,17.55,13.61,10.78,11.90,10.59,8.67,13.28,17.99,20.60,24.42,24.71,19.69,21.76,25.24,21.57,18.66,23.26,24.30,19.05,20.11,24.70,21.26,17.48,21.89,23.12,18.56,19.28,17.45,19.65,21.00,19.32,22.34,23.91,18.59,16.46,12.65,11.63,13.21,10.22,13.49,14.60,10.45,7.76,2.90,2.87,3.14,5.16,4.81,3.90,6.81,10.64,10.84,9.95,14.24,17.01,16.50,16.83,11.93,10.22,5.12,2.40,4.62,9.06,11.03,7.63,9.67,14.04,13.40,11.45,16.36,18.78,15.53,17.36,21.83,20.60,20.26,15.22,16.99,15.93,10.96,9.90,13.69,10.82,6.93,11.41,13.90,10.50,11.57,16.62,15.81,18.16,17.06,16.92,16.49,13.36,11.05,11.18,8.12,12.55,13.03,7.96,7.83,11.75,9.47,4.55,8.82,9.67,4.27,5.96,9.64,14.06,16.35,20.58,21.77,26.45,29.64,34.81,37.13,42.19,43.91,49.21,51.92,55.98,57.94,55.29,54.81,50.62,46.27,42.19,37.18,32.97,27.89,23.32,18.17,16.95,22.01,23.65,20.75,20.61,24.59,24.98,28.79,28.60,25.63,29.68,30.55,35.52,36.37,34.74,38.08,42.08,41.33,39.25,NaN,NaN,NaN,NaN,NaN,NaN,NaN,NaN,NaN,NaN,45.18,40.53,39.84,36.93,39.62,36.13,31.33,28.38,23.93,22.71,21.69,21.99,19.23,22.47,20.80,23.31,22.41,19.65,22.90,23.08,24.63,26.28,25.46,29.50,29.81,31.60,30.94,25.89,22.51,18.10,15.78,11.55,11.80,10.99,10.37,12.90,17.32,19.51,17.11,14.55,10.60,5.36,4.78,6.77,10.39,15.45,18.95,24.25,27.22,31.74,28.94,24.00,20.27,14.99,12.45,8.26,9.19,14.04,13.50,16.36,17.85,21.88,24.29,28.77,26.93,22.25,21.85,18.23,17.28,17.56,17.28,16.67,19.65,19.50,24.19,25.27,27.59,29.32,32.93,35.98,40.06,43.26,48.65,49.61,52.72,NaN,NaN,NaN,NaN,NaN,
29,"7CMD","B",2.59,02.09.20,"P21","P0DTD1",9.5,7cmd_B,NaN,NaN,NaN,70.23,66.58,62.76,56.26,51.15,45.73,40.17,33.37,32.36,36.94,39.55,43.63,47.22,50.74,56.57,57.24,62.81,61.25,65.63,67.26,68.33,62.11,56.46,51.64,47.45,52.01,52.50,46.37,42.09,38.25,41.17,39.27,42.00,37.66,33.89,39.55,40.62,46.64,45.85,51.14,54.96,59.90,60.66,63.63,67.34,62.50,57.97,61.99,58.62,52.40,46.71,43.39,37.40,37.41,31.89,31.95,36.07,38.45,37.13,40.69,36.25,30.47,32.73,33.88,27.75,24.68,28.80,26.39,19.74,18.76,15.15,17.04,13.44,19.27,18.95,16.99,23.17,25.70,21.10,20.70,27.36,28.03,23.69,26.02,32.16,30.02,24.77,29.40,32.44,27.13,25.63,19.46,18.35,13.09,9.74,4.17,5.77,4.91,9.56,11.09,16.91,23.04,25.98,29.28,29.65,26.87,20.57,19.86,16.08,11.51,11.52,11.09,6.36,2.92,2.69,7.02,6.00,7.19,11.01,15.74,20.17,18.13,21.21,18.05,21.72,20.18,24.83,21.68,16.09,20.38,23.95,19.34,15.16,20.25,21.71,15.57,13.99,19.51,18.81,22.28,17.17,21.40,20.80,14.34,13.32,17.19,13.29,7.55,12.17,12.11,5.78,5.93,10.82,15.80,21.83,24.75,28.26,25.46,24.86,19.47,19.19,14.93,17.49,15.02,8.85,9.73,13.08,6.99,6.69,13.45,13.67,13.41,17.69,24.46,26.27,31.87,36.21,33.59,38.42,40.09,46.26,48.12,54.48,55.73,62.19,65.35,72.40,71.83,67.48,68.54,63.96,58.02,54.24,47.76,44.04,37.42,33.83,27.55,22.88,27.99,31.57,27.35,26.20,31.43,32.61,38.76,38.80,34.41,38.05,37.46,43.36,46.48,44.42,47.83,53.37,52.96,51.27,55.04,52.58,NaN,NaN,NaN,NaN,NaN,NaN,NaN,NaN,57.56,51.65,51.07,47.50,51.53,47.71,41.17,39.01,32.46,28.55,25.66,27.02,23.90,28.95,28.93,34.23,36.18,35.65,40.56,41.55,38.53,36.79,31.10,31.37,26.11,26.81,30.48,25.98,19.57,16.78,20.05,20.29,25.78,29.19,34.79,38.97,40.63,36.44,31.75,35.11,33.72,29.35,23.42,21.10,15.70,17.57,14.10,17.36,13.97,15.24,17.46,18.79,14.78,17.97,14.86,20.19,18.81,20.29,21.51,17.72,20.29,18.73,23.67,25.96,30.62,30.86,35.98,35.25,35.29,30.71,28.82,23.98,24.50,21.71,26.07,26.94,32.87,36.81,42.85,45.47,51.72,54.79,60.78,62.72,67.82,NaN,NaN,NaN,NaN,NaN,
30,"7CMD","C",2.59,02.09.20,"P21","P0DTD1",9.5,7cmd_C,NaN,NaN,NaN,55.86,53.84,54.32,48.49,46.75,42.96,39.89,35.03,33.50,35.85,40.42,45.34,47.00,51.17,54.59,53.85,56.30,51.07,51.86,47.73,47.00,44.83,38.65,38.63,37.71,43.89,46.80,43.55,39.38,32.51,31.73,26.78,27.94,24.88,18.94,18.94,20.97,26.49,29.98,29.09,30.22,36.77,40.57,40.74,47.04,44.26,42.30,49.23,49.64,43.03,39.94,35.84,32.72,35.62,35.44,40.90,46.24,51.26,52.06,51.03,44.71,43.14,44.16,41.08,35.57,35.39,36.04,31.14,26.09,28.37,29.55,35.10,31.87,33.77,27.59,23.67,24.40,21.99,16.35,15.34,17.07,11.65,6.92,12.17,12.08,8.21,10.68,17.18,17.84,17.92,23.97,24.46,30.65,32.85,33.86,36.65,34.41,27.89,24.55,22.81,20.42,24.29,22.48,17.48,13.11,16.73,13.49,18.95,15.41,9.72,15.48,17.35,10.54,11.73,17.68,14.17,10.01,16.80,17.32,11.33,10.23,8.12,14.00,15.11,20.94,23.12,26.22,23.10,16.86,20.41,24.82,20.23,17.13,23.77,25.44,20.55,23.34,29.59,27.86,25.32,18.41,16.23,16.43,12.71,7.48,8.19,11.04,5.42,6.19,12.67,13.98,12.97,16.71,12.39,9.66,5.10,11.50,15.20,18.94,16.90,19.11,15.28,17.15,17.21,10.33,7.96,13.28,12.94,7.54,8.65,15.45,15.23,12.47,14.99,11.50,16.81,12.76,9.97,13.88,17.15,22.25,27.97,33.37,39.91,44.75,51.72,56.81,60.38,55.92,50.85,43.84,41.31,34.42,32.06,26.17,23.36,19.58,16.08,14.90,19.84,15.87,12.07,17.23,23.92,29.10,34.94,33.89,30.92,31.66,26.22,30.62,35.30,30.57,28.61,35.35,37.59,40.66,46.12,45.98,51.86,NaN,NaN,NaN,NaN,NaN,NaN,NaN,43.68,37.33,32.20,25.16,22.70,15.84,11.73,5.70,2.56,4.72,7.97,12.16,15.55,22.65,26.12,32.77,36.30,37.07,42.41,45.61,42.62,43.86,38.88,40.64,39.46,34.76,31.98,26.74,23.09,23.71,24.90,24.87,31.00,31.80,37.04,38.76,39.14,35.66,29.54,30.40,31.44,28.92,25.95,28.10,26.21,30.51,29.25,32.70,35.69,42.46,43.55,40.17,37.86,35.89,31.51,30.64,26.22,31.26,36.49,39.16,43.97,45.79,49.36,49.82,48.28,45.05,46.66,43.19,39.76,34.14,29.92,24.00,23.59,17.84,18.10,14.60,10.92,6.49,5.48,11.82,14.72,21.56,24.86,30.43,NaN,NaN,NaN,NaN,NaN,NaN,
31,"7CMD","D",2.59,02.09.20,"P21","P0DTD1",9.5,7cmd_D,NaN,NaN,NaN,49.32,42.80,37.39,33.42,29.18,31.10,27.13,26.41,19.97,17.07,16.49,22.99,24.40,31.20,33.40,39.26,43.74,46.89,53.30,53.52,59.97,57.83,53.70,47.51,49.94,55.53,51.61,46.13,47.43,42.65,38.39,33.43,30.92,25.60,27.83,34.42,38.66,42.54,46.15,52.16,50.96,52.20,47.31,46.91,44.41,39.30,36.95,35.03,28.58,27.35,25.21,29.73,28.64,34.64,36.78,38.47,45.11,46.00,45.53,40.31,36.16,38.09,36.74,30.49,28.77,30.47,28.22,21.64,21.00,25.72,28.51,34.60,33.61,37.43,34.50,27.75,27.97,31.91,27.64,22.08,26.10,29.83,24.15,22.15,28.84,28.56,22.34,23.83,29.98,27.50,28.67,24.43,29.65,29.89,33.01,35.90,32.17,25.69,21.53,22.80,23.74,30.37,30.72,31.35,30.42,26.69,21.79,21.56,14.76,12.86,17.05,16.02,9.65,11.35,17.57,15.92,12.79,17.78,22.73,21.79,23.70,19.10,19.81,16.19,21.20,18.46,15.81,12.01,8.49,10.50,6.30,0.71,5.51,9.49,7.47,9.99,15.13,17.70,19.07,14.60,12.02,15.06,10.86,5.79,10.82,14.92,11.71,8.64,14.95,18.43,15.63,14.39,21.03,20.44,25.42,26.30,28.90,25.21,21.13,14.75,9.12,6.22,2.22,4.90,4.05,4.32,9.29,11.25,9.16,14.16,18.59,17.58,18.87,25.42,26.89,33.70,37.23,33.43,36.73,35.30,39.86,37.43,40.44,37.48,40.66,39.76,43.53,44.07,43.95,46.49,45.93,43.83,43.62,40.08,40.16,34.18,33.69,28.39,21.68,23.43,27.35,22.98,17.45,17.19,11.68,13.17,18.51,21.18,27.91,30.47,36.27,32.66,30.80,37.86,39.55,34.83,28.04,25.03,NaN,NaN,NaN,NaN,NaN,NaN,NaN,NaN,NaN,33.42,32.24,35.94,37.17,43.40,43.24,38.22,38.71,32.83,30.80,27.00,24.43,18.24,18.34,12.26,10.55,9.44,16.08,20.74,27.96,29.73,35.78,35.45,41.57,43.46,43.17,39.83,33.17,30.18,25.52,22.32,18.59,22.66,20.63,26.12,27.12,24.09,19.10,20.47,26.03,25.18,25.59,21.67,25.11,24.15,29.02,30.72,36.37,40.10,47.19,46.20,40.80,37.91,34.68,31.08,31.00,28.66,34.01,38.16,39.71,43.60,45.46,47.62,49.93,45.92,39.96,37.23,32.04,25.49,21.70,14.72,14.96,21.05,22.26,28.64,32.06,35.84,39.81,44.30,44.97,49.15,48.98,54.92,52.86,56.87,NaN,NaN,NaN,NaN,NaN,
32,"7D47","A",1.97,07.10.20,"P3","P0DTD1",60.8,7d47_A,NaN,NaN,NaN,60.64,55.67,48.12,43.27,35.88,33.82,27.04,24.27,17.32,20.54,15.40,17.50,24.76,29.91,35.81,42.47,49.68,54.26,61.85,64.97,70.53,65.96,61.47,53.88,54.62,59.81,54.81,47.99,49.38,45.88,43.20,39.93,40.44,35.68,35.42,42.98,45.89,50.77,52.61,59.83,60.07,62.55,59.15,62.07,62.35,58.48,52.48,51.81,44.64,42.12,35.80,36.88,32.55,36.10,36.31,34.33,40.97,38.67,35.01,28.52,28.04,29.41,24.66,18.92,20.87,20.84,14.71,10.50,13.64,17.60,23.39,30.24,31.99,35.39,34.97,27.32,28.36,34.27,30.01,24.61,30.59,34.06,28.02,28.39,35.95,34.42,28.67,33.14,38.37,34.02,36.04,31.88,36.71,36.98,36.79,39.51,38.21,30.72,27.82,26.25,26.87,32.53,29.99,32.01,30.58,24.45,20.58,17.63,10.38,12.17,16.90,13.26,8.19,13.15,18.76,16.31,14.26,21.04,25.11,23.53,25.04,18.99,16.20,9.97,12.33,7.93,1.83,5.85,2.09,6.18,9.46,11.94,11.61,17.51,20.73,20.19,23.58,29.02,30.18,27.35,21.77,24.16,19.48,13.21,15.57,19.20,13.54,9.86,16.72,19.60,15.43,16.09,23.37,22.23,27.12,27.99,29.15,25.65,19.98,13.44,7.42,0.78,8.06,11.30,6.63,7.29,14.09,13.56,8.32,14.55,18.46,13.84,15.24,21.89,26.46,32.58,36.79,35.62,41.55,42.82,49.39,49.51,55.23,54.60,59.90,61.35,66.60,70.28,68.03,68.67,65.37,61.45,58.17,52.66,49.37,42.04,38.36,30.96,25.62,30.67,33.65,27.95,24.37,26.78,23.49,25.63,26.02,24.28,31.81,35.79,42.36,40.58,39.75,46.54,49.66,47.17,41.89,43.48,42.63,46.18,52.81,56.09,61.73,57.43,56.03,51.04,52.64,51.07,47.46,48.28,47.30,53.52,50.84,44.05,42.55,35.50,33.16,29.71,28.10,21.74,23.08,17.28,16.50,11.52,6.64,11.16,16.03,22.02,28.92,30.87,38.34,41.64,43.66,40.36,33.74,30.76,24.82,19.32,12.66,13.02,7.84,11.18,12.09,12.45,15.35,19.01,19.73,14.50,15.66,12.90,18.17,19.79,25.08,29.57,36.08,41.79,49.00,45.53,38.34,35.72,30.22,28.59,26.92,27.86,35.16,36.64,37.72,39.34,41.51,42.53,45.42,39.83,32.22,26.61,19.53,12.28,13.54,10.00,13.72,20.80,23.55,31.00,35.18,39.00,43.00,48.31,50.60,56.73,58.00,64.43,64.47,70.45,NaN,NaN,NaN,NaN,NaN,
33,"7D47","B",1.97,07.10.20,"P3","P0DTD1",60.8,7d47_B,NaN,NaN,NaN,73.40,70.44,67.27,59.91,55.04,48.96,43.73,36.80,35.99,40.31,44.27,49.06,52.10,56.25,62.08,61.92,66.96,63.53,66.78,67.48,66.85,59.76,53.27,49.78,43.99,48.79,52.34,46.83,40.00,35.41,39.49,37.93,42.38,38.13,32.69,37.56,36.67,43.55,41.55,45.25,51.38,57.64,60.70,65.20,70.52,66.47,60.94,65.88,63.01,55.86,49.73,45.14,38.60,38.39,33.50,36.35,40.21,46.10,47.28,49.44,42.98,38.80,42.27,41.21,33.80,33.14,36.91,32.11,25.24,27.29,24.01,26.33,19.27,21.48,15.70,16.06,22.27,21.45,15.32,18.10,24.93,23.23,20.22,25.23,30.92,29.55,25.98,32.01,36.27,32.28,33.93,28.31,30.55,26.32,25.30,22.04,18.68,16.02,19.12,21.12,25.07,32.27,32.89,33.21,30.23,28.36,23.17,24.67,19.01,14.16,17.49,16.37,9.41,8.45,10.42,7.47,0.86,3.58,2.76,8.76,13.94,15.96,20.74,20.23,26.42,25.46,28.82,24.91,18.33,21.55,25.97,21.44,15.93,21.07,24.48,18.89,16.64,23.96,25.46,27.45,21.34,24.39,22.64,15.88,14.26,16.27,13.15,6.01,7.39,8.38,7.09,2.83,0.95,7.89,13.87,20.21,24.92,20.80,23.17,18.59,20.01,16.66,19.48,17.21,9.90,11.29,16.78,12.35,10.05,16.54,20.38,19.22,20.86,27.61,28.50,35.77,38.27,35.26,41.32,43.20,50.47,53.01,60.04,62.76,NaN,NaN,81.66,84.50,79.38,NaN,NaN,NaN,62.16,56.08,51.49,44.35,40.71,33.70,27.94,33.00,35.14,28.70,28.67,34.69,36.66,43.14,42.37,37.11,39.61,37.51,42.61,48.14,46.17,48.23,54.45,56.53,56.56,62.29,60.87,65.57,68.18,68.95,76.54,NaN,NaN,NaN,NaN,64.21,57.54,54.36,49.40,53.00,48.15,40.57,37.81,30.44,23.77,21.74,25.55,24.22,30.66,31.80,38.09,40.36,40.40,46.22,48.00,44.00,42.73,35.46,34.62,28.42,23.71,27.98,23.60,16.29,17.67,22.81,24.49,31.45,34.16,40.86,44.25,43.40,39.21,34.90,38.78,37.11,34.12,28.62,28.43,22.98,24.48,18.87,19.35,15.91,18.82,25.40,27.39,26.42,29.27,26.65,30.91,28.94,33.29,36.15,33.58,36.61,34.24,37.38,36.09,39.76,39.75,44.44,43.23,41.70,35.48,32.60,26.81,25.85,20.59,22.55,20.63,26.85,30.38,37.78,41.43,49.02,52.84,57.90,63.16,69.63,NaN,NaN,NaN,NaN,NaN,
34,"7D6H","A",1.60,04.11.20,"P3221","P0DTC1",81.2,7d6h_A,NaN,NaN,NaN,69.34,63.81,56.67,50.91,43.44,40.83,33.59,29.54,23.05,26.94,23.02,25.45,32.84,38.30,44.76,51.11,58.44,61.93,69.39,71.90,76.84,71.79,66.46,59.14,59.16,65.01,60.76,53.50,53.69,49.47,47.52,43.93,44.86,39.63,38.08,45.42,48.47,54.23,56.03,62.96,64.09,67.70,64.95,67.42,68.85,64.00,58.42,58.83,52.04,48.35,41.94,42.54,37.54,40.82,39.94,37.96,44.88,43.23,38.86,33.36,32.87,32.90,27.44,23.28,24.37,22.62,16.39,13.98,15.56,17.72,23.85,31.02,33.00,37.85,36.56,29.15,30.82,36.19,31.11,26.49,32.87,35.17,28.77,30.03,37.27,34.58,29.28,34.50,38.86,33.91,35.92,32.12,36.75,37.13,36.72,39.67,38.45,30.97,28.15,26.19,26.19,31.38,28.25,30.14,28.54,21.87,18.79,15.42,8.36,11.15,16.24,13.20,8.42,13.54,19.19,16.92,14.66,21.39,25.34,23.39,23.77,17.05,13.40,6.69,8.43,6.70,4.44,10.09,5.52,6.21,12.19,14.57,12.94,18.39,22.69,21.55,24.19,30.12,31.30,29.26,23.16,25.66,21.79,15.04,16.50,20.45,15.24,10.56,16.85,20.34,15.90,15.88,23.10,21.51,26.41,26.58,26.31,22.92,16.73,11.09,6.41,2.81,10.35,12.09,6.51,7.84,14.34,12.90,7.17,13.49,17.17,11.95,12.68,18.56,24.16,29.58,34.32,34.14,40.63,43.17,50.31,51.44,57.82,58.33,64.29,66.76,72.65,75.73,73.49,73.76,69.09,64.60,60.29,54.11,49.53,42.04,37.22,29.67,25.27,31.22,34.04,28.63,25.96,29.56,27.07,30.23,30.96,28.37,35.75,38.80,45.60,44.69,43.52,49.85,53.86,51.56,46.54,48.65,47.78,51.69,58.37,61.58,67.52,62.95,62.51,56.87,58.11,55.86,51.59,51.86,49.78,55.41,51.74,44.73,41.84,34.85,32.65,30.08,29.41,23.94,26.16,21.08,21.21,16.78,12.82,17.71,21.42,26.96,33.03,34.08,41.40,43.84,45.57,42.84,35.79,32.09,26.26,21.19,14.34,13.95,7.21,7.78,5.02,6.90,11.57,14.76,13.85,9.19,11.60,10.64,17.18,19.96,25.98,30.55,37.23,42.46,49.66,46.43,39.24,36.17,30.20,28.08,25.45,26.48,34.03,35.10,36.96,38.79,41.67,43.00,46.71,41.65,34.06,29.26,21.77,15.41,17.19,14.20,17.02,23.53,25.39,32.61,35.98,39.38,42.47,47.97,51.25,57.34,60.12,67.18,67.64,73.28,NaN,NaN,NaN,NaN,NaN,
35,"7D7T","A",3.15,04.11.20,"P6522","P0DTC1",0.8,7d7t_B,NaN,NaN,NaN,14.98,14.14,14.89,12.89,12.21,11.31,10.42,9.15,8.79,9.45,10.57,11.63,11.52,12.42,13.67,13.79,14.97,13.66,14.16,13.21,13.60,12.45,10.63,10.41,9.73,10.95,11.79,10.97,9.45,7.99,8.38,7.49,8.06,7.37,6.44,6.83,6.84,8.25,8.29,8.44,9.05,10.13,11.38,11.75,13.74,13.29,12.82,13.46,13.52,11.69,10.70,9.62,8.64,8.85,8.49,9.53,9.96,11.84,12.98,13.21,11.55,11.10,11.65,10.81,9.32,9.11,8.90,7.69,6.43,6.78,6.58,7.19,6.67,7.03,5.99,5.24,5.75,4.74,3.36,3.74,4.85,3.20,2.35,4.22,4.86,4.23,4.50,6.10,6.64,6.19,7.58,7.42,8.71,8.51,8.60,8.77,8.16,6.33,6.37,6.07,6.13,8.01,7.19,6.03,4.11,4.37,4.06,5.36,4.14,3.14,4.72,4.25,2.60,3.17,4.41,3.35,2.31,3.99,3.94,2.12,2.43,2.59,4.21,4.34,5.98,5.87,6.60,6.08,4.64,5.02,6.54,5.68,4.93,6.27,6.98,6.20,6.79,8.22,7.88,7.34,5.34,5.12,5.07,3.98,2.67,2.53,2.79,1.25,0.79,2.26,2.72,2.26,2.71,1.36,0.42,1.15,2.31,2.32,3.76,3.41,4.30,4.18,4.91,4.66,2.84,2.80,4.07,3.29,1.87,2.82,4.61,4.18,3.46,4.65,4.46,6.72,5.43,4.55,5.53,6.25,7.43,8.69,10.47,11.82,13.35,14.93,16.06,16.66,15.96,15.09,13.15,12.48,10.28,9.37,8.12,7.45,6.32,5.20,4.69,5.98,5.59,4.34,5.22,6.80,8.02,9.55,9.03,7.97,7.90,6.45,7.44,8.78,7.87,7.60,9.40,9.82,10.98,12.57,12.33,13.81,14.42,15.21,16.51,16.57,16.35,14.82,13.91,12.32,10.61,9.50,7.78,7.55,5.71,4.55,3.28,2.34,0.43,1.67,3.40,4.70,6.08,6.92,8.37,9.09,9.34,10.84,11.84,11.08,11.64,11.21,10.41,9.96,7.81,7.10,6.10,5.22,5.73,6.27,5.80,7.95,7.80,9.37,10.12,10.38,9.24,7.94,7.51,7.55,7.12,6.41,7.20,6.60,7.53,7.19,7.84,8.37,9.46,10.27,9.59,9.18,8.67,7.86,7.81,6.98,8.80,9.82,10.16,11.20,11.79,12.64,12.65,12.51,11.81,12.08,11.37,10.36,8.73,7.35,6.34,6.04,4.39,3.91,2.46,1.69,1.02,2.55,3.76,5.37,6.90,7.54,8.75,9.62,NaN,NaN,NaN,NaN,NaN,
36,"7D7T","B",3.15,04.11.20,"P6522","P0DTC1",0.8,7d7t_A,NaN,NaN,NaN,60.28,54.45,46.94,42.17,35.08,33.98,27.37,24.89,17.53,19.57,14.24,17.52,24.28,30.15,35.44,42.49,49.33,53.98,61.62,64.60,70.32,66.20,61.72,54.22,55.08,60.53,55.39,48.68,50.32,46.55,43.33,39.97,40.11,35.55,35.11,42.65,45.63,50.17,52.28,59.54,60.28,62.64,58.68,61.04,61.35,57.01,51.13,49.91,42.54,40.47,34.44,36.19,32.43,36.65,37.18,35.14,41.86,40.46,37.69,31.07,29.68,31.50,27.16,21.26,22.40,22.66,17.08,12.16,14.79,19.03,24.34,31.23,32.91,36.92,36.04,28.40,28.68,34.64,30.57,25.08,30.72,34.48,28.56,28.42,35.99,34.47,28.66,32.97,38.41,34.24,36.18,31.90,36.86,36.95,37.25,39.97,38.08,30.65,27.81,26.90,27.50,33.43,31.27,33.27,31.81,25.94,21.83,18.85,11.46,12.73,17.67,13.95,8.60,13.55,19.13,16.30,14.11,20.76,24.74,23.13,24.52,18.54,16.22,10.34,13.20,9.21,3.43,6.08,2.03,5.06,7.95,10.73,10.91,16.50,19.60,19.56,22.91,28.14,29.51,26.81,21.31,23.69,18.94,12.84,15.78,19.27,13.69,10.08,16.97,19.85,16.04,16.36,23.57,22.37,27.62,28.51,29.42,25.52,19.77,13.28,6.97,0.51,7.62,10.97,6.50,7.01,13.88,13.63,8.64,14.83,19.33,14.72,15.72,22.00,26.74,32.91,37.13,35.61,41.70,42.81,49.56,49.57,55.10,54.49,59.48,60.42,65.17,68.02,67.32,68.60,65.30,61.56,58.47,52.97,49.30,41.93,37.83,30.56,25.44,30.63,33.50,27.74,23.85,26.06,22.22,24.27,25.40,23.94,31.57,35.55,41.84,39.89,39.53,46.32,49.44,46.73,41.09,42.38,41.48,44.76,51.73,54.92,60.10,54.51,54.19,49.10,51.83,50.36,47.33,48.04,47.16,53.64,51.07,44.37,42.95,35.79,33.17,29.57,28.06,21.74,22.45,16.28,14.89,9.46,6.18,11.50,17.38,23.01,30.10,31.77,39.21,42.32,43.90,40.60,33.87,31.04,25.23,19.76,13.47,14.24,9.56,13.09,13.11,12.22,12.97,17.88,19.56,15.75,17.17,14.25,19.52,20.69,25.83,30.11,36.44,41.98,49.33,46.37,39.31,36.81,31.54,29.75,28.39,29.04,36.26,37.87,38.98,40.98,43.13,43.94,46.77,41.24,33.70,28.32,21.55,14.07,14.49,9.92,13.48,20.63,23.35,30.79,34.88,38.83,42.91,48.37,50.55,56.33,57.83,64.58,64.37,69.91,NaN,NaN,NaN,NaN,NaN,
37,"7KOJ","A",2.02,18.11.20,"I4122","P0DTC1",42.8,7koj_A,NaN,NaN,NaN,0.67,0.42,0.33,0.33,0.32,0.21,0.20,0.11,0.10,0.20,0.16,0.22,0.22,0.42,0.74,0.46,0.41,0.42,0.63,0.59,0.49,0.45,0.46,0.35,0.27,0.47,0.49,0.29,0.36,0.28,0.23,0.24,0.27,0.23,0.18,0.35,0.38,0.27,0.27,0.45,0.32,0.75,0.38,0.32,0.20,0.35,0.35,0.58,0.10,0.26,0.26,0.30,0.21,0.23,0.26,0.20,0.29,0.24,0.15,0.13,0.19,0.21,0.17,0.17,0.12,0.15,0.18,0.17,0.16,0.12,0.15,0.16,0.15,0.27,0.15,0.15,0.16,0.16,0.19,0.16,0.19,0.16,0.11,0.11,0.10,0.09,0.05,0.09,0.11,0.07,0.06,0.11,0.09,0.14,0.15,0.12,0.09,0.10,0.07,0.09,0.11,0.13,0.14,0.08,0.06,0.07,0.09,0.14,0.07,0.07,0.08,0.05,0.04,0.05,0.06,0.05,0.08,0.05,0.05,0.05,0.06,0.04,0.07,0.09,0.17,0.12,0.10,0.14,0.08,0.10,0.14,0.14,0.09,0.12,0.10,0.06,0.12,0.22,0.14,0.13,0.14,0.14,0.09,0.13,0.09,0.07,0.10,0.08,0.11,0.11,0.09,0.08,0.10,0.10,0.16,0.06,0.06,0.10,0.15,0.08,0.11,0.11,0.12,0.02,0.11,0.13,0.05,0.08,0.16,0.09,0.03,0.13,0.10,0.15,0.14,0.03,0.07,0.05,0.10,0.14,0.13,0.10,0.11,0.08,0.10,0.11,0.22,0.18,0.28,0.15,0.10,0.14,0.10,0.08,0.09,0.14,0.11,0.14,0.10,0.18,0.14,0.07,0.12,0.21,0.25,0.25,0.24,0.24,0.24,0.13,0.21,0.24,0.21,0.21,0.23,0.22,0.15,0.19,0.21,0.48,0.57,0.49,0.26,0.64,0.64,0.45,0.09,0.21,0.23,0.16,0.20,0.11,0.08,0.06,0.05,0.06,0.06,0.05,0.06,0.05,0.11,0.12,0.27,0.30,0.30,0.27,0.30,0.23,0.28,0.22,0.22,0.22,0.15,0.13,0.13,0.15,0.09,0.09,0.08,0.18,0.22,0.23,0.33,0.39,0.34,0.26,0.20,0.20,0.13,0.15,0.12,0.12,0.13,0.10,0.11,0.15,0.20,0.17,0.15,0.11,0.18,0.14,0.12,0.14,0.15,0.21,0.19,0.19,0.20,0.20,0.27,0.27,0.27,0.30,0.28,0.27,0.21,0.18,0.12,0.15,0.10,0.06,0.08,0.08,0.09,0.08,0.06,0.09,0.08,0.13,1.01,NaN,NaN,NaN,NaN,NaN,NaN,
38,"7KOK","A",2.00,18.11.20,"I4122","P0DTC1",50.9,7kok_A,NaN,NaN,NaN,0.50,0.15,0.21,0.15,0.25,0.15,0.11,0.07,0.03,0.06,0.03,0.13,0.14,0.19,0.25,0.31,0.30,0.22,0.24,0.38,0.29,0.17,0.32,0.26,0.16,0.27,0.43,0.25,0.27,0.18,0.20,0.20,0.24,0.14,0.17,0.21,0.26,0.11,0.14,0.31,0.34,0.55,0.15,0.24,0.26,0.24,0.32,0.33,0.36,0.18,0.11,0.17,0.08,0.11,0.12,0.09,0.13,0.08,0.06,0.04,0.10,0.06,0.03,0.09,0.04,0.03,0.04,0.06,0.07,0.04,0.07,0.09,0.11,0.12,0.11,0.10,0.14,0.18,0.17,0.13,0.13,0.11,0.07,0.04,0.10,0.07,0.06,0.05,0.09,0.06,0.05,0.03,0.06,0.02,0.05,0.08,0.03,0.06,0.04,0.04,0.03,0.08,0.05,0.05,0.03,0.05,0.03,0.04,0.01,0.08,0.07,0.04,0.07,0.08,0.05,0.02,0.07,0.07,0.04,0.06,0.06,0.01,0.09,0.08,0.10,0.06,0.07,0.07,0.04,0.06,0.06,0.05,0.07,0.06,0.09,0.06,0.11,0.10,0.07,0.06,0.06,0.06,0.10,0.07,0.09,0.08,0.05,0.07,0.13,0.13,0.10,0.12,0.09,0.15,0.15,0.06,0.04,0.06,0.11,0.17,0.18,0.17,0.12,0.11,0.05,0.07,0.03,0.11,0.17,0.08,0.07,0.09,0.10,0.09,0.13,0.10,0.14,0.09,0.12,0.12,0.07,0.04,0.17,0.08,0.09,0.05,0.33,0.23,0.17,0.10,0.08,0.04,0.05,0.08,0.10,0.10,0.13,0.08,0.08,0.07,0.08,0.04,0.05,0.02,0.12,0.11,0.06,0.10,0.07,0.06,0.09,0.17,0.15,0.15,0.16,0.05,0.06,0.08,0.11,0.17,0.25,0.31,0.29,0.20,0.20,0.18,0.04,0.13,0.11,0.11,0.09,0.04,0.06,0.05,0.03,0.04,0.07,0.07,0.07,0.10,0.05,0.04,0.15,0.11,0.11,0.14,0.12,0.05,0.09,0.07,0.09,0.08,0.06,0.06,0.07,0.09,0.06,0.05,0.06,0.05,0.11,0.12,0.17,0.23,0.18,0.11,0.13,0.05,0.04,0.04,0.01,0.04,0.04,0.07,0.03,0.05,0.08,0.10,0.06,0.06,0.10,0.06,0.08,0.05,0.07,0.05,0.03,0.06,0.09,0.05,0.09,0.10,0.09,0.13,0.11,0.09,0.06,0.05,0.04,0.07,0.06,0.08,0.11,0.09,0.09,0.09,0.11,0.13,0.06,0.09,0.36,NaN,NaN,NaN,NaN,NaN,NaN,
39,"7KOL","A",2.58,18.11.20,"I4122","P0DTC1",53.0,7kol_A,NaN,NaN,NaN,NaN,NaN,NaN,0.54,0.64,0.38,0.33,0.33,0.27,0.33,0.28,0.29,0.38,0.65,0.74,0.50,0.43,0.74,0.61,0.52,0.69,0.43,0.45,0.40,0.10,0.15,0.50,0.18,0.19,0.20,0.29,0.29,0.31,0.43,0.49,0.53,0.34,0.38,0.22,0.50,0.45,0.51,0.38,0.32,0.42,0.36,0.84,0.67,0.57,0.43,0.38,0.44,0.20,0.15,0.17,0.18,0.26,0.22,0.20,0.17,0.26,0.11,0.20,0.22,0.13,0.15,0.17,0.18,0.12,0.19,0.21,0.22,0.25,0.34,0.28,0.31,0.25,0.30,0.31,0.31,0.25,0.20,0.23,0.15,0.20,0.20,0.11,0.15,0.17,0.21,0.40,0.23,0.20,0.24,0.13,0.13,0.22,0.21,0.23,0.16,0.16,0.18,0.24,0.16,0.16,0.08,0.02,0.21,0.21,0.22,0.23,0.10,0.10,0.19,0.22,0.12,0.12,0.08,0.16,0.10,0.17,0.15,0.08,0.11,0.10,0.06,0.10,0.10,0.15,0.10,0.13,0.03,0.10,0.11,0.09,0.09,0.22,0.19,0.18,0.17,0.17,0.16,0.19,0.18,0.14,0.15,0.10,0.12,0.20,0.22,0.11,0.15,0.24,0.14,0.19,0.22,0.26,0.18,0.25,0.36,0.24,0.23,0.19,0.17,0.09,0.18,0.17,0.14,0.20,0.12,0.09,0.13,0.22,0.16,0.18,0.28,0.36,0.23,0.08,0.08,0.14,0.18,0.38,0.24,0.15,0.15,0.39,0.16,0.32,0.13,0.31,0.26,0.13,0.09,0.18,0.13,0.10,0.09,0.04,0.09,0.07,0.09,0.13,0.26,0.10,0.09,0.18,0.13,0.11,0.17,0.17,0.08,0.18,0.20,0.14,0.12,0.14,0.20,0.20,0.27,0.26,0.24,0.22,0.16,0.42,0.56,0.30,0.13,0.25,0.27,0.17,0.18,0.10,0.07,0.10,0.06,0.11,0.09,0.03,0.10,0.03,0.13,0.17,0.19,0.16,0.16,0.28,0.24,0.22,0.22,0.27,0.36,0.15,0.28,0.17,0.14,0.04,0.10,0.12,0.24,0.20,0.21,0.32,0.43,0.38,0.53,0.62,0.29,0.22,0.25,0.17,0.20,0.19,0.18,0.16,0.20,0.13,0.22,0.23,0.23,0.18,0.19,0.22,0.41,0.37,0.42,0.34,0.20,0.18,0.27,0.27,0.43,0.28,0.28,0.32,0.23,0.12,0.14,0.23,0.11,0.08,0.08,0.18,0.18,0.05,0.14,0.13,0.08,0.15,0.14,0.68,NaN,NaN,NaN,NaN,NaN,NaN,
40,"7KRX","A",2.72,20.11.20,"I4122","P0DTC1",45.9,7krx_A,NaN,NaN,NaN,NaN,0.42,0.37,0.07,0.04,0.05,0.15,0.19,0.12,0.09,0.12,0.10,0.25,0.14,0.43,0.35,0.63,0.58,0.63,0.60,0.16,0.24,0.22,0.30,0.25,0.32,0.39,0.19,0.13,0.14,0.12,0.16,0.13,0.27,0.26,0.23,0.22,0.16,0.17,0.16,0.30,0.50,0.26,0.36,0.43,0.24,0.20,0.31,0.37,0.39,0.40,0.13,0.06,0.27,0.25,0.19,0.30,0.22,0.31,0.21,0.14,0.05,0.16,0.13,0.05,0.07,0.02,0.03,0.09,0.09,0.20,0.25,0.22,0.44,0.41,0.21,0.12,0.19,0.14,0.17,0.11,0.17,0.15,0.10,0.13,0.09,0.07,0.13,0.12,0.06,0.13,0.12,0.18,0.16,0.21,0.22,0.08,0.14,0.11,0.08,0.08,0.15,0.15,0.07,0.20,0.28,0.28,0.32,0.14,0.18,0.18,0.21,0.15,0.11,0.12,0.09,0.13,0.09,0.05,0.14,0.14,0.22,0.10,0.11,0.18,0.17,0.10,0.22,0.16,0.12,0.09,0.09,0.13,0.12,0.15,0.25,0.34,0.18,0.21,0.26,0.25,0.16,0.16,0.14,0.07,0.09,0.05,0.07,0.15,0.12,0.05,0.05,0.15,0.16,0.30,0.22,0.15,0.13,0.22,0.17,0.13,0.06,0.12,0.22,0.12,0.08,0.13,0.20,0.22,0.12,0.15,0.20,0.29,0.12,0.13,0.84,0.97,0.40,0.07,0.16,0.06,0.24,0.45,0.27,0.44,0.47,0.77,0.42,0.19,0.44,0.37,0.29,0.53,0.53,0.15,0.20,0.17,0.04,0.12,0.24,0.28,0.15,0.15,0.21,0.14,0.08,0.25,0.22,0.26,0.21,0.34,0.19,0.09,0.17,0.25,0.40,0.17,0.52,0.42,0.22,0.36,0.65,1.76,NaN,NaN,0.52,0.46,0.47,0.21,0.18,0.14,0.06,0.20,0.15,0.06,0.21,0.07,0.05,0.08,0.15,0.08,0.16,0.08,0.23,0.26,0.22,0.12,0.19,0.07,0.11,0.20,0.12,0.17,0.17,0.20,0.19,0.10,0.15,0.05,0.14,0.10,0.18,0.19,0.43,0.13,0.26,0.57,0.17,0.20,0.18,0.11,0.10,0.11,0.13,0.20,0.29,0.31,0.19,0.14,0.23,0.21,0.14,0.09,0.36,0.11,0.23,0.29,0.29,0.16,0.22,0.22,0.24,0.24,0.23,0.21,0.09,0.10,0.05,0.17,0.05,0.03,0.09,0.26,0.22,0.23,0.11,0.12,0.10,0.23,0.17,0.37,NaN,NaN,NaN,NaN,NaN,NaN,
