"No.","PDBid","chain","Resolution","Deposition date","Space Group","PQ1"
1,"6W9C","A",2.70,01.04.20,"C2","P0DTD1",29.4
2,"6W9C","B",2.70,01.04.20,"C2","P0DTD1",29.4
3,"6W9C","C",2.70,01.04.20,"C2","P0DTD1",29.4
4,"6WRH","A",1.60,06.05.20,"P3221","P0DTD1",78.8
5,"6YVA","A",3.18,13.05.20,"P6222","P0DTD1",9.1
6,"6WUU","A",2.79,20.05.20,"P21","P0DTD1",66.8
7,"6WUU","B",2.79,20.05.20,"P21","P0DTD1",66.8
8,"6WUU","C",2.79,20.05.20,"P21","P0DTD1",66.8
9,"6WUU","D",2.79,20.05.20,"P21","P0DTD1",66.8
10,"6WX4","D",1.66,20.05.20,"I222","P0DTD1",87.6
11,"6WZU","A",1.79,27.05.20,"P3221","P0DTD1",68.0
12,"6XA9","A",2.90,17.06.20,"P41212","P0DTD1",42.1
13,"6XA9","C",2.90,17.06.20,"P41212","P0DTD1",42.1
14,"6XA9","E",2.90,17.06.20,"P41212","P0DTD1",42.1
15,"6XAA","A",2.70,17.06.20,"P21212","P0DTD1",20.1
16,"6XG3","A",2.48,24.06.20,"P3221","P0DTD1",71.3
17,"7JIR","A",2.09,05.08.20,"I4122","P0DTD1",58.8
18,"7JIT","A",1.95,05.08.20,"I4122","P0DTD1",67.4
19,"7JIW","A",2.30,05.08.20,"I4122","P0DTD1",39.5
20,"7JN2","A",1.93,12.08.20,"I4122","P0DTD1",50.4
21,"7JRN","A",2.48,26.08.20,"P21","P0DTD1",34.0
22,"7JRN","J",2.48,26.08.20,"P21","P0DTD1",34.0
23,"7CJD","A",2.50,02.09.20,"C2","P0DTD1",2.5
24,"7CJD","B",2.50,02.09.20,"C2","P0DTD1",2.5
25,"7CJD","C",2.50,02.09.20,"C2","P0DTD1",2.5
26,"7CJD","D",2.50,02.09.20,"C2","P0DTD1",2.5
27,"7CJM","B",3.20,02.09.20,"I,41,2,2",,14.8
28,"7CMD","A",2.59,02.09.20,"P21","P0DTD1",9.5
29,"7CMD","B",2.59,02.09.20,"P21","P0DTD1",9.5
30,"7CMD","C",2.59,02.09.20,"P21","P0DTD1",9.5
31,"7CMD","D",2.59,02.09.20,"P21","P0DTD1",9.5
32,"7D47","A",1.97,07.10.20,"P3","P0DTD1",60.8
33,"7D47","B",1.97,07.10.20,"P3","P0DTD1",60.8
34,"7D6H","A",1.60,04.11.20,"P3221","P0DTC1",81.2
35,"7D7T","A",3.15,04.11.20,"P6522","P0DTC1",0.8
36,"7D7T","B",3.15,04.11.20,"P6522","P0DTC1",0.8
37,"7KOJ","A",2.02,18.11.20,"I4122","P0DTC1",42.8
38,"7KOK","A",2.00,18.11.20,"I4122","P0DTC1",50.9
39,"7KOL","A",2.58,18.11.20,"I4122","P0DTC1",53.0
40,"7KRX","A",2.72,20.11.20,"I4122","P0DTC1",45.9
