"","PDB","Resol.","Released","Title","Method","Ligand IDs","Virus","Protein","Ligand category","R-work","R-free","R-merge","Synthetics","Ligand full name","Author List","Processing Software","Completeness","I/σ","Synchrotron/Beamline","Refinement Software","Deposition Date","PubMed ID","Metals","Molstack","Re-refined PDB","Re-refined MTZ","R-free after re-refinement","Re-refinement summary","Validation summary","Polymers","PQ1(PDB)","Issues","","Re-refined?","Raw data","Ref.","PR-free","PRSRZ","PGeometry","RNA","Re-refinement comparison"
"","7aku","2.50 Å","2020-10-28","Structure of SARS-CoV-2 Main Protease bound to Calpeptin.","X-ray","RN2","SARS-CoV-2","NSP5 (Main protease)","Functional ligand","18.23%","23.53%","19.00%","Calpeptin","Calpeptin","Guenther, S., Reinke, P., Oberthuer, D., Yefanov, O., Gelisio, L., Ginn, H., Lieske, J., Domaracky, M., Brehm, W., Rahmani Mashour, A., White, T.A., Knoska, J., Pena Esperanza, G., Koua, F., Tolstikova, A., Groessler, M., Fischer, P., Hennicke, V., Fleckenstein, H., Trost, F., Galchenkova, M., Gevorkov, Y., Li, C., Awel, S., Paulraj, L.X., Ullah, N., Falke, S., Alves Franca, B., Schwinzer, M., Brognaro, H., Werner, N., Perbandt, M., Tidow, H., Seychell, B., Beck, T., Meier, S., Doyle, J.J., Giseler, H., Melo, D., Dunkel, I., Lane, T.J., Peck, A., Saouane, S., Hakanpaeae, J., Meyer, J., Noei, H., Gribbon, P., Ellinger, B., Kuzikov, M., Wolf, M., Zhang, L., Ehrt, C., Pletzer-Zelgert, J., Wollenhaupt, J., Feiler, C., Weiss, M., Schulz, E.C., Mehrabi, P., Norton-Baker, B., Schmidt, C., Lorenzen, K., Schubert, R., Han, H., Chari, A., Fernandez Garcia, Y., Turk, D., Hilgenfeld, R., Rarey, M., Zaliani, A., Chapman, H.N., Pearson, A., Betzel, C., Meents, A.","autoPROC","86.23%","3.712","PETRA III, DESY (P11)","PHENIX","2020-10-02","-","-","-","-","-","N/A","-","-","Replicase polyprotein 1ab","46.3","-","","No","-","-","50.8","88.1","25.1","","-"
"","7d1m","1.35 Å","2020-10-28","CRYSTAL STRUCTURE OF THE SARS-CoV-2 MAIN PROTEASE COMPLEXED WITH GC376","X-ray","K36","SARS-CoV-2","NSP5 (Main protease)","Functional ligand","11.67%","15.70%","4.70%","(1S,2S)-2-({N-[(benzyloxy)carbonyl]-L-leucyl}amino)-1-hydroxy-3-[(3S)-2-oxopyrrolidin-3-yl]propane-1-sulfonic acid","(1S,2S)-2-({N-[(benzyloxy)carbonyl]-L-leucyl}amino)-1-hydroxy-3-[(3S)-2-oxopyrrolidin-3-yl]propane-1-sulfonic acid","Fu, L.F., Gilski, M., Shabalin, I., Gao, G.F., Qi, J.X.","HKL-2000","98.70%","11.4","SSRF (BL17U1)","REFMAC","2020-09-14","-","-","-","-","-","N/A","-","-","3C-like proteinase","68.4","-","","No","-","-","97.6","37.8","72.2","","-"
