B  TTT  401     B  GLY  163 protein  3.332
B  TTT  401     B  ASP  164 protein  2.815
B  TTT  401     B  TYR  264 protein  3.031
B  TTT  401     B  TYR  268 protein  3.499
B  TTT  401     B  GLN  269 protein  3.143
B  TTT  401     B  TYR  273 protein  3.232
B   ZN  402     B  ASP   62 protein  3.480
B   ZN  403     B  HIS   89 protein  3.467
B   ZN  403     B  ASP  108 protein  2.619
B   ZN  404     B  CYS  189 protein  3.200
B   ZN  404     B  CYS  192 protein  3.452
B   ZN  404     B  CYS  224 protein  3.249
B  TTT  401     B  GLY  163 protein  3.332
B  TTT  401     B  ASP  164 protein  2.815
B  TTT  401     B  TYR  264 protein  3.031
B  TTT  401     B  TYR  268 protein  3.499
B  TTT  401     B  GLN  269 protein  3.143
B  TTT  401     B  TYR  273 protein  3.232
B   ZN  402     B  ASP   62 protein  3.480
B   ZN  403     B  HIS   89 protein  3.467
B   ZN  403     B  ASP  108 protein  2.619
B   ZN  404     B  CYS  189 protein  3.200
B   ZN  404     B  CYS  192 protein  3.452
B   ZN  404     B  CYS  224 protein  3.249
B  TTT  401     B  GLY  163 protein  3.332
B  TTT  401     B  ASP  164 protein  2.815
B  TTT  401     B  TYR  264 protein  3.031
B  TTT  401     B  TYR  268 protein  3.499
B  TTT  401     B  GLN  269 protein  3.143
B  TTT  401     B  TYR  273 protein  3.232
B   ZN  402     B  ASP   62 protein  3.480
B   ZN  403     B  HIS   89 protein  3.467
B   ZN  403     B  ASP  108 protein  2.619
B   ZN  404     B  CYS  189 protein  3.200
B   ZN  404     B  CYS  192 protein  3.452
B   ZN  404     B  CYS  224 protein  3.249
