B   ZN  401     B  THR  191 protein  3.470
B   ZN  401     B  CYS  192 protein  2.538
B   CA  402     B  TRP  106 protein  3.499
B   CA  402     B  ASN  109 protein  3.418
B   CA  402     B  SER  111 protein  3.039
B   CA  402     B  HOH  600 unknown  2.406
A   ZN  501     A  CYS  189 protein  2.291
A   ZN  501     A  CYS  192 protein  2.303
A   ZN  501     A  CYS  224 protein  3.270
A   ZN  501     A  CYS  226 protein  3.316
A   ZN  501     A  LYS  228 protein  3.345
A   CA  502     A  GLY  100 protein  2.509
A   CA  502     A  HOH  671 unknown  2.742
B   ZN  401     B  THR  191 protein  3.470
B   ZN  401     B  CYS  192 protein  2.538
B   CA  402     B  TRP  106 protein  3.499
B   CA  402     B  ASN  109 protein  3.418
B   CA  402     B  SER  111 protein  3.039
B   CA  402     B  HOH  600 unknown  2.406
A   ZN  501     A  CYS  189 protein  2.291
A   ZN  501     A  CYS  192 protein  2.303
A   ZN  501     A  CYS  224 protein  3.270
A   ZN  501     A  CYS  226 protein  3.316
A   ZN  501     A  LYS  228 protein  3.345
A   CA  502     A  GLY  100 protein  2.509
A   CA  502     A  HOH  671 unknown  2.742
B   ZN  401     B  THR  191 protein  3.470
B   ZN  401     B  CYS  192 protein  2.538
B   CA  402     B  TRP  106 protein  3.499
B   CA  402     B  ASN  109 protein  3.418
B   CA  402     B  SER  111 protein  3.039
B   CA  402     B  HOH  600 unknown  2.406
A   ZN  501     A  CYS  189 protein  2.291
A   ZN  501     A  CYS  192 protein  2.303
A   ZN  501     A  CYS  224 protein  3.270
A   ZN  501     A  CYS  226 protein  3.316
A   ZN  501     A  LYS  228 protein  3.345
A   CA  502     A  GLY  100 protein  2.509
A   CA  502     A  HOH  671 unknown  2.742
