      6WRH_A6WUU_A6WX4_D6WZU_A6XA9_A6XAA_A6XG3_A6YVA_A7CJD_A7CJM_B7CMD_A7D47_A7D6H_A7D7T_A7JIR_A7JIT_A7JIV_A7JIW_A7JN2_A7JRN_A7KOJ_A7KOK_A7KOL_A
6W9C_A 0,765 0,503 0,500 0,756 0,544 0,474 0,515 0,529 0,459 0,501 0,443 0,369 0,765 0,585 0,365 0,318 0,384 0,423 0,438 0,406 0,411 0,419 0,461
6WRH_A       1,185 0,436 0,098 0,402 0,437 0,265 0,791 0,330 0,669 0,536 0,648 0,082 0,624 0,649 0,689 0,626 0,657 0,845 0,580 0,679 0,659 0,673
6WUU_A             1,026 1,162 0,825 0,668 0,963 0,761 0,807 0,656 0,599 0,629 1,220 0,701 0,552 0,534 0,529 0,532 0,462 0,544 0,538 0,536 0,502
6WX4_D                   0,494 0,411 0,350 0,481 0,620 0,484 0,465 0,378 0,367 0,417 0,558 0,399 0,369 0,389 0,460 0,605 0,494 0,401 0,396 0,483
6WZU_A                         0,445 0,437 0,278 0,806 0,336 0,721 0,550 0,638 0,153 0,682 0,698 0,756 0,662 0,675 0,877 0,587 0,704 0,690 0,707
6XA9_A                               0,293 0,394 0,518 0,414 0,552 0,455 0,560 0,425 0,579 0,483 0,440 0,494 0,522 0,463 0,454 0,473 0,499 0,535
6XAA_A                                     0,366 0,508 0,389 0,431 0,367 0,384 0,457 0,488 0,378 0,416 0,375 0,483 0,582 0,418 0,401 0,403 0,432
6XG3_A                                           0,714 0,320 0,582 0,458 0,508 0,275 0,528 0,513 0,500 0,501 0,504 0,582 0,434 0,522 0,510 0,553
6YVA_A                                                 0,661 0,596 0,530 0,504 0,790 0,662 0,513 0,517 0,521 0,570 0,606 0,560 0,523 0,537 0,549
7CJD_A                                                       0,559 0,405 0,464 0,339 0,498 0,443 0,457 0,458 0,494 0,491 0,433 0,476 0,470 0,490
7CJM_B                                                             0,432 0,389 0,653 0,513 0,302 0,306 0,305 0,365 0,456 0,497 0,320 0,314 0,349
7CMD_A                                                                   0,409 0,525 0,551 0,392 0,429 0,382 0,485 0,533 0,310 0,394 0,408 0,465
7D47_A                                                                         0,623 0,594 0,360 0,328 0,376 0,474 0,550 0,487 0,406 0,404 0,468
7D6H_A                                                                               0,627 0,647 0,687 0,613 0,686 0,844 0,623 0,666 0,649 0,693
7D7T_A                                                                                     0,460 0,475 0,493 0,462 0,540 0,513 0,457 0,464 0,504
7JIR_A                                                                                           0,113 0,091 0,155 0,229 0,416 0,076 0,095 0,156
7JIT_A                                                                                                 0,119 0,166 0,231 0,406 0,121 0,125 0,180
7JIV_A                                                                                                       0,126 0,223 0,414 0,081 0,079 0,152
7JIW_A                                                                                                             0,233 0,446 0,141 0,140 0,130
7JN2_A                                                                                                                   0,519 0,224 0,226 0,227
7JRN_A                                                                                                                         0,440 0,429 0,484
7KOJ_A                                                                                                                               0,076 0,144
7KOK_A                                                                                                                                     0,147
7KOL_A                                                                                                                                          

