attribute: mavRMSDca
recipient: residues
	:2.A	1.514392064069463
	:3.A	1.2461757382978211
	:4.A	1.2083938801764902
	:5.A	1.2318454686043072
	:6.A	1.1632532199884527
	:7.A	0.9629799100191494
	:8.A	0.8175409213189877
	:9.A	0.5464273516708787
	:10.A	0.4244693519080908
	:11.A	0.38095621388509193
	:12.A	0.41423617366240817
	:13.A	0.6093077563098568
	:14.A	0.7679356131687606
	:15.A	0.6357476714021252
	:16.A	0.7375359585570894
	:17.A	0.870523884611571
	:18.A	0.9966261803789802
	:19.A	0.9054847658857356
	:20.A	1.1267817418611872
	:21.A	1.0934799992516449
	:22.A	1.0532839759452004
	:23.A	1.1392985621393428
	:24.A	1.5622170578182346
	:25.A	2.0677291941262235
	:26.A	1.1782425038934812
	:27.A	1.0567410982936232
	:28.A	1.1002493588430686
	:29.A	1.1057433864169621
	:30.A	1.1624606763731675
	:31.A	0.9300554828459621
	:32.A	1.0715363281594183
	:33.A	1.0436511872796377
	:34.A	0.8687855476351711
	:35.A	0.8350619453899941
	:36.A	0.9019962618962747
	:37.A	1.1210578604775514
	:38.A	1.1639689021938757
	:39.A	1.1669394628807144
	:40.A	1.1829797456540234
	:41.A	1.1483079423832743
	:42.A	1.2327672680090571
	:43.A	1.4943561009440243
	:44.A	1.399095888385058
	:45.A	1.3674687765377638
	:46.A	1.1149678215381802
	:47.A	1.3889731774690615
	:48.A	1.4206038261203338
	:49.A	1.4418858873510716
	:50.A	1.2909824337424904
	:51.A	1.401644429703219
	:52.A	1.2561242232223655
	:53.A	1.0674912941774028
	:54.A	0.7834004843325245
	:55.A	0.6451896884481911
	:56.A	0.5077193608412133
	:57.A	0.5866983708409869
	:58.A	0.6950558861971002
	:59.A	0.8895815292914413
	:60.A	1.1088800450976062
	:61.A	1.0295209912442458
	:62.A	1.0402910816443578
	:63.A	0.8782185458187517
	:64.A	0.6572674016953264
	:65.A	0.7016601221534916
	:66.A	0.7310411709090034
	:67.A	0.5527650193496332
	:68.A	0.5010669438649269
	:69.A	0.5739683397972759
	:70.A	0.548703525287908
	:71.A	0.47022328893295634
	:72.A	0.5545731488830449
	:73.A	0.6663638796372566
	:74.A	0.8229320152288585
	:75.A	1.1408584938610855
	:76.A	0.9486624049971643
	:77.A	1.1051795157817312
	:78.A	0.8558422247052071
	:79.A	0.6088506497848172
	:80.A	0.6167786519024976
	:81.A	0.6788196399312688
	:82.A	0.6208389595904917
	:83.A	0.5156666554335828
	:84.A	0.538723089594553
	:85.A	0.656972726849424
	:86.A	0.5459429531730793
	:87.A	0.47457091725902745
	:88.A	0.6136297736502707
	:89.A	0.6020661143590941
	:90.A	0.4797275928103833
	:91.A	0.5678472964174203
	:92.A	0.58787688883611
	:93.A	0.5959376100142938
	:94.A	0.6673907514559875
	:95.A	0.542308049103529
	:96.A	0.5794177547443325
	:97.A	0.5081743214162437
	:98.A	0.4891228259590836
	:99.A	0.7392277350313979
	:100.A	0.5842539367511348
	:101.A	0.44950698029922753
	:102.A	0.49729166943568404
	:103.A	0.5403818234708359
	:104.A	0.5190745874647452
	:105.A	0.616822928209961
	:106.A	0.7196841051379247
	:107.A	0.705004717639582
	:108.A	0.7318103534399153
	:109.A	0.705362215829996
	:110.A	0.5189518447519479
	:111.A	0.5102601944479882
	:112.A	0.4622774693836821
	:113.A	0.5044932773984219
	:114.A	0.49799805260687835
	:115.A	0.5475362486130525
	:116.A	0.45456456006068174
	:117.A	0.4767225833373994
	:118.A	0.4368753640867159
	:119.A	0.43202653495040383
	:120.A	0.4867766232379143
	:121.A	0.5311700411258985
	:122.A	0.45261793438691816
	:123.A	0.4526818174080824
	:124.A	0.5919306559589717
	:125.A	0.6403177010907618
	:126.A	0.7205874828537305
	:127.A	0.7144920888625368
	:128.A	0.806981274401433
	:129.A	0.6326014241304257
	:130.A	0.5290530124259898
	:131.A	0.3988285890027999
	:132.A	0.5926388841377505
	:133.A	0.7129174521701551
	:134.A	0.5501497061319017
	:135.A	0.4027830206069068
	:136.A	0.5682389634604632
	:137.A	0.6198696634232836
	:138.A	0.572832254262901
	:139.A	0.487330577020756
	:140.A	0.554682082925129
	:141.A	0.6916518551046111
	:142.A	0.5683742240687779
	:143.A	0.5365927159337778
	:144.A	0.3801838852546237
	:145.A	0.4781267262361159
	:146.A	0.4205640642416514
	:147.A	0.34283782812947566
	:148.A	0.391909415969558
	:149.A	0.39972712816721373
	:150.A	0.3796932857196616
	:151.A	0.39578836951684887
	:152.A	0.45537465948563927
	:153.A	0.5039399972277679
	:154.A	0.4630097703618582
	:155.A	0.49463422203372426
	:156.A	0.6098604978805177
	:157.A	0.5781502817469292
	:158.A	0.5982828831360079
	:159.A	0.5952404495520808
	:160.A	0.6752035548232249
	:161.A	0.7021095925196235
	:162.A	0.8161597126884621
	:163.A	0.6648579226004471
	:164.A	0.4988773173531697
	:165.A	0.44318139715313093
	:166.A	0.49923930115239107
	:167.A	0.5903003099659168
	:168.A	0.49094513926036326
	:169.A	0.4971558603141377
	:170.A	0.5953012377709986
	:171.A	0.7190120837951482
	:172.A	0.663663897279108
	:173.A	0.6317408719475374
	:174.A	0.7309873668331474
	:175.A	0.7524625528548146
	:176.A	0.6548363194811435
	:177.A	0.6753312304442749
	:178.A	0.6258778285730565
	:179.A	0.9341096912055926
	:180.A	0.8240228060824928
	:181.A	0.5159638579771301
	:182.A	0.452220637159681
	:183.A	0.4219934257416619
	:184.A	0.4400649462134128
	:185.A	0.45218322618692336
	:186.A	0.5981841093563214
	:187.A	0.8327360420182054
	:188.A	0.8624915578688755
	:189.A	1.2974813574451574
	:190.A	1.5952920548698697
	:191.A	1.9906516143072206
	:192.A	1.6817614111468766
	:193.A	1.158081042550788
	:194.A	0.9251700332016163
	:195.A	1.0672024409718261
	:196.A	0.8551101052408799
	:197.A	0.6835402137542254
	:198.A	0.5155372702756911
	:199.A	0.5355163337415232
	:200.A	0.6655827092201467
	:201.A	0.8498962289157909
	:202.A	0.7437290184977758
	:203.A	0.5788431713322426
	:204.A	0.42894650255490646
	:205.A	0.36621085569137346
	:206.A	0.44295200451642364
	:207.A	0.4201515013353625
	:208.A	0.5245486407076201
	:209.A	0.623541220297066
	:210.A	0.481459676608661
	:211.A	0.3853180306984164
	:212.A	0.42510279135231843
	:213.A	0.3795198583548504
	:214.A	0.5387115485887045
	:215.A	0.5732982037557044
	:216.A	0.69367731733282
	:217.A	1.4509618681913057
	:218.A	1.6731809202448593
	:219.A	0.8161135453916756
	:220.A	0.7169184026040117
	:221.A	0.9315980357105296
	:222.A	1.1474510452395243
	:223.A	1.5103299210643273
	:224.A	1.4769351185948425
	:225.A	1.9950300193358377
	:226.A	2.1663103755207573
	:227.A	2.1089188399403014
	:228.A	1.9216101805343195
	:229.A	1.4956995243866784
	:230.A	1.0805966241950433
	:231.A	0.8741540568204575
	:232.A	0.8019799038971429
	:233.A	0.5511202800893304
	:234.A	0.36102163799377657
	:235.A	0.5067310361041445
	:236.A	0.4881582419215993
	:237.A	0.3954027278075523
	:238.A	0.4913801238818343
	:239.A	0.5066732486218769
	:240.A	0.6139928049204658
	:241.A	0.45053728074723015
	:242.A	0.35861232096817336
	:243.A	0.36468922631568046
	:244.A	0.2836150896930468
	:245.A	0.4326789455931286
	:246.A	0.5727112252130987
	:247.A	0.566603300050034
	:248.A	0.5505254656318586
	:249.A	0.6305796711662404
	:250.A	0.6256492693928536
	:251.A	0.545080955365361
	:252.A	0.572361614766386
	:253.A	0.4991742181184719
	:254.A	0.6288645015792379
	:255.A	0.6946013816146692
	:256.A	0.5884953358738217
	:257.A	0.4765318813693687
	:258.A	0.36390596435937245
	:259.A	0.35420024652615545
	:260.A	0.33556704414739236
	:261.A	0.32546968144864585
	:262.A	0.3222418758697041
	:263.A	0.5005564496104074
	:264.A	0.5421480297254151
	:265.A	0.6311302990000175
	:266.A	1.0360746948562238
	:267.A	1.3239166488227359
	:268.A	1.8266603221423265
	:269.A	2.806093705429752
	:270.A	1.5864191704764974
	:271.A	0.6821606484014138
	:272.A	0.5893209784959046
	:273.A	0.448038359834272
	:274.A	0.4314373066917423
	:275.A	0.3735108133178142
	:276.A	0.3530372235330579
	:277.A	0.29378901721400436
	:278.A	0.39392877785371516
	:279.A	0.6425866245223993
	:280.A	0.5884182051780938
	:281.A	0.5817694321406105
	:282.A	0.4391070910104509
	:283.A	0.36462462469013307
	:284.A	0.37687768214855555
	:285.A	0.4218270471273613
	:286.A	0.5013181664231631
	:287.A	0.6463083881654687
	:288.A	0.6044045125737582
	:289.A	0.4879691949323547
	:290.A	0.46228415991332056
	:291.A	0.5242050107390781
	:292.A	0.537433952002377
	:293.A	0.6836270007037382
	:294.A	0.7530715183638409
	:295.A	0.7977583476048871
	:296.A	0.6260181309610692
	:297.A	0.7255984640524371
	:298.A	0.6964667530273682
	:299.A	0.6827993129016161
	:300.A	0.3957444613368605
	:301.A	0.47959857749833285
	:302.A	0.3805887089143526
	:303.A	0.34111989485849975
	:304.A	0.34468549973385854
	:305.A	0.36205600338889526
	:306.A	0.5724884261398868
	:307.A	0.49834295969247033
	:308.A	0.805248417671609
	:309.A	0.7517862698129786
	:310.A	0.45835854844512347
	:311.A	0.49322345400414996
	:312.A	0.725610942847988
	:313.A	1.1890403847353737
	:314.A	1.4304403946346262
