309
6w9c_a
  C -56.00680  66.83544  34.42687
  C -55.60380  63.27144  35.89587
  C -52.30780  62.28544  37.64087
  C -50.15880  59.30444  36.46387
  C -46.76680  57.63044  37.11587
  C -44.03480  57.76344  34.40287
  C -41.06280  55.34344  34.59187
  C -38.44480  53.66344  32.30087
  C -37.75080  50.69644  34.66987
  C -41.12480  50.34744  36.54387
  C -39.15080  50.76744  39.88987
  C -38.48980  54.53444  40.08587
  C -41.94880  56.15344  39.54787
  C -42.46280  59.91244  38.87287
  C -45.75280  61.77044  39.54487
  C -47.02880  63.80844  36.55887
  C -50.18580  65.95844  36.18887
  C -51.31480  65.43444  32.52687
  C -53.72280  67.70744  30.56387
  C -56.86680  65.68044  29.56187
  C -56.97180  67.82644  26.28887
  C -53.31580  67.06344  25.16287
  C -52.07780  63.61944  23.89987
  C -49.50780  61.76644  26.09087
  C -46.97780  62.40444  23.22687
  C -47.32180  66.22744  23.31487
  C -46.60980  66.04744  27.12087
  C -43.98080  63.20244  27.58887
  C -42.84780  62.01644  24.11387
  C -43.39180  58.32444  23.27787
  C -45.57780  56.84444  26.11587
  C -46.71580  53.16844  26.58787
  C -49.39680  51.40744  28.76987
  C -48.60380  47.70744  29.48187
  C -46.91680  47.46244  26.03287
  C -49.65980  49.34844  24.09087
  C -48.46380  52.59144  22.34287
  C -50.59980  55.54544  23.66687
  C -48.37180  58.45144  22.38187
  C -51.19780  59.75544  20.08187
  C -54.03180  59.00344  22.63187
  C -55.51580  61.48944  25.17087
  C -55.82680  60.57544  28.88687
  C -59.08980  58.67444  29.85287
  C -60.42880  58.92144  33.48287
  C -59.61980  55.16744  34.12787
  C -55.91680  56.09544  33.34787
  C -55.91080  58.03244  36.74687
  C -52.93480  56.89944  38.95287
  C -51.69280  54.11244  36.49087
  C -47.99780  53.69044  35.45187
  C -46.76280  54.52744  31.89487
  C -43.32280  53.76844  30.46387
  C -41.83080  56.89944  28.75887
  C -38.78780  57.18344  26.47387
  C -35.97280  58.74944  28.57187
  C -36.02580  62.56244  27.97687
  C -33.73380  63.75544  30.84687
  C -30.41580  62.59544  32.39787
  C -32.12880  61.01344  35.45387
  C -34.24380  58.69744  33.20787
  C -31.33480  57.87944  30.79587
  C -29.20880  56.78144  33.81787
  C -32.12880  54.78044  35.29487
  C -32.72480  53.15144  31.82387
  C -29.02080  52.13144  31.49487
  C -28.94380  50.81644  35.13487
  C -32.12480  48.70544  34.56387
  C -31.54280  47.46044  30.90087
  C -27.73480  47.91744  30.37787
  C -28.40780  49.75044  27.05787
  C -28.59180  53.44444  25.90087
  C -30.12080  52.38044  22.50887
  C -33.05880  54.82144  22.22487
  C -35.15280  52.28044  20.12287
  C -34.83480  49.62444  22.98487
  C -37.89180  50.73044  24.97087
  C -40.19980  50.96744  21.87387
  C -39.03280  47.51144  20.65587
  C -39.55180  46.03544  24.16387
  C -43.07580  47.48344  24.38787
  C -44.03680  46.36444  20.77187
  C -42.99080  42.76944  21.67387
  C -44.76880  42.87544  25.13987
  C -48.01780  43.94044  23.38687
  C -48.02680  40.38944  21.86587
  C -46.17580  38.32744  24.52787
  C -48.75780  39.43144  27.21387
  C -51.41980  37.61644  25.06687
  C -49.46180  34.33344  24.67787
  C -50.25680  31.45744  27.15587
  C -47.47880  30.07744  29.39087
  C -48.65380  26.59544  30.53587
  C -46.53780  24.56744  33.04387
  C -45.34880  21.39944  31.17887
  C -43.31580  18.77044  33.17687
  C -42.61780  21.48144  35.82087
  C -41.26380  24.06644  33.25287
  C -42.92180  27.29844  31.98787
  C -43.45580  26.70444  28.22087
  C -45.27080  28.85544  25.59087
  C -48.35680  27.76844  23.62387
  C -47.51480  28.15344  19.90187
  C -48.23280  31.65544  18.48587
  C -46.46180  34.15044  16.16587
  C -43.64880  31.70744  15.11987
  C -42.48680  31.52344  18.81487
  C -41.16480  27.87444  18.77587
  C -37.53980  29.14844  19.08587
  C -38.49080  31.42744  22.06587
  C -40.29780  28.56444  23.87587
  C -37.25480  26.25444  23.29387
  C -34.88080  28.98844  24.64287
  C -37.23780  29.70344  27.61287
  C -37.38980  25.98644  28.55287
  C -33.57380  25.68744  28.21287
  C -32.93480  28.76744  30.40687
  C -34.90780  27.07344  33.27587
  C -32.42080  24.07844  33.21887
  C -28.96980  25.78744  33.11687
  C -27.21180  28.04444  35.69587
  C -27.05780  31.70744  34.43387
  C -26.95280  35.13044  36.15187
  C -28.06780  38.03144  33.86787
  C -26.14980  41.36344  34.30487
  C -29.14280  43.69144  33.44887
  C -31.56680  43.77544  36.41987
  C -34.42380  43.95444  33.86987
  C -33.43980  40.48144  32.51587
  C -32.69680  38.94444  36.00287
  C -36.04980  40.13244  37.50687
  C -38.01680  38.93544  34.44287
  C -36.12780  35.55644  34.44387
  C -37.22380  34.96744  38.10387
  C -40.83180  35.93444  37.17887
  C -40.76480  33.61944  34.11987
  C -39.44380  30.69444  36.21287
  C -42.46480  31.18944  38.55787
  C -44.88580  31.05444  35.57487
  C -45.18980  34.76544  34.38087
  C -42.89980  34.83044  31.30387
  C -44.53380  37.58644  29.09987
  C -41.99380  40.29344  30.12587
  C -39.02080  37.96144  29.89787
  C -40.05880  36.87744  26.32387
  C -40.49480  40.57644  25.23687
  C -37.06480  41.38244  26.66687
  C -35.46880  38.39444  24.84787
  C -36.92280  39.82244  21.53787
  C -35.68380  43.39644  22.31487
  C -32.19080  42.22044  23.34787
  C -31.87380  39.88344  20.25887
  C -33.08980  42.65244  17.83287
  C -36.03180  40.37844  16.79587
  C -39.70380  41.29444  16.38287
  C -42.70880  39.07444  17.01887
  C -43.28980  36.68244  14.05887
  C -39.65380  36.88444  12.86387
  C -37.97580  33.48844  12.32487
  C -35.34380  32.86044  15.00587
  C -32.51680  30.45244  15.79287
  C -32.12180  29.08344  19.38387
  C -28.27380  29.00044  19.21987
  C -28.19080  32.63744  18.00087
  C -30.71880  33.66344  20.76087
  C -28.73780  31.81644  23.54287
  C -25.51880  33.46144  22.23987
  C -27.02580  36.98944  22.63687
  C -28.43080  36.17044  26.13487
  C -25.06180  34.62844  27.27087
  C -23.41480  37.97844  26.18187
  C -25.75480  39.63744  28.77287
  C -24.82880  37.09144  31.50687
  C -21.93780  36.69044  33.98787
  C -19.81280  34.00044  32.26987
  C -16.38580  35.59144  33.25087
  C -15.35080  32.53244  35.42387
  C -16.01080  30.41344  32.31687
  C -12.70680  29.20644  30.88887
  C -12.01080  26.76244  28.01687
  C  -8.48780  25.50744  27.11887
  C  -8.17380  23.81344  23.68187
  C  -5.25680  21.95444  22.11687
  C  -4.82780  21.95744  18.31987
  C  -2.40580  19.22844  17.01687
  C  -1.06580  19.42544  13.36587
  C   1.59420  17.09944  11.75287
  C   3.65020  20.12944  10.48687
  C   2.65820  23.18244  12.62687
  C   2.68520  21.01944  15.83187
  C   0.62620  21.75244  19.01387
  C  -0.99680  25.08244  19.99687
  C  -3.11880  25.66444  23.10587
  C  -5.53980  28.63744  23.33087
  C  -7.70680  29.79244  26.25587
  C -11.30980  31.07444  25.65387
  C -13.36780  33.01744  28.27487
  C -17.08180  34.02944  28.58087
  C -19.51080  33.03344  25.80587
  C -16.85980  31.40544  23.58487
  C -15.94780  29.11744  26.59187
  C -19.50680  27.59744  26.71487
  C -20.56780  27.37744  22.99687
  C -19.17780  25.20044  20.18587
  C -20.53780  24.89344  16.60687
  C -19.61680  21.66844  14.70387
  C -20.62980  18.69644  16.92087
  C -23.42880  17.83044  19.36087
  C -21.23680  15.29044  21.36387
  C -19.39080  16.77244  24.40887
  C -17.56680  13.34744  24.57487
  C -16.37980  13.74144  20.90987
  C -15.11580  17.28744  21.69987
  C -12.99080  15.72644  24.53987
  C -11.62780  12.92844  22.22087
  C -10.91280  15.55944  19.50387
  C -12.56080  16.69844  16.21887
  C -10.95380  17.31444  12.78287
  C -10.61980  21.08744  11.89187
  C  -8.77380  22.96844   9.06487
  C  -5.22880  24.26944   9.95787
  C  -3.68580  20.31044   6.55287
  C  -6.50680  19.00644   8.81287
  C  -5.64980  19.17944  12.58987
  C  -7.17880  17.87444  15.88087
  C  -8.92980  20.29444  18.23787
  C  -9.58780  18.65144  21.64487
  C -10.77180  20.02444  24.99487
  C  -7.94580  20.32544  27.58587
  C  -9.79580  22.10444  30.48387
  C -13.47680  23.26144  30.95087
  C -14.62580  25.53444  33.83387
  C -18.35180  26.37844  33.41787
  C -21.67780  25.20144  34.97187
  C -22.82580  23.94044  31.49587
  C -21.71180  23.68244  27.85487
  C -23.78080  24.09344  24.66687
  C -22.82580  21.83744  21.71687
  C -24.49780  22.76744  18.34487
  C -24.36480  21.56144  14.73087
  C -26.47380  21.85344  11.54787
  C -29.51180  19.60744  12.19587
  C -28.90080  15.84144  11.66387
  C -30.46880  12.58244  12.95087
  C -29.06580  12.00944  16.46987
  C -29.71680   9.58944  19.29687
  C -30.36280  11.11944  22.74287
  C -29.73080   8.82544  25.76487
  C -31.62080   9.37544  29.07887
  C -29.18580  10.68344  31.73887
  C -26.32880  11.65544  29.29687
  C -27.40780  15.30944  28.58687
  C -29.53880  18.03944  30.25787
  C -31.75980  19.08944  27.31087
  C -31.69280  19.56244  23.50487
  C -33.18280  21.54844  20.57187
  C -34.94080  19.48444  17.88187
  C -35.30880  21.29444  14.51987
  C -37.52280  19.97844  11.67287
  C -37.82480  21.40844   8.10887
  C -35.89580  23.81544   5.86187
  C -33.29880  26.44744   6.84887
  C -35.03380  29.36944   8.68687
  C -38.71780  28.31544   8.29287
  C -38.80080  25.02944  10.24987
  C -40.16080  24.18744  13.73587
  C -38.26680  23.72444  17.04187
  C -39.21980  21.30944  19.86587
  C -37.37280  20.76644  23.17587
  C -36.14380  17.38744  24.57487
  C -35.36480  17.27944  28.34187
  C -33.81680  14.30044  30.24287
  C -35.74080  13.66144  33.51787
  C -36.59680  10.16044  34.89187
  C -37.42380   9.59944  31.16787
  C -37.17480  11.71044  27.92787
  C -39.85080  14.41244  27.62587
  C -40.47080  16.19944  24.30287
  C -42.04780  19.65944  24.88087
  C -43.72380  21.14744  21.76187
  C -45.11980  24.46544  23.11187
  C -48.22780  23.31144  25.10087
  C -47.85680  19.66344  23.87387
  C -45.96280  16.94844  25.85087
  C -44.92680  13.40244  24.81587
  C -42.50780  11.01244  26.61487
  C -40.41580   8.01244  25.53287
  C -37.43780   6.03544  26.98887
  C -35.54380   6.46744  23.66687
  C -35.14480   9.26644  21.07287
  C -33.67780   9.62244  17.60887
  C -34.44280  12.76744  15.58887
  C -33.04780  15.94344  14.06887
  C -31.01080  17.70144  16.84687
  C -29.08880  21.00044  16.47087
  C -28.29480  21.93444  20.12987
  C -27.39980  19.73444  23.13787
  C -26.81580  21.20344  26.65787
  C -24.65480  19.32744  29.24887
  C -23.78180  19.99344  32.93587
  C -20.15280  20.86144  33.85487
  C -18.20880  22.27244  36.88787
  C -14.45380  21.50944  36.28087
  C -13.04080  19.07144  33.65787
  C  -9.33780  18.36344  32.94087
  C  -8.43580  15.80344  30.17187
  C  -6.21780  12.69744  30.82687
  C  -4.31980  13.43544  27.48987
  C  -0.56380  14.45444  27.32287
  C -56.00680  66.83544  34.42687
  C -55.60380  63.27144  35.89587
  C -52.30780  62.28544  37.64087
  C -50.15880  59.30444  36.46387
  C -46.76680  57.63044  37.11587
  C -44.03480  57.76344  34.40287
  C -41.06280  55.34344  34.59187
  C -38.44480  53.66344  32.30087
  C -37.75080  50.69644  34.66987
  C -41.12480  50.34744  36.54387
  C -39.15080  50.76744  39.88987
  C -38.48980  54.53444  40.08587
  C -41.94880  56.15344  39.54787
  C -42.46280  59.91244  38.87287
  C -45.75280  61.77044  39.54487
  C -47.02880  63.80844  36.55887
  C -50.18580  65.95844  36.18887
  C -51.31480  65.43444  32.52687
  C -53.72280  67.70744  30.56387
  C -56.86680  65.68044  29.56187
  C -56.97180  67.82644  26.28887
  C -53.31580  67.06344  25.16287
  C -52.07780  63.61944  23.89987
  C -49.50780  61.76644  26.09087
  C -46.97780  62.40444  23.22687
  C -47.32180  66.22744  23.31487
  C -46.60980  66.04744  27.12087
  C -43.98080  63.20244  27.58887
  C -42.84780  62.01644  24.11387
  C -43.39180  58.32444  23.27787
  C -45.57780  56.84444  26.11587
  C -46.71580  53.16844  26.58787
  C -49.39680  51.40744  28.76987
  C -48.60380  47.70744  29.48187
  C -46.91680  47.46244  26.03287
  C -49.65980  49.34844  24.09087
  C -48.46380  52.59144  22.34287
  C -50.59980  55.54544  23.66687
  C -48.37180  58.45144  22.38187
  C -51.19780  59.75544  20.08187
  C -54.03180  59.00344  22.63187
  C -55.51580  61.48944  25.17087
  C -55.82680  60.57544  28.88687
  C -59.08980  58.67444  29.85287
  C -60.42880  58.92144  33.48287
  C -59.61980  55.16744  34.12787
  C -55.91680  56.09544  33.34787
  C -55.91080  58.03244  36.74687
  C -52.93480  56.89944  38.95287
  C -51.69280  54.11244  36.49087
  C -47.99780  53.69044  35.45187
  C -46.76280  54.52744  31.89487
  C -43.32280  53.76844  30.46387
  C -41.83080  56.89944  28.75887
  C -38.78780  57.18344  26.47387
  C -35.97280  58.74944  28.57187
  C -36.02580  62.56244  27.97687
  C -33.73380  63.75544  30.84687
  C -30.41580  62.59544  32.39787
  C -32.12880  61.01344  35.45387
  C -34.24380  58.69744  33.20787
  C -31.33480  57.87944  30.79587
  C -29.20880  56.78144  33.81787
  C -32.12880  54.78044  35.29487
  C -32.72480  53.15144  31.82387
  C -29.02080  52.13144  31.49487
  C -28.94380  50.81644  35.13487
  C -32.12480  48.70544  34.56387
  C -31.54280  47.46044  30.90087
  C -27.73480  47.91744  30.37787
  C -28.40780  49.75044  27.05787
  C -28.59180  53.44444  25.90087
  C -30.12080  52.38044  22.50887
  C -33.05880  54.82144  22.22487
  C -35.15280  52.28044  20.12287
  C -34.83480  49.62444  22.98487
  C -37.89180  50.73044  24.97087
  C -40.19980  50.96744  21.87387
  C -39.03280  47.51144  20.65587
  C -39.55180  46.03544  24.16387
  C -43.07580  47.48344  24.38787
  C -44.03680  46.36444  20.77187
  C -42.99080  42.76944  21.67387
  C -44.76880  42.87544  25.13987
  C -48.01780  43.94044  23.38687
  C -48.02680  40.38944  21.86587
  C -46.17580  38.32744  24.52787
  C -48.75780  39.43144  27.21387
  C -51.41980  37.61644  25.06687
  C -49.46180  34.33344  24.67787
  C -50.25680  31.45744  27.15587
  C -47.47880  30.07744  29.39087
  C -48.65380  26.59544  30.53587
  C -46.53780  24.56744  33.04387
  C -45.34880  21.39944  31.17887
  C -43.31580  18.77044  33.17687
  C -42.61780  21.48144  35.82087
  C -41.26380  24.06644  33.25287
  C -42.92180  27.29844  31.98787
  C -43.45580  26.70444  28.22087
  C -45.27080  28.85544  25.59087
  C -48.35680  27.76844  23.62387
  C -47.51480  28.15344  19.90187
  C -48.23280  31.65544  18.48587
  C -46.46180  34.15044  16.16587
  C -43.64880  31.70744  15.11987
  C -42.48680  31.52344  18.81487
  C -41.16480  27.87444  18.77587
  C -37.53980  29.14844  19.08587
  C -38.49080  31.42744  22.06587
  C -40.29780  28.56444  23.87587
  C -37.25480  26.25444  23.29387
  C -34.88080  28.98844  24.64287
  C -37.23780  29.70344  27.61287
  C -37.38980  25.98644  28.55287
  C -33.57380  25.68744  28.21287
  C -32.93480  28.76744  30.40687
  C -34.90780  27.07344  33.27587
  C -32.42080  24.07844  33.21887
  C -28.96980  25.78744  33.11687
  C -27.21180  28.04444  35.69587
  C -27.05780  31.70744  34.43387
  C -26.95280  35.13044  36.15187
  C -28.06780  38.03144  33.86787
  C -26.14980  41.36344  34.30487
  C -29.14280  43.69144  33.44887
  C -31.56680  43.77544  36.41987
  C -34.42380  43.95444  33.86987
  C -33.43980  40.48144  32.51587
  C -32.69680  38.94444  36.00287
  C -36.04980  40.13244  37.50687
  C -38.01680  38.93544  34.44287
  C -36.12780  35.55644  34.44387
  C -37.22380  34.96744  38.10387
  C -40.83180  35.93444  37.17887
  C -40.76480  33.61944  34.11987
  C -39.44380  30.69444  36.21287
  C -42.46480  31.18944  38.55787
  C -44.88580  31.05444  35.57487
  C -45.18980  34.76544  34.38087
  C -42.89980  34.83044  31.30387
  C -44.53380  37.58644  29.09987
  C -41.99380  40.29344  30.12587
  C -39.02080  37.96144  29.89787
  C -40.05880  36.87744  26.32387
  C -40.49480  40.57644  25.23687
  C -37.06480  41.38244  26.66687
  C -35.46880  38.39444  24.84787
  C -36.92280  39.82244  21.53787
  C -35.68380  43.39644  22.31487
  C -32.19080  42.22044  23.34787
  C -31.87380  39.88344  20.25887
  C -33.08980  42.65244  17.83287
  C -36.03180  40.37844  16.79587
  C -39.70380  41.29444  16.38287
  C -42.70880  39.07444  17.01887
  C -43.28980  36.68244  14.05887
  C -39.65380  36.88444  12.86387
  C -37.97580  33.48844  12.32487
  C -35.34380  32.86044  15.00587
  C -32.51680  30.45244  15.79287
  C -32.12180  29.08344  19.38387
  C -28.27380  29.00044  19.21987
  C -28.19080  32.63744  18.00087
  C -30.71880  33.66344  20.76087
  C -28.73780  31.81644  23.54287
  C -25.51880  33.46144  22.23987
  C -27.02580  36.98944  22.63687
  C -28.43080  36.17044  26.13487
  C -25.06180  34.62844  27.27087
  C -23.41480  37.97844  26.18187
  C -25.75480  39.63744  28.77287
  C -24.82880  37.09144  31.50687
  C -21.93780  36.69044  33.98787
  C -19.81280  34.00044  32.26987
  C -16.38580  35.59144  33.25087
  C -15.35080  32.53244  35.42387
  C -16.01080  30.41344  32.31687
  C -12.70680  29.20644  30.88887
  C -12.01080  26.76244  28.01687
  C  -8.48780  25.50744  27.11887
  C  -8.17380  23.81344  23.68187
  C  -5.25680  21.95444  22.11687
  C  -4.82780  21.95744  18.31987
  C  -2.40580  19.22844  17.01687
  C  -1.06580  19.42544  13.36587
  C   1.59420  17.09944  11.75287
  C   3.65020  20.12944  10.48687
  C   2.65820  23.18244  12.62687
  C   2.68520  21.01944  15.83187
  C   0.62620  21.75244  19.01387
  C  -0.99680  25.08244  19.99687
  C  -3.11880  25.66444  23.10587
  C  -5.53980  28.63744  23.33087
  C  -7.70680  29.79244  26.25587
  C -11.30980  31.07444  25.65387
  C -13.36780  33.01744  28.27487
  C -17.08180  34.02944  28.58087
  C -19.51080  33.03344  25.80587
  C -16.85980  31.40544  23.58487
  C -15.94780  29.11744  26.59187
  C -19.50680  27.59744  26.71487
  C -20.56780  27.37744  22.99687
  C -19.17780  25.20044  20.18587
  C -20.53780  24.89344  16.60687
  C -19.61680  21.66844  14.70387
  C -20.62980  18.69644  16.92087
  C -23.42880  17.83044  19.36087
  C -21.23680  15.29044  21.36387
  C -19.39080  16.77244  24.40887
  C -17.56680  13.34744  24.57487
  C -16.37980  13.74144  20.90987
  C -15.11580  17.28744  21.69987
  C -12.99080  15.72644  24.53987
  C -11.62780  12.92844  22.22087
  C -10.91280  15.55944  19.50387
  C -12.56080  16.69844  16.21887
  C -10.95380  17.31444  12.78287
  C -10.61980  21.08744  11.89187
  C  -8.77380  22.96844   9.06487
  C  -5.22880  24.26944   9.95787
  C  -3.68580  20.31044   6.55287
  C  -6.50680  19.00644   8.81287
  C  -5.64980  19.17944  12.58987
  C  -7.17880  17.87444  15.88087
  C  -8.92980  20.29444  18.23787
  C  -9.58780  18.65144  21.64487
  C -10.77180  20.02444  24.99487
  C  -7.94580  20.32544  27.58587
  C  -9.79580  22.10444  30.48387
  C -13.47680  23.26144  30.95087
  C -14.62580  25.53444  33.83387
  C -18.35180  26.37844  33.41787
  C -21.67780  25.20144  34.97187
  C -22.82580  23.94044  31.49587
  C -21.71180  23.68244  27.85487
  C -23.78080  24.09344  24.66687
  C -22.82580  21.83744  21.71687
  C -24.49780  22.76744  18.34487
  C -24.36480  21.56144  14.73087
  C -26.47380  21.85344  11.54787
  C -29.51180  19.60744  12.19587
  C -28.90080  15.84144  11.66387
  C -30.46880  12.58244  12.95087
  C -29.06580  12.00944  16.46987
  C -29.71680   9.58944  19.29687
  C -30.36280  11.11944  22.74287
  C -29.73080   8.82544  25.76487
  C -31.62080   9.37544  29.07887
  C -29.18580  10.68344  31.73887
  C -26.32880  11.65544  29.29687
  C -27.40780  15.30944  28.58687
  C -29.53880  18.03944  30.25787
  C -31.75980  19.08944  27.31087
  C -31.69280  19.56244  23.50487
  C -33.18280  21.54844  20.57187
  C -34.94080  19.48444  17.88187
  C -35.30880  21.29444  14.51987
  C -37.52280  19.97844  11.67287
  C -37.82480  21.40844   8.10887
  C -35.89580  23.81544   5.86187
  C -33.29880  26.44744   6.84887
  C -35.03380  29.36944   8.68687
  C -38.71780  28.31544   8.29287
  C -38.80080  25.02944  10.24987
  C -40.16080  24.18744  13.73587
  C -38.26680  23.72444  17.04187
  C -39.21980  21.30944  19.86587
  C -37.37280  20.76644  23.17587
  C -36.14380  17.38744  24.57487
  C -35.36480  17.27944  28.34187
  C -33.81680  14.30044  30.24287
  C -35.74080  13.66144  33.51787
  C -36.59680  10.16044  34.89187
  C -37.42380   9.59944  31.16787
  C -37.17480  11.71044  27.92787
  C -39.85080  14.41244  27.62587
  C -40.47080  16.19944  24.30287
  C -42.04780  19.65944  24.88087
  C -43.72380  21.14744  21.76187
  C -45.11980  24.46544  23.11187
  C -48.22780  23.31144  25.10087
  C -47.85680  19.66344  23.87387
  C -45.96280  16.94844  25.85087
  C -44.92680  13.40244  24.81587
  C -42.50780  11.01244  26.61487
  C -40.41580   8.01244  25.53287
  C -37.43780   6.03544  26.98887
  C -35.54380   6.46744  23.66687
  C -35.14480   9.26644  21.07287
  C -33.67780   9.62244  17.60887
  C -34.44280  12.76744  15.58887
  C -33.04780  15.94344  14.06887
  C -31.01080  17.70144  16.84687
  C -29.08880  21.00044  16.47087
  C -28.29480  21.93444  20.12987
  C -27.39980  19.73444  23.13787
  C -26.81580  21.20344  26.65787
  C -24.65480  19.32744  29.24887
  C -23.78180  19.99344  32.93587
  C -20.15280  20.86144  33.85487
  C -18.20880  22.27244  36.88787
  C -14.45380  21.50944  36.28087
  C -13.04080  19.07144  33.65787
  C  -9.33780  18.36344  32.94087
  C  -8.43580  15.80344  30.17187
  C  -6.21780  12.69744  30.82687
  C  -4.31980  13.43544  27.48987
  C  -0.56380  14.45444  27.32287
  C -41.47390  33.34870  34.24531
  C -41.07090  29.78470  35.71431
  C -37.77490  28.79870  37.45931
  C -35.62590  25.81770  36.28231
  C -32.23390  24.14370  36.93431
  C -29.50190  24.27670  34.22131
  C -26.52990  21.85670  34.41031
  C -23.91190  20.17670  32.11931
  C -23.21790  17.20970  34.48831
  C -26.59190  16.86070  36.36231
  C -24.61790  17.28070  39.70831
  C -23.95690  21.04770  39.90431
  C -27.41590  22.66670  39.36631
  C -27.92990  26.42570  38.69131
  C -31.21990  28.28370  39.36331
  C -32.49590  30.32170  36.37731
  C -35.65290  32.47170  36.00731
  C -36.78190  31.94770  32.34531
  C -39.18990  34.22070  30.38231
  C -42.33390  32.19370  29.38031
  C -42.43890  34.33970  26.10731
  C -38.78290  33.57670  24.98131
  C -37.54490  30.13270  23.71831
  C -34.97490  28.27970  25.90931
  C -32.44490  28.91770  23.04531
  C -32.78890  32.74070  23.13331
  C -32.07690  32.56070  26.93931
  C -29.44790  29.71570  27.40731
  C -28.31490  28.52970  23.93231
  C -28.85890  24.83770  23.09631
  C -31.04490  23.35770  25.93431
  C -32.18290  19.68170  26.40631
  C -34.86390  17.92070  28.58831
  C -34.07090  14.22070  29.30031
  C -32.38390  13.97570  25.85131
  C -35.12690  15.86170  23.90931
  C -33.93090  19.10470  22.16131
  C -36.06690  22.05870  23.48531
  C -33.83890  24.96470  22.20031
  C -36.66490  26.26870  19.90031
  C -39.49890  25.51670  22.45031
  C -40.98290  28.00270  24.98931
  C -41.29390  27.08870  28.70531
  C -44.55690  25.18770  29.67131
  C -45.89590  25.43470  33.30131
  C -45.08690  21.68070  33.94631
  C -41.38390  22.60870  33.16631
  C -41.37790  24.54570  36.56531
  C -38.40190  23.41270  38.77131
  C -37.15990  20.62570  36.30931
  C -33.46490  20.20370  35.27031
  C -32.22990  21.04070  31.71331
  C -28.78990  20.28170  30.28231
  C -27.29790  23.41270  28.57731
  C -24.25490  23.69670  26.29231
  C -21.43990  25.26270  28.39031
  C -21.49290  29.07570  27.79531
  C -19.20090  30.26870  30.66531
  C -15.88290  29.10870  32.21631
  C -17.59590  27.52670  35.27231
  C -19.71090  25.21070  33.02631
  C -16.80190  24.39270  30.61431
  C -14.67590  23.29470  33.63631
  C -17.59590  21.29370  35.11331
  C -18.19190  19.66470  31.64231
  C -14.48790  18.64470  31.31331
  C -14.41090  17.32970  34.95331
  C -17.59190  15.21870  34.38231
  C -17.00990  13.97370  30.71931
  C -13.20190  14.43070  30.19631
  C -13.87490  16.26370  26.87631
  C -14.05890  19.95770  25.71931
  C -15.58790  18.89370  22.32731
  C -18.52590  21.33470  22.04331
  C -20.61990  18.79370  19.94131
  C -20.30190  16.13770  22.80331
  C -23.35890  17.24370  24.78931
  C -25.66690  17.48070  21.69231
  C -24.49990  14.02470  20.47431
  C -25.01890  12.54870  23.98231
  C -28.54290  13.99670  24.20631
  C -29.50390  12.87770  20.59031
  C -28.45790   9.28270  21.49231
  C -30.23590   9.38870  24.95831
  C -33.48490  10.45370  23.20531
  C -33.49390   6.90270  21.68431
  C -31.64290   4.84070  24.34631
  C -34.22490   5.94470  27.03231
  C -36.88690   4.12970  24.88531
  C -34.92890   0.84670  24.49631
  C -35.72390  -2.02930  26.97431
  C -32.94590  -3.40930  29.20931
  C -34.12090  -6.89130  30.35431
  C -32.00490  -8.91930  32.86231
  C -30.81590 -12.08730  30.99731
  C -28.78290 -14.71630  32.99531
  C -28.08490 -12.00530  35.63931
  C -26.73090  -9.42030  33.07131
  C -28.38890  -6.18830  31.80631
  C -28.92290  -6.78230  28.03931
  C -30.73790  -4.63130  25.40931
  C -33.82390  -5.71830  23.44231
  C -32.98190  -5.33330  19.72031
  C -33.69990  -1.83130  18.30431
  C -31.92890   0.66370  15.98431
  C -29.11590  -1.77930  14.93831
  C -27.95390  -1.96330  18.63331
  C -26.63190  -5.61230  18.59431
  C -23.00690  -4.33830  18.90431
  C -23.95790  -2.05930  21.88431
  C -25.76490  -4.92230  23.69431
  C -22.72190  -7.23230  23.11231
  C -20.34790  -4.49830  24.46131
  C -22.70490  -3.78330  27.43131
  C -22.85690  -7.50030  28.37131
  C -19.04090  -7.79930  28.03131
  C -18.40190  -4.71930  30.22531
  C -20.37490  -6.41330  33.09431
  C -17.88790  -9.40830  33.03731
  C -14.43690  -7.69930  32.93531
  C -12.67890  -5.44230  35.51431
  C -12.52490  -1.77930  34.25231
  C -12.41990   1.64370  35.97031
  C -13.53490   4.54470  33.68631
  C -11.61690   7.87670  34.12331
  C -14.60990  10.20470  33.26731
  C -17.03390  10.28870  36.23831
  C -19.89090  10.46770  33.68831
  C -18.90690   6.99470  32.33431
  C -18.16390   5.45770  35.82131
  C -21.51690   6.64570  37.32531
  C -23.48390   5.44870  34.26131
  C -21.59490   2.06970  34.26231
  C -22.69090   1.48070  37.92231
  C -26.29890   2.44770  36.99731
  C -26.23190   0.13270  33.93831
  C -24.91090  -2.79230  36.03131
  C -27.93190  -2.29730  38.37631
  C -30.35290  -2.43230  35.39331
  C -30.65690   1.27870  34.19931
  C -28.36690   1.34370  31.12231
  C -30.00090   4.09970  28.91831
  C -27.46090   6.80670  29.94431
  C -24.48790   4.47470  29.71631
  C -25.52590   3.39070  26.14231
  C -25.96190   7.08970  25.05531
  C -22.53190   7.89570  26.48531
  C -20.93590   4.90770  24.66631
  C -22.38990   6.33570  21.35631
  C -21.15090   9.90970  22.13331
  C -17.65790   8.73370  23.16631
  C -17.34090   6.39670  20.07731
  C -18.55690   9.16570  17.65131
  C -21.49890   6.89170  16.61431
  C -25.17090   7.80770  16.20131
  C -28.17590   5.58770  16.83731
  C -28.75690   3.19570  13.87731
  C -25.12090   3.39770  12.68231
  C -23.44290   0.00170  12.14331
  C -20.81090  -0.62630  14.82431
  C -17.98390  -3.03430  15.61131
  C -17.58890  -4.40330  19.20231
  C -13.74090  -4.48630  19.03831
  C -13.65790  -0.84930  17.81931
  C -16.18590   0.17670  20.57931
  C -14.20490  -1.67030  23.36131
  C -10.98590  -0.02530  22.05831
  C -12.49290   3.50270  22.45531
  C -13.89790   2.68370  25.95331
  C -10.52890   1.14170  27.08931
  C  -8.88190   4.49170  26.00031
  C -11.22190   6.15070  28.59131
  C -10.29590   3.60470  31.32531
  C  -7.40490   3.20370  33.80631
  C  -5.27990   0.51370  32.08831
  C  -1.85290   2.10470  33.06931
  C  -0.81790  -0.95430  35.24231
  C  -1.47790  -3.07330  32.13531
  C   1.82610  -4.28030  30.70731
  C   2.52210  -6.72430  27.83531
  C   6.04510  -7.97930  26.93731
  C   6.35910  -9.67330  23.50031
  C   9.27610 -11.53230  21.93531
  C   9.70510 -11.52930  18.13831
  C  12.12710 -14.25830  16.83531
  C  13.46710 -14.06130  13.18431
  C  16.12710 -16.38730  11.57131
  C  18.18310 -13.35730  10.30531
  C  17.19110 -10.30430  12.44531
  C  17.21810 -12.46730  15.65031
  C  15.15910 -11.73430  18.83231
  C  13.53610  -8.40430  19.81531
  C  11.41410  -7.82230  22.92431
  C   8.99310  -4.84930  23.14931
  C   6.82610  -3.69430  26.07431
  C   3.22310  -2.41230  25.47231
  C   1.16510  -0.46930  28.09331
  C  -2.54890   0.54270  28.39931
  C  -4.97790  -0.45330  25.62431
  C  -2.32690  -2.08130  23.40331
  C  -1.41490  -4.36930  26.41031
  C  -4.97390  -5.88930  26.53331
  C  -6.03490  -6.10930  22.81531
  C  -4.64490  -8.28630  20.00431
  C  -6.00490  -8.59330  16.42531
  C  -5.08390 -11.81830  14.52231
  C  -6.09690 -14.79030  16.73931
  C  -8.89590 -15.65630  19.17931
  C  -6.70390 -18.19630  21.18231
  C  -4.85790 -16.71430  24.22731
  C  -3.03390 -20.13930  24.39331
  C  -1.84690 -19.74530  20.72831
  C  -0.58290 -16.19930  21.51831
  C   1.54210 -17.76030  24.35831
  C   2.90510 -20.55830  22.03931
  C   3.62010 -17.92730  19.32231
  C   1.97210 -16.78830  16.03731
  C   3.57910 -16.17230  12.60131
  C   3.91310 -12.39930  11.71031
  C   5.75910 -10.51830   8.88331
  C   8.02610 -14.48030   8.63131
  C   8.88310 -14.30730  12.40831
  C   7.35410 -15.61230  15.69931
  C   5.60310 -13.19230  18.05631
  C   4.94510 -14.83530  21.46331
  C   3.76110 -13.46230  24.81331
  C   6.58710 -13.16130  27.40431
  C   4.73710 -11.38230  30.30231
  C   1.05610 -10.22530  30.76931
  C  -0.09290  -7.95230  33.65231
  C  -3.81890  -7.10830  33.23631
  C  -7.14490  -8.28530  34.79031
  C  -8.29290  -9.54630  31.31431
  C  -7.17890  -9.80430  27.67331
  C  -9.24790  -9.39330  24.48531
  C  -8.29290 -11.64930  21.53531
  C  -9.96490 -10.71930  18.16331
  C  -9.83190 -11.92530  14.54931
  C -11.94090 -11.63330  11.36631
  C -14.97890 -13.87930  12.01431
  C -14.36790 -17.64530  11.48231
  C -15.93590 -20.90430  12.76931
  C -14.53290 -21.47730  16.28831
  C -15.18390 -23.89730  19.11531
  C -15.82990 -22.36730  22.56131
  C -15.19790 -24.66130  25.58331
  C -17.08790 -24.11130  28.89731
  C -14.65290 -22.80330  31.55731
  C -11.79590 -21.83130  29.11531
  C -12.87490 -18.17730  28.40531
  C -15.00590 -15.44730  30.07631
  C -17.22690 -14.39730  27.12931
  C -17.15990 -13.92430  23.32331
  C -18.64990 -11.93830  20.39031
  C -20.40790 -14.00230  17.70031
  C -20.77590 -12.19230  14.33831
  C -22.98990 -13.50830  11.49131
  C -23.29190 -12.07830   7.92731
  C -21.36290  -9.67130   5.68031
  C -18.76590  -7.03930   6.66731
  C -20.50090  -4.11730   8.50531
  C -24.18490  -5.17130   8.11131
  C -24.26790  -8.45730  10.06831
  C -25.62790  -9.29930  13.55431
  C -23.73390  -9.76230  16.86031
  C -24.68690 -12.17730  19.68431
  C -22.83990 -12.72030  22.99431
  C -21.61090 -16.09930  24.39331
  C -20.83190 -16.20730  28.16031
  C -19.28390 -19.18630  30.06131
  C -21.20790 -19.82530  33.33631
  C -22.06390 -23.32630  34.71031
  C -22.89090 -23.88730  30.98631
  C -22.64190 -21.77630  27.74631
  C -25.31790 -19.07430  27.44431
  C -25.93790 -17.28730  24.12131
  C -27.51490 -13.82730  24.69931
  C -29.19090 -12.33930  21.58031
  C -30.58690  -9.02130  22.93031
  C -33.69490 -10.17530  24.91931
  C -33.32390 -13.82330  23.69231
  C -31.42990 -16.53830  25.66931
  C -30.39390 -20.08430  24.63431
  C -27.97490 -22.47430  26.43331
  C -25.88290 -25.47430  25.35131
  C -22.90490 -27.45130  26.80731
  C -21.01090 -27.01930  23.48531
  C -20.61190 -24.22030  20.89131
  C -19.14490 -23.86430  17.42731
  C -19.90990 -20.71930  15.40731
  C -18.51490 -17.54330  13.88731
  C -16.47790 -15.78530  16.66531
  C -14.55590 -12.48630  16.28931
  C -13.76190 -11.55230  19.94831
  C -12.86690 -13.75230  22.95631
  C -12.28290 -12.28330  26.47631
  C -10.12190 -14.15930  29.06731
  C  -9.24890 -13.49330  32.75431
  C  -5.61990 -12.62530  33.67331
  C  -3.67590 -11.21430  36.70631
  C   0.07910 -11.97730  36.09931
  C   1.49210 -14.41530  33.47631
  C   5.19510 -15.12330  32.75931
  C   6.09710 -17.68330  29.99031
  C   8.31510 -20.78930  30.64531
  C  10.21310 -20.05130  27.30831
  C -78.02821  37.68922  34.30197
  C -77.62521  34.12522  35.77097
  C -74.32921  33.13922  37.51597
  C -72.18021  30.15822  36.33897
  C -68.78821  28.48422  36.99097
  C -66.05621  28.61722  34.27797
  C -63.08421  26.19722  34.46697
  C -60.46621  24.51722  32.17597
  C -59.77221  21.55022  34.54497
  C -63.14621  21.20122  36.41897
  C -61.17221  21.62122  39.76497
  C -60.51121  25.38822  39.96097
  C -63.97021  27.00722  39.42297
  C -64.48421  30.76622  38.74797
  C -67.77421  32.62422  39.41997
  C -69.05021  34.66222  36.43397
  C -72.20721  36.81222  36.06397
  C -73.33621  36.28822  32.40197
  C -75.74421  38.56122  30.43897
  C -78.88821  36.53422  29.43697
  C -78.99321  38.68022  26.16397
  C -75.33721  37.91722  25.03797
  C -74.09921  34.47322  23.77497
  C -71.52921  32.62022  25.96597
  C -68.99921  33.25822  23.10197
  C -69.34321  37.08122  23.18997
  C -68.63121  36.90122  26.99597
  C -66.00221  34.05622  27.46397
  C -64.86921  32.87022  23.98897
  C -65.41321  29.17822  23.15297
  C -67.59921  27.69822  25.99097
  C -68.73721  24.02222  26.46297
  C -71.41821  22.26122  28.64497
  C -70.62521  18.56122  29.35697
  C -68.93821  18.31622  25.90797
  C -71.68121  20.20222  23.96597
  C -70.48521  23.44522  22.21797
  C -72.62121  26.39922  23.54197
  C -70.39321  29.30522  22.25697
  C -73.21921  30.60922  19.95697
  C -76.05321  29.85722  22.50697
  C -77.53721  32.34322  25.04597
  C -77.84821  31.42922  28.76197
  C -81.11121  29.52822  29.72797
  C -82.45021  29.77522  33.35797
  C -81.64121  26.02122  34.00297
  C -77.93821  26.94922  33.22297
  C -77.93221  28.88622  36.62197
  C -74.95621  27.75322  38.82797
  C -73.71421  24.96622  36.36597
  C -70.01921  24.54422  35.32697
  C -68.78421  25.38122  31.76997
  C -65.34421  24.62222  30.33897
  C -63.85221  27.75322  28.63397
  C -60.80921  28.03722  26.34897
  C -57.99421  29.60322  28.44697
  C -58.04721  33.41622  27.85197
  C -55.75521  34.60922  30.72197
  C -52.43721  33.44922  32.27297
  C -54.15021  31.86722  35.32897
  C -56.26521  29.55122  33.08297
  C -53.35621  28.73322  30.67097
  C -51.23021  27.63522  33.69297
  C -54.15021  25.63422  35.16997
  C -54.74621  24.00522  31.69897
  C -51.04221  22.98522  31.36997
  C -50.96521  21.67022  35.00997
  C -54.14621  19.55922  34.43897
  C -53.56421  18.31422  30.77597
  C -49.75621  18.77122  30.25297
  C -50.42921  20.60422  26.93297
  C -50.61321  24.29822  25.77597
  C -52.14221  23.23422  22.38397
  C -55.08021  25.67522  22.09997
  C -57.17421  23.13422  19.99797
  C -56.85621  20.47822  22.85997
  C -59.91321  21.58422  24.84597
  C -62.22121  21.82122  21.74897
  C -61.05421  18.36522  20.53097
  C -61.57321  16.88922  24.03897
  C -65.09721  18.33722  24.26297
  C -66.05821  17.21822  20.64697
  C -65.01221  13.62322  21.54897
  C -66.79021  13.72922  25.01497
  C -70.03921  14.79422  23.26197
  C -70.04821  11.24322  21.74097
  C -68.19721   9.18122  24.40297
  C -70.77921  10.28522  27.08897
  C -73.44121   8.47022  24.94197
  C -71.48321   5.18722  24.55297
  C -72.27821   2.31122  27.03097
  C -69.50021   0.93122  29.26597
  C -70.67521  -2.55078  30.41097
  C -68.55921  -4.57878  32.91897
  C -67.37021  -7.74678  31.05397
  C -65.33721 -10.37578  33.05197
  C -64.63921  -7.66478  35.69597
  C -63.28521  -5.07978  33.12797
  C -64.94321  -1.84778  31.86297
  C -65.47721  -2.44178  28.09597
  C -67.29221  -0.29078  25.46597
  C -70.37821  -1.37778  23.49897
  C -69.53621  -0.99278  19.77697
  C -70.25421   2.50922  18.36097
  C -68.48321   5.00422  16.04097
  C -65.67021   2.56122  14.99497
  C -64.50821   2.37722  18.68997
  C -63.18621  -1.27178  18.65097
  C -59.56121   0.00222  18.96097
  C -60.51221   2.28122  21.94097
  C -62.31921  -0.58178  23.75097
  C -59.27621  -2.89178  23.16897
  C -56.90221  -0.15778  24.51797
  C -59.25921   0.55722  27.48797
  C -59.41121  -3.15978  28.42797
  C -55.59521  -3.45878  28.08797
  C -54.95621  -0.37878  30.28197
  C -56.92921  -2.07278  33.15097
  C -54.44221  -5.06778  33.09397
  C -50.99121  -3.35878  32.99197
  C -49.23321  -1.10178  35.57097
  C -49.07921   2.56122  34.30897
  C -48.97421   5.98422  36.02697
  C -50.08921   8.88522  33.74297
  C -48.17121  12.21722  34.17997
  C -51.16421  14.54522  33.32397
  C -53.58821  14.62922  36.29497
  C -56.44521  14.80822  33.74497
  C -55.46121  11.33522  32.39097
  C -54.71821   9.79822  35.87797
  C -58.07121  10.98622  37.38197
  C -60.03821   9.78922  34.31797
  C -58.14921   6.41022  34.31897
  C -59.24521   5.82122  37.97897
  C -62.85321   6.78822  37.05397
  C -62.78621   4.47322  33.99497
  C -61.46521   1.54822  36.08797
  C -64.48621   2.04322  38.43297
  C -66.90721   1.90822  35.44997
  C -67.21121   5.61922  34.25597
  C -64.92121   5.68422  31.17897
  C -66.55521   8.44022  28.97497
  C -64.01521  11.14722  30.00097
  C -61.04221   8.81522  29.77297
  C -62.08021   7.73122  26.19897
  C -62.51621  11.43022  25.11197
  C -59.08621  12.23622  26.54197
  C -57.49021   9.24822  24.72297
  C -58.94421  10.67622  21.41297
  C -57.70521  14.25022  22.18997
  C -54.21221  13.07422  23.22297
  C -53.89521  10.73722  20.13397
  C -55.11121  13.50622  17.70797
  C -58.05321  11.23222  16.67097
  C -61.72521  12.14822  16.25797
  C -64.73021   9.92822  16.89397
  C -65.31121   7.53622  13.93397
  C -61.67521   7.73822  12.73897
  C -59.99721   4.34222  12.19997
  C -57.36521   3.71422  14.88097
  C -54.53821   1.30622  15.66797
  C -54.14321  -0.06278  19.25897
  C -50.29521  -0.14578  19.09497
  C -50.21221   3.49122  17.87597
  C -52.74021   4.51722  20.63597
  C -50.75921   2.67022  23.41797
  C -47.54021   4.31522  22.11497
  C -49.04721   7.84322  22.51197
  C -50.45221   7.02422  26.00997
  C -47.08321   5.48222  27.14597
  C -45.43621   8.83222  26.05697
  C -47.77621  10.49122  28.64797
  C -46.85021   7.94522  31.38197
  C -43.95921   7.54422  33.86297
  C -41.83421   4.85422  32.14497
  C -38.40721   6.44522  33.12597
  C -37.37221   3.38622  35.29897
  C -38.03221   1.26722  32.19197
  C -34.72821   0.06022  30.76397
  C -34.03221  -2.38378  27.89197
  C -30.50921  -3.63878  26.99397
  C -30.19521  -5.33278  23.55697
  C -27.27821  -7.19178  21.99197
  C -26.84921  -7.18878  18.19497
  C -24.42721  -9.91778  16.89197
  C -23.08721  -9.72078  13.24097
  C -20.42721 -12.04678  11.62797
  C -18.37121  -9.01678  10.36197
  C -19.36321  -5.96378  12.50197
  C -19.33621  -8.12678  15.70697
  C -21.39521  -7.39378  18.88897
  C -23.01821  -4.06378  19.87197
  C -25.14021  -3.48178  22.98097
  C -27.56121  -0.50878  23.20597
  C -29.72821   0.64622  26.13097
  C -33.33121   1.92822  25.52897
  C -35.38921   3.87122  28.14997
  C -39.10321   4.88322  28.45597
  C -41.53221   3.88722  25.68097
  C -38.88121   2.25922  23.45997
  C -37.96921  -0.02878  26.46697
  C -41.52821  -1.54878  26.58997
  C -42.58921  -1.76878  22.87197
  C -41.19921  -3.94578  20.06097
  C -42.55921  -4.25278  16.48197
  C -41.63821  -7.47778  14.57897
  C -42.65121 -10.44978  16.79597
  C -45.45021 -11.31578  19.23597
  C -43.25821 -13.85578  21.23897
  C -41.41221 -12.37378  24.28397
  C -39.58821 -15.79878  24.44997
  C -38.40121 -15.40478  20.78497
  C -37.13721 -11.85878  21.57497
  C -35.01221 -13.41978  24.41497
  C -33.64921 -16.21778  22.09597
  C -32.93421 -13.58678  19.37897
  C -34.58221 -12.44778  16.09397
  C -32.97521 -11.83178  12.65797
  C -32.64121  -8.05878  11.76697
  C -30.79521  -6.17778   8.93997
  C -27.25021  -4.87678   9.83297
  C -25.43821  -5.38778   4.66897
  C -25.70721  -8.83578   6.42797
  C -28.52821 -10.13978   8.68797
  C -27.67121  -9.96678  12.46497
  C -29.20021 -11.27178  15.75597
  C -30.95121  -8.85178  18.11297
  C -31.60921 -10.49478  21.51997
  C -32.79321  -9.12178  24.86997
  C -29.96721  -8.82078  27.46097
  C -31.81721  -7.04178  30.35897
  C -35.49821  -5.88478  30.82597
  C -36.64721  -3.61178  33.70897
  C -40.37321  -2.76778  33.29297
  C -43.69921  -3.94478  34.84697
  C -44.84721  -5.20578  31.37097
  C -43.73321  -5.46378  27.72997
  C -45.80221  -5.05278  24.54197
  C -44.84721  -7.30878  21.59197
  C -46.51921  -6.37878  18.21997
  C -46.38621  -7.58478  14.60597
  C -48.49521  -7.29278  11.42297
  C -51.53321  -9.53878  12.07097
  C -50.92221 -13.30478  11.53897
  C -52.49021 -16.56378  12.82597
  C -51.08721 -17.13678  16.34497
  C -51.73821 -19.55678  19.17197
  C -52.38421 -18.02678  22.61797
  C -51.75221 -20.32078  25.63997
  C -53.64221 -19.77078  28.95397
  C -51.20721 -18.46278  31.61397
  C -48.35021 -17.49078  29.17197
  C -49.42921 -13.83678  28.46197
  C -51.56021 -11.10678  30.13297
  C -53.78121 -10.05678  27.18597
  C -53.71421  -9.58378  23.37997
  C -55.20421  -7.59778  20.44697
  C -56.96221  -9.66178  17.75697
  C -57.33021  -7.85178  14.39497
  C -59.54421  -9.16778  11.54797
  C -59.84621  -7.73778   7.98397
  C -57.91721  -5.33078   5.73697
  C -55.32021  -2.69878   6.72397
  C -57.05521   0.22322   8.56197
  C -60.73921  -0.83078   8.16797
  C -60.82221  -4.11678  10.12497
  C -62.18221  -4.95878  13.61097
  C -60.28821  -5.42178  16.91697
  C -61.24121  -7.83678  19.74097
  C -59.39421  -8.37978  23.05097
  C -58.16521 -11.75878  24.44997
  C -57.38621 -11.86678  28.21697
  C -55.83821 -14.84578  30.11797
  C -57.76221 -15.48478  33.39297
  C -58.61821 -18.98578  34.76697
  C -59.44521 -19.54678  31.04297
  C -59.19621 -17.43578  27.80297
  C -61.87221 -14.73378  27.50097
  C -62.49221 -12.94678  24.17797
  C -64.06921  -9.48678  24.75597
  C -65.74521  -7.99878  21.63697
  C -67.14121  -4.68078  22.98697
  C -70.24921  -5.83478  24.97597
  C -69.87821  -9.48278  23.74897
  C -67.98421 -12.19778  25.72597
  C -66.94821 -15.74378  24.69097
  C -64.52921 -18.13378  26.48997
  C -62.43721 -21.13378  25.40797
  C -59.45921 -23.11078  26.86397
  C -57.56521 -22.67878  23.54197
  C -57.16621 -19.87978  20.94797
  C -55.69921 -19.52378  17.48397
  C -56.46421 -16.37878  15.46397
  C -55.06921 -13.20278  13.94397
  C -53.03221 -11.44478  16.72197
  C -51.11021  -8.14578  16.34597
  C -50.31621  -7.21178  20.00497
  C -49.42121  -9.41178  23.01297
  C -48.83721  -7.94278  26.53297
  C -46.67621  -9.81878  29.12397
  C -45.80321  -9.15278  32.81097
  C -42.17421  -8.28478  33.72997
  C -40.23021  -6.87378  36.76297
  C -36.47521  -7.63678  36.15597
  C -35.06221 -10.07478  33.53297
  C -31.35921 -10.78278  32.81597
  C -30.45721 -13.34278  30.04697
  C -28.23921 -16.44878  30.70197
  C -26.34121 -15.71078  27.36497
